HBB
HBA2
HBA1
MARCO
S100A9
FN1
C1QB
S100A8
GNLY
RELN
C1QA
HLA-DRA
CD74
C1QC
AL357507.1
FTL
CST3
ZNF804B
KCNMA1
LYZ
CADM2
RNASE1
CD14
COL25A1
PDZRN4
KCNAB1
CTSS
FCGR3A
NRG3
RCAN2
ADGRL3
GRID2
CYBB
CTSB
PCDH11X
APOE
CNTNAP2
HLA-DRB1
CCL21
FCN1
CTSZ
LINC02147
PRG4
SCD
AIF1
HLA-DPA1
MYH11
PSAP
CXCL10
KYNU
KCNIP4
CD163
RBP7
HLA-DQA1
NKAIN2
CCL4
ITLN1
TIMD4
LYVE1
SGCZ
TYROBP
FCER1G
VSIG4
F13A1
MMRN1
HLA-DPB1
ROBO2
IFNG-AS1
SPP1
NKG7
TPO
RGS6
TLL1
PROX1
IGKC
S100A4
TNC
KRT19
GRN
KCNB2
RGS5
FMN1
PLEK
CLSTN2
VCAN
ACTB
SCEL
EMP3
CHRM2
MECOM
LAPTM5
HTR4
HLA-DQB1
FTH1
FYB2
LINC02388
MSR1
LOXHD1
LINC00639
MAMDC2
MSLN
APOC1
MERTK
DPYS
CLNK
SLC39A8
MS4A6A
SLCO2A1
BIRC3
ADAMTS19
TEX41
FYB1
UNC5D
THEMIS
SRGN
MS4A4E
LINGO2
LRRTM4
COLEC12
STAB2
KCNIP1
SAMSN1
ITGB2
CPA3
CTNNA2
RBM47
CA4
MFAP5
ADAMTSL1
NRXN3
PTCHD4
LGMN
FOLR2
ARHGAP22
ZNF804A
KRT18
EYA1
SLCO5A1
HHIP
AC074327.1
CXCL3
TENM2
CXCL9
KRT8
CXCL11
LINC02511
AC093772.1
FHL5
AC244205.1
TFEC
CD163L1
CD83
LAMP3
LINC01748
CDH13
BTNL9
UPK3B
TGFBI
KCTD8
CCL4L2
NALCN
AL162414.1
RAB3C
RYR3
ADAMTS16
SERPINE1
LINC02055
HP
DIAPH3
ARL15
FCER1A
GPC5
CCL13
FAM155A
NELL1
NWD2
GRIN2A
SH3RF2
HSD11B1
CD84
HTR2C
SFMBT2
NRXN1
HPGDS
LINC00968
IGHM
SLPI
NPL
CD44
BMP2K
ANO2
MCTP1
JCHAIN
ALAS2
IL7R
FGF13
CCL3
KCNQ5
PCDH7
MYOCD
AQP1
HBG1
LINC00540
PTPRB
SKAP1
GPM6A
NPFFR2
VAT1L
SH3BGRL3
CCL18
NDUFA4L2
MMP16
GUCY1A2
FGF14
EDIL3
PIEZO2
PDE10A
TFPI2
LINC01021
AC011287.1
MRC1
HLA-DRB5
PLCXD3
CYYR1
RBFOX1
CHRM3
POSTN
AP000561.1
HSD52
CCDC178
IL1RAPL2
FRMPD4
HBG2
IGFBP6
C3
FMNL2
TIMP1
ME1
PPP2R2B
EPHA3
CCL2
RNF144B
SLC2A5
LINC01094
TNF
CCR7
SYK
AKAP6
FPR3
NCF1
HLA-DMB
KRT5
TBXAS1
AOAH
CTNNA3
CLEC12A
KCND2
ZNF385D
PTPRT
EPHA6
HPGD
GABRB2
PCDH15
LINC01695
SIGLEC1
C3AR1
MGAT4C
SYT1
RERGL
STOX2
LINC01876
ITGAM
SLC11A1
CR1
HDAC9
NRG1
XACT
IL2RA
CMKLR1
AC099673.1
LYN
CYBA
TMSB10
ABCB1
TPT1
SNX24
GREM1
LINC02232
SCN7A
DLEU7-AS1
AC243829.2
LTB
AFF3
HS6ST3
CST6
CD1C
AC074286.1
KCNH5
DGKI
SDC3
PIK3AP1
CDH19
PDGFD
S100A11
SEMA5A
OLR1
ENPP2
PIK3R5
COTL1
MIR3142HG
FRAS1
AC092979.1
STON2
ACTA2
KCTD16
HCK
KIF25
LST1
S100A6
SNTG2
SLC8A3
DOCK2
ITGA8
SCN9A
GAS7
CYR61
AC113383.1
ADGRL4
LHX6
STAB1
ANO4
WDFY4
AC020637.1
AJAP1
CCDC3
PDE1C
PTPRC
VWF
CD52
AL358335.2
THBS4
GRM7
ICAM1
EMCN
MKI67
AL110292.1
IL1R2
DPP6
ST6GALNAC5
PAPSS2
NR4A3
ESRRG
LINC02476
S100A10
AC008691.1
AADAC
LINC01934
KIT
CHST11
AC092691.1
AC110995.1
FABP4
TOX
LRP2
DACH1
LINC01088
MS4A7
CD86
DAB1
PIK3C2G
MIR646HG
LINC02360
AC005885.1
THSD7B
BMP6
HPSE2
MTSS1
ANK3
IQGAP2
KIAA1217
CPB1
IL1B
GADL1
NPC2
CSN1S1
SPOCK1
SLC40A1
CD300LG
NCAM2
ALCAM
LINC00976
AC024901.1
MYOC
NKAIN3
RYR2
PROX1-AS1
PDE4B
AL450332.1
ATRNL1
KRT7
PTPRQ
SLC2A9
ACTG1
AL590385.2
DRAM1
IL1RAPL1
STEAP4
LINC01266
TREM2
AC114689.3
CCDC141
AC027288.3
CXCL2
TFF3
ENAM
VEGFC
SEMA3C
EGR1
OGN
AC103409.1
TRABD2B
GRIP1
AC138305.1
SYNPO2
AC100849.1
AC116345.1
DKK2
LINC00923
AC008591.1
MS4A4A
AC098617.1
IGLL5
FLT1
AC092546.1
CDH20
TRPC6
LIPA
GUCY1A3
FCGRT
ADAMTS18
NTRK3
SAA1
AC073050.1
ADGRB3
COX4I2
MT-CYB
AIM2
BLK
FCGR2B
CD247
DCLK1
AGMO
AC018742.1
ABCB5
AC016152.1
SLCO2B1
EZR
LTBP1
RPS5
GATA4
GRIA1
FRMD5
NEGR1
WDR49
LINC00871
RPL28
C5orf17
NCKAP5
FLT3
MIR325HG
GPAT3
GRIK2
KLHL4
DGKB
LINC01684
PCLO
AL392023.2
PAPPA
RPS21
AC009271.1
AC099560.1
TFPI
FCGBP
MT-ND2
HRH1
AC134511.1
RPLP1
BRINP2
LINC00276
GRIK1
PARM1
AL356277.3
ADGRE5
CCL5
FAM19A1
DTHD1
MTUS2
ATP8B4
SMPD3
KCTD12
RETN
TOP2A
PKHD1
EBF2
AC087857.1
LMNA
CCR1
LINC01036
SGIP1
RPS12
SPATA9
CDR1
PLA2G2A
AHSP
AP003354.2
AC099792.1
CLEC10A
TSPEAR
ADIRF
ST8SIA4
RPL8
PCP4
ABCB11
CYP7B1
FGF10
LINC02296
MT-ND4
LINC01505
TMEM178B
MT2A
RIMS1
TMSB4X
DGKG
LINC00989
KHDRBS2
LRRC4C
TAGLN
CHL1
AC087565.3
SAMD3
TMEM164
NEIL3
E2F7
ABCC4
DLEU7
XKR4
LCP1
RPL29
GPNMB
AC012593.1
COL8A1
S100Z
RUNX1
THSD4
CRISPLD1
SPRED1
BTBD11
FLRT2
MT-ND1
ABLIM3
PLCB4
SLC9A9
CCSER1
HS3ST2
CLDN1
SCG3
P2RY14
ARHGAP15
KLRC1
ITGA4
KAZN
LINC01170
SOX2-OT
EFNB2
AC024230.1
FBN1
TP63
LNX1
MT-CO2
CCBE1
ADAM23
CD4
SULF1
ACKR1
CLIC5
MS4A1
ERBB4
KCNT2
GZMH
RIMS2
DISC1FP1
FAM163A
SGO1-AS1
CLVS1
LINC00598
CHODL
CXCL1
GAPDH
SEZ6L
ACSM3
AC026167.1
ELAVL4
HECW2
DAPP1
ITGBL1
COL15A1
VAV3
PRR16
ALOX5AP
ITGB8
RUBCNL
ADAP2
GABRG1
CD1E
AC104041.1
LINC01950
NCKAP1L
LILRB5
ADAMTSL3
RPL12
LINC00922
PLTP
TRPM3
MT-CO1
NELL2
RPL13
C1orf162
LRP1B
SLC4A4
SLC38A11
ANO3
LINC02328
CHST15
DLGAP1
LINC01340
AC005358.1
ADGRF5
AGTR1
IGLC3
AC004052.1
TPP1
CTSD
AC109779.1
AC090531.1
GALNT13
LINC00861
NOX4
RPS23
RPL18
ENTPD1
SNCAIP
RPS13
AC013652.1
LINC02008
CDON
CXorf36
BCHE
HLA-B
SORBS2
IFI27
TFCP2L1
GFRA1
IFIT2
AOX1
AL603840.1
ABCC3
KIF26B
KCNK13
DMXL2
IL10RA
UBASH3B
SLC1A2
COL11A1
NEBL
CLDN5
FAM111B
IGSF11
AC090833.1
CFP
PI16
LINC01146
RPS19
A2M
CSF1R
C8orf34
NCEH1
ALOX5
AC068051.1
MT1G
CACNA2D3
TFRC
TMEM108
SMAP2
FRMD6-AS2
RPL19
FLNC
BCL11A
LGALS1
AC009226.1
CFL1
MS4A2
ST6GALNAC3
PTPRJ
ADAM28
TM4SF1
SAMD12
AC008050.1
GCH1
BMPR1B
GBP1
AC025569.1
PDE3B
SAMHD1
MMP2-AS1
LINC02211
LSAMP
FGL2
ARSI
ZNF385B
NCAM1
SEMA3D
RAPGEF5
LINC02240
TSPAN5
NRP2
RPL32
RPL35A
PKHD1L1
RMST
GPR65
FAT3
GPC6
NTNG1
MCTP2
NTN1
AL356108.1
CASC15
SPI1
NAMPT
PACRG
RPS14
HMOX1
GATA6
SELL
DAB2
HBD
AC019211.1
IGFBP7
E2F8
MDGA2
MNDA
FNDC1
AL034397.3
ARHGAP28
RPL34
CPA6
CALB2
HCN1
DIRC3
RPS16
PGM5
CPA4
AC011503.1
CDH18
ASPM
ASTN1
STK32B
RAB27B
TMTC2
CD55
PLCB1
ST8SIA6
INPP4B
RBPJ
RPS8
CNTN1
AC124254.1
KCNS3
ADARB2
LINC00840
RORB
B2M
EEF2
GFPT2
LINC01725
CACNA1C
ADAMTS3
HS3ST1
FOS
POU2F2
KRT1
LYPD6
OPCML
WT1
LINC00504
KC6
SFRP1
LINC02307
GLIS3
LAMA2
DTL
GRIN2B
SMIM25
MT1H
ADGRD1
LINC02237
AC022075.1
CPNE4
LRRC3B
LINC02540
HLA-DMA
PCDH9
CTSW
TPPP3
KMO
RARRES1
CNTN4
IKZF1
RPS3
AP005203.1
RBM20
KNL1
NLGN4X
AC138123.2
IGHG4
TXK
CYP1B1-AS1
PDE4D
SLIT2
TMX4
TNFRSF12A
WARS
ADRA1A
C2
AL356479.1
TRAV17
MCOLN2
AC116353.4
DPP10
BNC1
SERPINA1
CSMD3
BBOX1-AS1
BRIP1
SAMD5
OTOGL
MYO5B
AL022068.1
DSP
IFI44L
SEMA3E
CYP1B1
RPL36
SCN3A
LINC01949
SH3GL2
NR5A2
PTHLH
AC009975.1
CASC9
SLC44A5
CD53
RPS18
NUSAP1
FAM160A1
MID1
SNAP91
PLD5
AC007656.1
HCST
ST18
LINC00534
HMCN1
HMGCLL1
NXPH2
AL033504.1
IGLC2
PEX5L
CCL20
ANLN
DOCK10
ADA2
CAMK4
CREB5
RPS4X
GZMB
MARCH1
BUB1B
PRKCB
CCDC26
AC016766.1
ELOVL7
LINC01230
AC124854.1
GZMA
CDH6
AL445259.1
EHD4
HAND2-AS1
CXADR
GPIHBP1
COBL
PTPRE
SEMA6D
EPHA7
SELENOP
CD28
OSMR
PTPRZ1
MT-ND4L
DHRS9
ABI3
PIP5K1B
APBB1IP
AP1S2
AP002989.1
AL390036.1
S1PR3
AC090791.1
TMEM163
CPAMD8
AC112206.2
FRMD4B
ZNF536
AC012349.1
AC016708.1
AC005064.1
AFF2
CD200R1
GJA1
PRKAR2B
DAPL1
RPS6
HLA-C
CACNB2
DAPK1
RPL37
DSCAM
FASN
RPL11
AC025470.2
IGHG3
LGR5
PRLR
RPLP2
TMEM51
PPFIBP1
MEOX2
MPP7
LINC02058
LINC00970
IL32
PLVAP
MBNL3
ESCO2
FLNA
RPS11
MARCKS
FBP1
FAU
DBI
MYRIP
TNFAIP6
PDE7B
PTPRO
INMT
STAC
CIITA
ANKFN1
CLECL1
CBLN2
RNASE2
ANKRD30B
SLC1A3
PPFIA2
EPHA5
TRIM14
CHSY3
MT-ATP6
DNM1
TOX3
SLC14A2
FLI1
RPL30
MGAT1
FGF7
AC112493.1
RPL10A
ITGA6
AC090568.2
ADGRG6
IFITM3
HS3ST4
CENPF
CCDC102B
IGFL2
RPS15A
PRRX1
AKR1B10
MT-CO3
ABCA9
RNASE6
VCAM1
JAML
TK1
WFDC8
TRBC2
LINC00698
CADM1
CXCL14
SLC4A8
PXDNL
BLNK
NEK2
EPHA4
DLGAP5
PAK3
ALDH1A1
IL18R1
TRHDE-AS1
AC092832.2
VMO1
RIPOR2
ROR1
AL359232.1
HSP90AB1
CYP27A1
MPEG1
LINC02345
SLC9C1
HMGA1
LINC00578
PCK1
LINC01524
CLDN11
AC106729.1
PTPRR
AL807742.1
GRIK3
RPS27A
AC073941.1
TIMP4
FCRL5
FCRL2
LILRB4
AC005537.1
PGR
VAMP8
EMX2
AC090709.1
RACK1
KCNJ3
PAX5
FGR
ARHGAP44
TTYH3
RASGRP3
LAD1
AC073529.1
SV2C
SGO2
FHOD3
CD96
CTSL
ARHGAP25
AC105411.1
TENM4
UCP2
MKX
AL031599.1
PDLIM4
BCAT1
PFN1
MT1E
EMX2OS
COL24A1
FOSB
AC068992.1
AP000842.2
PECAM1
KIAA1211
STYK1
POU6F2
HLA-A
GZMK
KLRC4-KLRK1
PTCHD1-AS
AL035401.1
CNR1
AL445250.1
CRHBP
ASIC2
TAC1
SLC35F1
MET
MGC4859
TBC1D2
RPL23A
POLQ
PILRA
AC067956.1
LINC01239
GFRA2
SLC7A7
GPAM
CLEC14A
AC078845.1
SLC26A7
NOSTRIN
SLC14A1
PTGIS
AC010967.1
DPP4
RPS15
AC091946.1
CASC20
ARHGAP6
ACPP
CDH2
GYPA
HOMER1
VGLL3
CTAG2
PLP1
KLRF1
EYA4
AC016205.1
NTN4
PARD6G
GRID1
ZNF831
AC093607.1
AF130359.1
FAM129A
SLC25A21
FAM105A
LHFPL3
FGF1
CALCB
MAP2
AL442163.1
SOX6
PRDM6
CADM3-AS1
PCDH17
DSCAML1
NOVA1
SLC8A1
AL356124.1
AC243829.4
GNAT3
MT-ND5
MUC16
RAB31
ROR2
SMYD2
STEAP3
AC083923.2
LINC00670
DOCK8
CX3CR1
LYPD6B
IL1RL1
TIAM1
DDAH1
MAF
DEPTOR
LINC01515
PPARGC1A
DIO2
CDH4
AL138899.1
GRAP2
RGS1
HEG1
MELK
AL353784.1
AC128707.1
AC090993.1
FGF9
AC002070.1
LINC01060
PRDM16
AL139125.1
HLA-DQA2
CASQ2
NTM
LRFN5
AC096576.2
LINC02197
LINC02542
RTN1
C4orf22
FGF12
KCNMB2-AS1
AC060234.3
COL14A1
RPL7A
ID1
PLN
DTNA
GNG11
DACH2
SLC22A3
AC078923.1
JAM2
RPL14
ABCA10
ZNF367
CALM3
LINC02227
GPR155
NETO2
CD79A
ANGPT1
ARMC4
DLGAP2
CTSC
LINC00924
NPNT
SLC12A2
LINC00607
NPSR1-AS1
PAMR1
AC115622.1
MEOX1
SLC28A3
SPIB
JAKMIP2
STK33
SMAD1
AL390860.1
HTR7
PPP1R16B
AC007529.2
AC019197.1
KLHL13
PELI1
NOTCH3
STK10
MIR31HG
CATSPERB
GABRB1
ZNF366
C5AR1
AC008456.1
NDST3
CYTH1
AL499616.1
SERPING1
DYNC1I1
ACVR1C
AL356270.1
PPM1L
LY6E
IGSF21
AC004784.1
AC124657.1
APBA1
MYBL1
LRAT
GAS1
RPL10
LINC01705
ZFHX3
ADAM12
VIM
PENK
AP001605.1
TMTC1
MROH9
KCNU1
NEK10
STARD13
AL117329.1
RNF152
KCNMB4
NFKB1
LDB2
LINC02113
ERC2
SDK1
PTMA
OSBPL3
FRK
AC245041.2
CENPK
LINC01099
AL139220.2
LMO3
RHOH
CLSPN
ACSL1
ZEB2
PYHIN1
WWC1
CCL8
SCML4
ALOX15
PRKCG
GLIPR1
NNAT
FAM19A2
TSPAN18
PLCL1
AC024084.1
EHF
STAT4
HBM
AL121956.1
PLA2G2D
TPX2
AL160272.1
RCSD1
TENM3
GALNT18
ADAMTS9
CLU
TMEM182
TGFB2
NEURL1B
KIF18B
TNFRSF1B
ATP5E
FRMD3
FMN2
COL1A1
CTSH
MYLK
PCDH19
AC002066.1
AC005906.2
DCDC2C
GTSE1
LGI2
SNAP25
LINC01619
CHST9
MYO1B
TNFRSF11A
LINC01091
SLC5A8
AC010127.1
AC018680.1
KDR
ARHGAP11B
SAMD12-AS1
CA3
AC003991.1
RHOJ
AC079298.3
ZSWIM6
AC104123.1
LINC01982
MT-ND3
SV2B
LINC02223
LY86
GALNT15
PRF1
CHN2
DYSF
GBP5
KIRREL3
PTAFR
ANXA8L1
SMOC2
FGD2
GPR176
NTRK2
FAP
S100B
ANKRD33B
CSGALNACT1
LEF1
NFAM1
AC092378.1
S100A14
AL590867.1
AC079380.1
SNCA
FAM189A1
BST2
HMGA2
GRB14
AGBL4
LTA4H
TTC29
LINC01482
ADCY5
IKZF3
AC104574.2
AC120193.1
BCL11B
SLAMF1
OAZ1
AQP9
NLGN1
LINC01105
NRK
SLC24A4
KCNN3
RPL15
SORBS1
HTRA1
LINC01122
PREX1
TPRG1
AL365259.1
TRG-AS1
MFHAS1
CD2
TCERG1L
BMP5
LCP2
GYG2
FCGR2A
FGF10-AS1
MYO3A
ISM1
CAMK2A
RPL35
TACR1
AC092078.2
IQCJ-SCHIP1
AC139720.1
AC008780.1
CASC2
SLC24A3
COX4I1
IGHG1
IGHA1
LHX2
VIPR2
AC106798.1
TPM2
DSC3
PID1
LINC00536
GFOD1
PTGER3
BAALC
CNKSR3
CD3D
LAMP1
PRAG1
EZH2
CPXM2
LINC01597
PDLIM3
RASGEF1B
AC011247.1
PPP1R14A
NINJ1
AC093865.1
ADAMTS6
CALM2
RPS9
AC113137.1
FSTL4
LINC02006
CH25H
SERF2
LINC01435
MOGAT1
RHAG
UBB
CARD11
FSCN1
LINC01828
MLPH
NHSL2
ARFGEF3
GALNT17
TARID
FCRL1
VWC2
LINC01708
CNGA1
SCN1A
SCHLAP1
MYO1F
APOD
LVRN
TRAC
MITF
AC087430.1
CNTN6
ST6GAL2
MEIS2
AC092440.1
CD226
PDE1A
LRRC75A-AS1
LINC02454
CA8
CD38
CLIC1
HK3
SLC7A2
NMNAT2
PLCG2
LRRC1
SPRR2E
DGAT2
LPL
AL157911.1
LINC02405
C8orf37-AS1
P2RX1
PTH2R
CPE
LINC01902
MIR2052HG
LHX9
IFITM2
RPL38
MAOB
AC007785.1
AC006974.2
LAMB1
HSD17B6
SERTM1
UFL1-AS1
RPS20
SHISA6
RPL37A
TEC
LYPD2
ARHGEF26-AS1
TNS3
RALYL
RERG
ACP5
NALCN-AS1
RASGRF2
SPTSSB
LINC02112
GPC3
MEG8
AC007513.1
KLHL32
RPS27
AC108721.1
TRGV9
IRS1
ADAMTS17
AC020656.1
MSC-AS1
CALCRL
KCNK5
PPM1E
DISC1
AC004862.1
AC099566.1
UBA52
AC019117.1
ALDH1A2
MGLL
TGM1
PCSK6
LINC02086
RAMP3
NFKBIA
ANKS1B
SHANK2
AP005328.1
AC090125.1
LINC01869
LINC02432
GPX4
SPARCL1
AC105180.1
GPR39
VIPR1
AL133346.1
SAMD4A
FUCA1
ERG
DOCK5
AC006387.1
MYRF
EPHB1
NOTCH4
COLEC10
LINC01049
SYNPR-AS1
RBP4
DMD
SYT10
VAV1
KLRB1
SNTB1
CORO1A
IGSF6
AC098829.1
SPX
CALR
AC126177.4
P3H2
VASP
CSTB
CFAP54
AC005515.1
TNIK
RPS24
ITGAD
LAMP5
AL139412.1
GIPC2
ENPEP
TET3
UBC
LMOD1
AL591501.1
MIR4500HG
STC1
IFI30
HSPA8
PDGFC
AC063979.2
TUBA1B
PCSK5
XCL1
PFKFB1
AC009264.1
PTPRD
NEO1
ITGA1
RPL26
COL23A1
TNFAIP3
AC063949.2
MLIP
CAMK2N2
AC104996.1
MYLIP
AC008840.1
PLIN4
CFAP221
EFNA5
BUB1
CLEC7A
SPNS2
PLAC8
PODXL
AC106894.1
AC068305.3
SCARA5
AC008056.1
RNASET2
EDNRA
KLF2
IL16
GRB2
MYL6
GREB1L
RPL23
LINC02355
HAS1
DCDC1
ABCD2
SCN2A
ITK
IGFBP3
IER3
C7
BIRC5
AC117386.2
SIPA1L2
HLA-DOA
MAFB
PCAT1
SLC4A10
CALN1
AC003984.1
AC006262.1
AL139275.2
DPEP1
MMP27
SPP2
RFX2
TOX2
CGNL1
SUSD1
ZNF710
EPSTI1
AL359710.1
MME
LINC01727
SLC18A2
HS6ST2
PALM2-AKAP2
ADAMTS5
SYN2
LINC02391
PZP
NPY
TM4SF18
RGCC
AC034195.1
DEPDC1B
AL365295.1
KCNK1
LINC01133
KCND3
ABTB2
AC087235.1
MTMR7
PCDHA1
MYL9
AC108866.1
LRRC2
LAMB4
AC008514.1
HAVCR2
ARNT2
RPS25
CCDC80
STAT1
TPSAB1
CRIM1
LINC01931
SHANK3
BASP1
AC010343.3
CXXC4-AS1
NAA11
EPHA1-AS1
FAM46A
KCNB1
AC007491.1
CAMK1D
DOK6
CALCR
RSPO1
CYYR1-AS1
AC097478.1
LPCAT2
ARHGDIB
GRIA3
PLXNA4
IL2RB
TMEM71
BRCA2
CLDN16
RAP1GAP2
ISG15
FREM1
PFDN5
SLC7A13
DNASE1L3
C12orf57
AC004704.1
AC069277.1
PRR5L
CASP5
MAMLD1
HDC
IGFBP5
AC079760.1
RASSF8
AC096667.1
BMX
IL15
PRDX1
AC020911.2
COL21A1
CDCA2
ABCA6
SLC19A3
PRKD1
IQCM
TSPAN13
RPS17
AC087280.2
SLC41A2
RPL27
SBSPON
AC098864.1
KALRN
AC069228.1
LBH
LINC01572
CNKSR2
AC068633.1
TBX1
LBP
LINC00355
KLHL14
COX8A
LMCD1-AS1
SLFN12L
AL024509.3
SELP
ITGAX
GLDC
UPP2
SMOC1
LINC01182
LINC01697
NPR3
AC010737.1
AC130456.2
SLC43A2
CGN
GRIA4
RANBP17
PPARG
SYT16
SEMA6A
AC007364.1
DIAPH1
LRRIQ3
MYO16
EXT1
AL592402.1
AC107419.1
ZDHHC14
AL160290.2
PDE8B
CPPED1
LINC00907
CSMD2
COL4A6
CPVL
ELAVL2
SERPINE2
HLA-E
BMPER
CRNDE
RPS7
SHROOM3
GLI3
NRG4
PLA2G7
GPR63
IGF2
SPRR2F
SCNN1B
FLT4
PPP2R2C
ATG7
SPATA17
SNX10
AC097480.1
ID3
CD300E
AC005699.1
PAG1
AC092755.2
AC093817.1
AC114812.2
EDN2
MIR202HG
AC110023.1
CISTR
MCEMP1
LINC02073
RGS13
NFASC
YWHAH
ITGA11
RPL13A
AC244021.1
YWHAB
UNC5C
C2orf40
MGP
CCL22
CA6
LINC02085
LINC02015
CTSG
GPR183
PPP1R1A
SLC36A3
WNT16
CRTAC1
CDH11
SORL1
EVI2B
LRRTM3
RNF165
RAMP2
STXBP6
TMEM200A
KCNAB2
AL356272.1
AC009154.1
TNFAIP2
AC022424.2
UNC13C
NOS1AP
CD180
PTPN22
AC104248.1
HSPA1A
TUBB
AC007163.2
CYP19A1
UST
MAGI1
SLC22A25
IRS2
HCLS1
MPPED2
CYSLTR1
GAS1RR
MACC1
C12orf42
IL13RA2
EGFLAM
AC090630.1
PDZK1IP1
FRMPD1
AL050403.2
GPX1
NUAK1
ANOS1
HEY2
AC092920.1
ANK2
AC128689.1
SPC25
AC246817.1
AL513318.2
COL6A3
GALNT14
SERPINB2
IGHG2
TPSB2
TOMM7
BIN2
ARL6IP1
CD48
EPAS1
P2RY6
CEACAM4
VIT
LMX1A
ATP1A2
CYTH4
ABCG2
TPK1
AP000446.1
ST14
RPS29
CDH8
FCRL3
THY1
P2RY12
ARX
Z94057.1
LRRIQ1
RNF43
LAMA3
NRG2
FAM129C
HK2
RHOC
AL162725.2
HMMR
CTGF
PAGE4
SKOR2
CDH18-AS1
ABCC9
NES
AL513283.1
ADCY2
CST7
GPR1
AP1B1
ANXA3
GAA
SH3GL3
AL139383.1
C6
SHC3
TLR7
DES
CRYAB
SIK2
SLC19A2
ANKRD30A
AC026116.1
SPIC
ACOXL
CDKN2A
NLN
GPC4
VCAN-AS1
NRCAM
PLCE1
MYOM1
LY96
NECAB1
LINC01753
SLC16A7
DPYSL3
AL391117.1
LINC01235
AC097059.1
NTS
AC087897.2
ETV6
FRZB
ECM1
HACD2
ADGRE2
RPL5
AC004160.1
CACNB4
GLUL
LINC02082
SUCNR1
DOK2
C4orf32
UBA6-AS1
AP003049.2
AP2A2
NEXMIF
HIGD1B
FSHR
NTF3
GRAMD1B
AC007389.1
AC008627.1
RPLP0
CD9
FAM84A
COX7A1
NREP-AS1
ATP2B1
GREM2
LINC02254
ANGPT4
BACH2
NLK
MRVI1
TMEM233
LINC01197
BANK1
COLGALT2
AL161751.1
AL138694.1
LINC01933
CASC21
ADAMTS1
ANGPT2
AC068722.1
C9
MYO5A
CYTIP
REEP1
NAV3
GZMM
LINC02306
MYB
SIPA1L1
IGF1
TSPO
HAMP
MND1
ANTXR1
AC007527.1
ENHO
CHN1
TM6SF1
GRK3
RAPGEF4
AC092422.1
GLCCI1
HNMT
GLYAT
CLIC4
SMPDL3A
SYTL2
PNPLA3
C8orf34-AS1
MPP1
IQCA1
CMTM6
UQCRB
COL4A1
STPG2
RRM2
G0S2
GALNT9
ABCC5
ZFPM2-AS1
APCDD1
LEPR
CAVIN2
COL4A2
IPCEF1
LINC02027
MZB1
AC068643.1
ETV5
LDB3
FANCI
ELMO1
NACA
PPM1H
ADRA1B
RPL4
ST8SIA1
DOCK3
KRT6A
LINC00299
TBX2
NPHS1
MOXD1
AC109927.1
OR51E1
MCF2L
LINC02233
C22orf34
ITGA9
MGAM
LMCD1
PLEKHG1
JPH2
SUSD5
AL365255.1
SGCD
KCNH8
AC005208.1
KCNIP2-AS1
COL12A1
ZFPM2
AC110009.1
NR4A1
TRDN
HORMAD1
CLIC3
LINC00882
BST1
EDN1
DCC
MGAT4D
ATP1A3
MREG
IZUMO3
GJA4
PPP1R9A
GREB1
FMO1
WNT5B
GJA5
PCDH9-AS2
FIRRE
CALM1
SIRPB2
RUNX2
ZNF365
CLDN15
AC091901.1
POU2AF1
COL28A1
NKD1
GPRIN3
SPSB4
RHOA
HGF
CCDC170
LUZP2
POT1-AS1
MEFV
AP2S1
C10orf107
HS3ST3A1
ST6GAL1
SHISA9
SVEP1
MAML3
AL139158.2
LHFPL2
XYLT1
GLRA2
ZNF98
LAIR1
FBN2
TRGC1
CPM
LINC02398
CD36
AP001636.3
ATP6V0B
E2F3
ARHGAP18
CPEB2-AS1
NFATC2
LINC01807
DNAJC6
TSPAN2
MAOA
LINC01799
KIAA1671
RAB39A
ABCG1
AC092167.1
GCNT1
LINC01618
AC090204.1
SLC15A3
LILRB2
TLR2
MACROD2
METTL24
ZBTB7C
SLC17A6
AC002378.1
AC011632.1
AC067931.2
AL355997.1
AP001978.1
KRT80
LINC01479
LINC02541
MAGEA10
RGR
SAMSN1-AS1
SHROOM4
EML6
CHPF
NAP1L3
CDKN1A
VWDE
AC104809.2
KITLG
ITGAL
CCDC148
RGS7BP
PDZRN3
TNFRSF13B
GALR1
GPR182
IGFN1
LINC02510
TDRD15
GABRA3
AP002026.1
AC096773.1
AC138627.1
AC113386.1
CYSLTR2
AL353616.2
LINC00996
BICDL1
TRPS1
TWIST1
LINC01442
C14orf39
TLR1
AC007923.4
AL589740.1
ADORA3
PDPN
PPP4R4
MIR34AHG
PRAM1
TRAF3IP3
LPAR1
NOVA1-AS1
TTK
DLGAP1-AS5
AC087269.1
TRIM71
SLC6A1-AS1
LINC02469
CDH5
WNT10B
BCL2A1
OSR1
SCARB1
RARRES2
SLIT3
PREX2
AL158209.1
SGCG
AMPD1
NXN
FLRT3
C11orf44
AC009975.2
LINC01483
KCNE4
ACACB
MMD
CPNE8
MEDAG
JRKL-AS1
ALDOA
CECR2
AC040174.1
CRIP2
RIN3
LINC00159
PAX8-AS1
LINC01885
ARSB
HCFC1R1
CARMN
INPP5D
SH3RF3
MYO1D
NFKBIZ
AC022915.2
ARAP2
EPB41L4B
C1R
AC008127.1
ITM2A
SLC16A1
CACHD1
TNS1
UNC79
AC004053.1
C11orf96
FAM153B
HSPA5
TRGC2
MIR181A1HG
EBF3
RPSA
ABCA9-AS1
CSF3R
AC072062.1
FILIP1L
CA10
MEF2C
SDC4
AC023669.2
GLDN
AC006148.1
FLVCR2
GDAP1
AC015908.2
JCAD
MGARP
EGFL7
AL583785.1
IGLV2-23
GABRG3
RNF150
SRP14
PRKG2
MAMDC2-AS1
FPR1
SGPP2
FAM189A2
CAP1
KCNA4
AC006206.2
RUNDC3B
AC007240.1
AC092673.1
AC004470.1
AL451048.1
LINC02477
ATP10A
SPATA6L
MAL
LINC02269
CD93
RDH5
KLRD1
S100A16
LINC00977
CENPM
ICOS
PC
AC107973.1
ELOB
AL354824.1
DCBLD1
FGD5
CNGB3
GSTP1
ETS1
PVT1
CLEC5A
SEMA3A
PRICKLE1
AC078881.1
MIR4435-2HG
CSRNP3
DDR1-AS1
MALRD1
PQLC2L
TBC1D1
AC139713.2
SATB1-AS1
LIFR
AC090124.1
PGBD5
PRSS12
MAP1B
DNAH7
FAM196B
FERMT3
PCNA
STXBP5-AS1
SLC16A10
ZC3H12B
DPY19L2
GHR
KCNMB2
GSTO1
VSNL1
TNFRSF21
CD200
P2RX7
TGM2
ADCY1
STEAP2-AS1
ARHGAP30
ADGRG5
LIX1-AS1
SLC22A15
TMEM104
LGR6
AC104078.2
MYO10
LINC02005
BTNL8
TMEM232
BMP7
LINC01324
ARHGAP24
RGS17
ADAMTS12
ARHGEF10L
AC079465.1
SLAMF7
AC092718.4
AC103879.1
LINC02160
OR6A2
OR2AJ1
TNFSF18
NCALD
COL6A6
DDT
NCF2
CDK15
AC026369.3
AC021351.1
TMEM132B
GUCY1B3
RGL1
DOK5
SUGCT
TBX18
LIN7A
ART4
TMED3
COX6B1
AMPH
CCDC60
SLC8A1-AS1
PLEKHO1
ABRACL
TLR8
LTK
TMEM26
NDUFS5
EDA
LINC02465
THBS1
SH3BP4
RFLNA
NOP53
FAM20A
CFAP47
SLA
RAB20
SLC22A23
DSG1
HMGCS2
LINC02118
AC131956.2
AC012613.1
TMEM196
SRGAP2
CCDC88A
SLC31A1
GXYLT2
AC091976.1
BMP3
PCAT19
EFEMP1
PDE3A
AF165147.1
ABR
C4BPB
EXTL3
SPOCK2
CCDC85B
GAS2L3
SH3BGRL
ARSJ
OR9Q1
AC022387.1
SELPLG
MX1
LINC01605
SLAMF6
GNAI2
LINC01393
ZNRF3
LINC02397
GIMAP7
PRUNE2
IRF4
ACTR2
GINS3
AL078459.1
ANKRD44
KLRC2
ATP2A3
AADACL4
MEF2C-AS1
FBLN5
FAM162B
SNTG1
LINC01358
AL391069.3
LYPD1
UG0898H09
WIF1
SNX31
AC007422.2
LIFR-AS1
LINC02516
CDHR3
SOBP
APOLD1
ALDH1A3
F8
DOC2B
PKIB
AL512428.1
ADCY7
FAAH2
AC084871.1
PART1
LINC02193
AREG
NCR3
SFTA1P
AL450423.1
TCL1A
RNF175
RAP2B
GPR85
BICC1
GLIS1
AC007384.1
CD7
ISPD
AC023824.4
SSTR3
MT-ND6
LINC00271
RPL36AL
AL512380.2
FAM26F
BNC2
AC009055.1
DDIAS
LRRC63
PRKG1
HES1
DRAIC
KIAA1549
EPB41L3
PKNOX2
HS3ST3B1
FTCDNL1
AADACL2-AS1
HOOK1
SLC38A1
IKZF2
AL353613.1
RPGR
TMPRSS4-AS1
AC007681.1
ID4
TMEM88
CRB2
SH3BGRL2
AC037486.1
AC027312.1
MGAT4A
AC105094.2
VAMP5
ENO1
THRSP
TF
LINC02335
LINC02319
LINC01287
PCAT14
NPAS2
SOX18
AL357793.1
AC093523.1
RUNX3
CTNND2
RPS6KA2
CRB1
PAWR
PITPNC1
LINC01111
JAKMIP1
LRMP
TMEM132C
TEK
AC092650.1
LINC01481
SLC35F3
EGR2
OSBP2
TPM1
AP002991.1
RNF219-AS1
SUSD4
CD22
ZPBP
ABCA1
STK26
AMOT
SRGAP3
KBTBD12
PLS3-AS1
ARNTL2
RNF220
ATP5O
AC090673.1
AC245427.1
ADD3-AS1
GPR156
DIP2B
LINC02133
AL596451.1
LINC02238
AC034226.1
LINC00221
PCAT7
SCGB1D2
LINC01142
PALD1
AC092155.1
CAVIN1
MYHAS
AL671511.2
SLC37A2
BOC
PLPP3
DACT2
AP003063.1
CX3CL1
VOPP1
BAALC-AS1
CASC1
DSG2
ATP7B
LEP
REPS2
CNTN3
STUM
CARMIL1
AC006333.1
AC108067.1
TNNI2
GRIA2
KCNAB1-AS2
AC104151.1
LINC02149
SIAH3
APLP2
AC099499.1
CLIC2
PLPP4
FAR2
AC020905.1
AC099518.6
AC103726.2
AL121956.4
AL354919.1
C3orf85
CRH
LINC02461
AC005307.1
AC009971.1
AC104012.1
AC133565.1
AC137936.1
AL050338.2
AL645608.3
GABRD
GPR33
LINC00269
LINC01929
PHEX-AS1
TRDV1
NHS
RAI14
IL12RB2
AC006159.2
AP001150.1
TRGV10
LINC02207
AC024361.1
TMEM144
NMB
CXCL13
SUCLG2-AS1
LINC02257
C21orf62
B4GALT6
KLHL3
RNF182
KCNIP2
MAP3K7CL
AL442647.1
EGFL6
CD37
NUGGC
MTFR2
MEGF10
ZWINT
LINC01829
NDUFA4
AC084064.1
SLC14A2-AS1
LUCAT1
PTCHD1
PDGFRB
SSTR1
RAB38
CNTNAP4
PITPNM3
H2AFY
CD3G
TPD52
RGS4
LINC00298
CHRM3-AS2
KCNQ3
ZEB1-AS1
DNAH14
FGFBP2
BTLA
RUFY4
LINC02170
KRTAP10-4
EDARADD
TIGAR
LINC01905
KIAA1456
GPR34
SGMS2
AC099805.1
ICA1
CENPN
MED12L
COX7C
IL33
CASC19
AC012501.1
AC004540.1
LINC01362
MARC1
GIMAP8
RGS18
NR6A1
SECTM1
NECTIN3-AS1
AL078590.3
LRIG1
DSG1-AS1
SPTBN5
CIT
GNG2
AC090415.2
ABHD5
NRIP1
MTHFD1L
OSCAR
WDR64
SYCP1
GPD1
AL163932.1
KIAA1211L
POLR2L
PRKCH
PSTPIP2
ARRB2
PLXDC2
XKR6
LINC01606
FBXO2
MGAT5
GRIN2C
EPM2A
CFH
GPT2
NOD2
AC021231.1
C6orf141
LINC02389
ANO5
AC005062.1
COX6C
MSN
SLC17A3
FAT4
AC092264.1
C3orf67
AL445430.1
AC091948.1
PROS1
AC091078.1
DEC1
AC087672.3
AC006299.1
TSPYL1
GCLC
GMPR
IFNLR1
EXOC6
NINL
AL162411.1
TNFRSF19
CLCN5
TPTE2
ADAD1
AC023830.3
AL356276.1
SLC9C2
LINC01268
TMEM117
C5orf64
ARHGAP31
TNFRSF4
KCTD1
CYP39A1
PGR-AS1
TCEAL2
OVCH1
AC020704.1
PRMT8
LINC02384
NDNF
PKM
IFI6
PSMA1
MKRN3
AP002856.2
ASCL4
TRGV4
LDLRAD4
ANKRD7
CHI3L1
MAGEC3
PATJ
DEFB1
AC023403.1
PHACTR1
FGF2
FAM198B
AL031316.1
RSAD2
PTN
ILDR2
MUSK
APOBR
TREM1
GPR137B
VWA3B
EPB41L4A
AC073569.2
AC114316.2
LINC00473
AC109466.1
AL358394.3
LINC00702
AC063944.1
SLAIN1
AL445623.2
JUN
AFAP1L2
CD6
CORO2A
CFAP161
CD300LF
SSUH2
ZNF385D-AS2
PLBD1
GLP2R
FGFBP1
VTCN1
DIRAS1
LINC01780
AC002091.1
LINC02056
PRKCQ-AS1
TDRD1
LHFPL1
LY9
SIGLEC9
TMEM255A
CMYA5
AC107021.1
IGLV10-54
KLHL31
CRISP2
PLA1A
FHL2
CXCL16
AC008014.1
SERPINI2
SOX5
WIPF3
AC016705.2
AMMECR1
LINC01798
AVPR1A
TMEFF2
KLB
PKP2
C12orf75
AC021594.2
APCDD1L-AS1
TMEM156
ICAM2
CENPE
CDH22
GOLGA6L7P
LUM
ALDH1L1-AS2
DPH6-AS1
RARRES3
AC021546.1
SPN
KCNE1
AC087565.2
AC091860.2
AL157714.2
LINC01559
AC134682.1
GPR137C
CA1
AL357673.1
IRF6
EXO1
AC108718.1
AL606804.1
AC084200.1
LINC01579
AC114763.1
ZRANB2-AS2
CIDEC
XKR3
PLOD2
RPS2
NDUFA1
AC103876.1
TMEM2
AC098679.1
FRY
ABCA4
AC005394.2
AL353148.1
KCNA7
AC007221.2
AL450344.3
DKFZp779M0652
LINC02177
AC093801.1
GRK5
LINC01301
TRHDE
AHNAK
BARD1
GCNT2
ENAH
FOXP2
FAM102B
LZTS1
CC2D2B
HERC5
IL4I1
ASRGL1
ARPC3
LIPC
AC093152.1
RARB
LINC01484
DPF3
AC107032.2
NHSL1
SDK2
FBLN1
COX7B
ARHGEF6
DPEP2
ZBED3-AS1
UNC5B
ANXA5
SVIL
RASAL2
COL16A1
CLLU1
PDIA5
SH2B3
MT-ATP8
RETREG1
SLC25A3
TUBA1A
ADAM19
EPHB2
KIF18A
C5orf67
SLCO4C1
SPON1
LINC02253
CREG1
MIR222HG
CKAP4
AC084882.1
AL137786.1
AL353753.1
LINC01861
ONECUT1
PRND
AC092746.1
AL109610.1
AL160408.3
AL355596.1
AL358075.1
AL359881.3
BIRC7
C4B
CCNA1
HBQ1
LINC02380
LINC02533
PDE6H
SOX2
TRPC5OS
WFDC13
Z83851.1
TNN
AC005224.3
ME2
SGSM1
UGT2B4
HSD17B2
TMEM178A
SPAAR
HSP90AA1
FCRL6
HILPDA
AGBL1
LINC01277
AC097460.1
RNF217-AS1
LAYN
TMC5
AC105430.1
SRPX
COL4A4
TMEM100
EMB
AC104596.1
KLK10
FAM49A
AL137145.2
PPP2R1B
BACH1
PHLDB2
AC099687.1
TAGLN2
AC007750.1
AL592494.1
AP004608.1
CLEC4G
GPRC6A
HAO2
LINC00092
OXT
ZBED2
MN1
DNER
ANKH
PRNP
ADAM32
FABP5
FAM135B
IDO1
MARCH3
BARX2
SLC6A11
C16orf95
SDC2
AC010601.1
FARP1
DIRC2
AC025284.1
AC104304.1
AC125616.1
LINC01428
GMFG
AC010275.1
AC010884.1
ART3
LINC00648
TESPA1
RAP2C-AS1
DHDH
LINC02301
OAS1
LINC01037
HDX
ORC6
ANKRD29
SLCO1A2
AC064834.1
NGF
SOX4
TRPM6
LINC02422
CDCP1
AC125793.1
MS4A14
MAP3K21
AC087482.1
TUSC3
AC000061.1
GABRB3
ZFHX4-AS1
RFX8
TNFSF8
IVNS1ABP
AC112721.1
SEL1L3
FREM3
NOV
AC007611.1
TP73
CPNE5
KCNMA1-AS1
LDLRAD3
LINC02456
ARHGEF3
ENPP1
MALL
NPAS3
AC003092.1
KDM1B
LINC02234
LRGUK
AC097716.1
KLRC3
AC002480.3
C15orf59
LINC02161
AC246817.2
KIF4A
CD33
JPH1
GIMAP4
AL158055.1
NCR1
DAPK2
SATB2
AC244131.2
CD300LB
STIL
GNAO1
AC020687.1
AC021678.2
BBOX1
C13orf42
LINC01033
C15orf41
RFC3
GLI2
CHRNA7
ASXL3
AC078785.1
GLYATL1
PAQR5
GNAI1
SESN3
AL365273.2
CXCR4
SORCS2
TMEM98
HS2ST1
C8orf4
SYT17
MYL12A
TSPEAR-AS1
HRH2
ADAM22
AP005121.1
CCDC190
LINC01446
MEIS1
TMEM132D
AC104170.1
KANK3
SCIN
PLAUR
C6orf58
RYR1
KHDRBS3
CAPNS1
PABPC1
LHFPL6
AC112487.1
LINC02302
CCDC122
TMEM236
SCN4A
AEBP1
C1orf186
RPL24
NETO1
PLEKHA7
PCNX2
SLC5A4
AC024909.1
MANBA
FGD4
TINAGL1
BTF3
ADIPOQ
LINC01899
LINC02046
AC084346.1
TRIM67
MASP1
PLEC
SLC22A10
KIAA1958
BRINP3
TPD52L1
TTN
ELOVL1
ACP2
LEKR1
GRM8
ETV1
SCUBE2
AC005697.1
AL445426.1
KIAA0930
AP000763.3
AC010148.1
PARD6B
KIFC1
DOPEY2
FAM78B
DUSP1
AL138720.1
AP005329.2
RNLS
ACSM1
KCNN2
CEP128
PPP1R14C
PRDX2
EBF1
CACNA1E
FBXO32
JAZF1-AS1
MBOAT2
CHCHD10
MPP6
CSMD1
PSD3
AC005162.3
ANXA13
AC008040.1
AC009562.1
AC012174.1
AC008619.1
AC016987.1
TSPAN19
AC106858.1
TBX15
PCBP1
GNGT1
AC007128.1
SGK1
PLAT
CDYL2
KLF5
NR2F2-AS1
SLC7A1
STX3
PRELID2
LINC01500
ASF1B
AL512328.1
CCR3
CPS1
STMN1
LRRK1
AL049812.2
HOXD10
TEX26
WSCD2
TPMT
AC022710.1
HHLA2
LINC01802
OR8A1
DLC1
SMAD9
CAV3
PTPRN2
SYBU
LINC01568
UQCR10
TRPC3
VIPR1-AS1
C4orf48
KIAA1755
CBLN4
LIMCH1
AC079760.2
CDK14
AL158198.1
AL121748.1
P2RY10
AC090403.1
ECH1
AC003666.1
POF1B
PHLPP2
AJ006995.1
UQCRQ
AC092813.1
BEND6
AC079793.1
AC099753.1
KIAA1324L
OST4
MIR3681HG
GPBAR1
AC109471.3
MYO1G
FMO2
KL
TRERF1
OSBPL11
SCD5
MYL12B
PARP15
AC007221.1
AC126773.2
PCDHB6
IRF8
HIGD2A
IL1RL2
VNN1
RGS22
WDFY2
TMC3-AS1
DTX1
LINC02312
ATP8A1
ZMAT4
KIF23
DUSP27
INHBA
AC009387.1
PPT1
ARPC1B
STOX1
ZNF117
EGLN3
LINC01607
EDNRB
LRRN4
AC006369.1
GNA14
LILRB1
PTPN6
GSAP
CDC45
XRCC4
IGFBP2
AC004870.2
FIS1
CD248
AFAP1L1
FCHSD2
RBM44
FAM169A
CANX
AC007495.1
AP001831.1
ATP6AP2
TMEM170B
AC007091.1
WNK2
NOL4
UBL5
AC004824.1
AC012181.3
AC020741.1
AC025263.2
AC027779.1
AC073115.1
AC079763.1
AC090193.1
AC104073.4
AC108462.1
AC241644.2
AICDA
AL117192.1
AL121759.1
AL354714.4
AP001109.1
BPIFB4
C8orf74
CDHR4
DEPDC1
DNASE2B
IRX5
LCA10
LINC00705
LINC01423
LINC02183
LINC02283
LINC02431
MAT1A
NLRP6
OR2L3
ARL4C
MICAL2
PIP4K2A
IMPDH2
AC008448.1
EPYC
LINC01704
BGN
USP2-AS1
BDNF-AS
ZDHHC20
CNTN5
FAM177B
CAB39
AC124861.1
TCN2
SPINK5
LINC00640
TRPV2
LGALS9
TRDC
DGKH
THRB-AS1
LRRC9
TUSC5
AL358332.1
LINC02330
EOMES
AC096711.2
GRAMD1C
ACSL4
DNM3
ATP1B1
PLEKHG5
MEST
SIDT1
AC016642.1
AC079610.1
AL354863.1
FAM133A
IGF2-AS
ITGA3
CLEC1A
ATP5L
AC023590.1
GBE1
AC121154.1
AP000695.2
ACTG2
CCNT2-AS1
SGMS1
B3GAT1
VSTM1
MRLN
AC100863.1
AC068413.1
AC026523.1
AL356476.1
HSPB1
DNAH5
WWC2
AC079015.1
LINC02552
TIE1
HSPA2
FAM49B
QRFPR
LINC01494
NMBR
TBX5
AC126177.8
PIK3CG
LINC01344
LINC01616
PTK7
AK5
ITLN2
TMEM45A
CLMN
AL162384.1
SCN10A
AC113404.1
AL109910.2
HIST1H2AL
LEFTY2
OR8G5
AC027013.1
CAP2
SIX1
SLC38A6
HRASLS
RPS6KA6
STX11
TIGIT
ARPC2
NAGA
OSBPL6
LINC02268
C15orf48
CEBPA
TMBIM6
NAV2
PTPRM
RASEF
MKL2
RSPO3
AC015574.1
PRDX5
TNNT1
TMEM64
EVI2A
ADTRP
SCN3B
ALPK3
LINC02228
PLPPR4
SLC39A12
AC084816.1
CNTNAP3
TSHZ3
AC108062.1
IPMK
JDP2
EAF2
PKIA
BMP4
IQSEC1
HMCN2
COL27A1
PLAC9
C20orf197
AC068875.1
IL20RA
MX2
ZFP36
AC008991.1
AC021086.1
KNDC1
BRINP1
AC103702.2
SLC30A8
POU2F3
WFDC1
UPK1B
LGR4
AL589935.1
DKK3
KANK4
PLXNA2
LINC00327
TRPC5
MCM10
PDE2A
HPCAL1
WNT9A
PPDPF
TCEAL6
H2AFZ
COMMD6
AC093010.2
LINC01006
RNF144A
PPP1R1C
IL26
LINC02364
HEPH
PTGFRN
GBP4
GRIK1-AS1
SIGLEC6
RP1
MYO5C
SCOC-AS1
SLC6A6
CA13
JUNB
SOX17
PYCARD
AL162734.1
AC006372.3
AC073336.1
HJURP
LINC01681
LINC02365
SH2D7
AL161772.1
AC009803.1
PARK7
LINC01850
AC073365.1
AL049749.1
SH2D3C
PRDM1
XKR9
AL121983.2
CKAP2L
GPR19
VSIG1
AL078590.2
KLK11
AC125613.1
MAP7
LRTM1
OPN3
CTDSPL
ECHS1
AC007743.1
IL18RAP
AC007319.1
AC103949.1
EML1
AJ009632.2
DISP1
AC007255.1
ABLIM1
COL5A3
SLC16A9
OCLM
LINC01478
HAS2
CEACAM3
ATP5I
AC083902.1
CARNS1
LINC01508
PTGER4
DNAJC22
AC024257.1
SCN11A
BCAM
HERC6
CD209
LINC01032
RAB5C
SEMA3G
CD3E
AL133304.3
TWIST2
CNDP2
AC107067.1
MB21D2
MCF2
IL17RD
ANKRD31
AL591368.1
CDKN2C
RBPMS
AC074033.2
AC100803.3
PKP1
ADAMDEC1
FAM183A
IGFL2-AS1
PAX2
PMP2
AC004231.3
AC100832.2
CCR8
LINC02156
PSMB4
WDR17
SUCO
SORCS1
RASSF9
TBC1D14
STEAP1B
DSE
AC007563.2
DCHS2
TTC6
LINC00519
PPP1R42
PIK3R3
PSG8
ESAM
KIAA0513
AC079467.1
INHBA-AS1
AC119868.2
AC007991.3
CCDC129
NIPAL1
TMCC3
AC060809.1
IQGAP3
AL390866.1
ADCYAP1R1
BTK
AL031123.1
LINC02426
MYH13
MAP3K1
BCL2
ARPP21
CXorf21
AC005014.2
AC020634.1
AC068700.1
AC091138.1
AC100835.2
AC116036.2
AL136084.3
AL359697.1
AL390719.2
GPR158-AS1
HIST1H1A
HOXD11
LINC00620
LINC01655
LINC01701
LINC02402
LINC02522
MIR583HG
SPDEF
UPK3A
AC000099.1
AC022634.2
AC069285.1
AL121892.1
AL358333.1
AL646090.1
AP002008.1
LINC01096
LINC01231
PRL
KCNMB1
CCDC30
AP001341.1
LINC01630
LINC02408
LURAP1L
AC109492.1
LINC01163
LINC01871
RASSF3
LCK
AL136088.1
LINC02343
THEMIS2
LINC00559
NUDT11
AC012629.2
AP003465.1
ATP13A5
DAZL
RGS21
ISLR2
AL121987.1
CFD
CHST8
COX5B
ADD2
AL158151.1
MS4A6E
PHPT1
TMEM106A
AC079950.1
EEF1D
ENOX1
AL138881.1
MDFIC2
AC006974.1
PCSK1N
OTUD7A
DNAH6
SULF2
RHOBTB1
AC009495.1
SCG5
FAM124A
RELB
GEM
SLC5A4-AS1
FILIP1
SHROOM2
TGFA
RNF135
SETBP1
STPG2-AS1
RASD1
AC004917.1
IGF2BP2
AC112721.2
PTGDR
CCR5
SH3TC2
ENPP3
PRSS3
CMTM7
SYT9
ORC1
DLGAP1-AS4
MARK1
LINC00866
GRIK4
PLEKHA6
LINC02057
ARHGDIA
ESR1
WT1-AS
MYRFL
OSTN
MEI4
AC099062.1
AC006007.1
AL954650.1
GABRA2
ZBTB46
AC010175.1
AC022796.1
AC009567.1
ICAM4
CLCA2
ABLIM2
SLC25A5
PLS1
PLSCR2
RGS7
HUNK
FMNL1
CDC42EP3
AP000462.1
LINC01558
SLC2A13
LINC00535
WASF1
AC137770.1
CXCL6
KIAA1524
DENND1B
SFRP4
NCAPG2
LILRB3
CLEC4F
AC010609.1
STK31
NREP
RTKN2
SYCP2L
L3MBTL4
AC087321.1
AC112512.1
IRX3
KRT15
CDK1
HOXD9
FUT9
ECT2
CD59
AL590094.1
FANK1
LINC01135
COX6A1
AC090796.1
AC100768.2
AC114296.1
AC006262.2
AL355674.1
BFSP2
CASC18
LINC02373
PITX1
LINC00506
TTC9
HINT1
RAMP1
UBE2QL1
LINC02100
KIF14
THBS2
AL356258.1
BTG3-AS1
TLN1
EFHD2
NDUFA6
FZD1
CEP152
PSMA7
HES4
LGALS3
PCBP3
NRN1
IFI27L2
AC006115.3
PRKCQ
RFX4
ANGPTL7
ABCB4
RCAN1
LINC00461
LINC01010
NXPE2
SCN4B
NDFIP2
BATF
PALLD
PGM2L1
HS3ST5
FMOD
DUSP5
AC007402.1
AC092162.2
COX10-AS1
SUSD3
NCOA4
SSR4
IGLV6-57
C3orf84
TMPRSS12
LHFPL3-AS1
SLC15A5
FGD3
AC023905.1
AC011306.1
MAN1C1
AC084759.2
AC006581.2
CD69
AQP7
CLYBL
AC098613.1
TPM3
GDPD1
BLM
H2AFY2
SLC7A10
CPB2-AS1
FOLH1
SPAG16
AC105001.1
PLB1
FMNL3
TTLL7
TMEM27
BCO2
JAZF1
KIF6
PELI2
KLK7
AES
COL4A5
AL137789.1
TMEM176B
CATSPERE
MRVI1-AS1
CCDC85C
NRP1
DIO2-AS1
LIMS2
C11orf63
C9orf92
AC026790.1
IL34
AC022398.1
RAI2
AC009313.1
FGFR2
ATP6V1F
COX7A2
LINC01416
CRISP3
AC105243.1
CSTA
AC010255.1
CAPG
MAP3K9
LINC01117
AC006305.1
AC015878.1
AC093766.1
LINC02378
CRAT37
AC053503.2
AL137220.1
DERL3
GDF10
KIAA1644
LINC02473
NOX5
STRA6
TDO2
SSX2IP
UNC93B1
SHISA3
CEP55
GPR20
NAT8L
FMO3
PHF21B
AC009803.2
AC018653.1
AC062032.1
AC073389.3
AC121342.1
AL031275.1
AL357172.1
AL663023.1
AP001781.3
BFSP2-AS1
LINC00309
LINC00402
LINC00551
LINC01714
LINC02310
REG3G
RIPPLY3
ABCG4
AC012312.1
AC022730.3
AC034213.1
AC090587.1
AC097518.1
AC104785.1
AC113189.3
AL357093.1
AL391811.1
AL591848.3
AL592486.1
CCDC184
CHRND
LINC00498
LINC01055
LINC02045
LINC02321
MTRNR2L11
TECRL
TRGV2
CACNG4
TES
AL390783.1
FLNB
AC097662.1
LINC01762
RAD51AP1
GDNF-AS1
AC012499.1
PTGS1
RGS10
AC025437.3
AC116666.1
AC122685.1
LINC00167
LINC01331
Z98752.4
AL391152.1
FSIP1
FAM169B
ANKRD22
AC008056.2
CLVS2
LINC01102
AC126121.2
CASC6
PLIN1
DYNLL1
MFSD2A
EFHD1
KCNJ10
MOCS1
ITGB4
MMRN2
MRAP2
GAPT
DUSP4
HHAT
BCAS1
MZT2B
PTX3
TUBB4B
AP002370.2
VLDLR-AS1
AC018616.1
RFLNB
ZNF521
EMILIN2
AL136985.3
FRMPD3
HNF4G
MTHFD2
VWC2L
CHCHD6
IL2RG
GAREM1
CCNB1
AC006504.7
SORT1
PKP4
TGFB1I1
ACSS3
SEMA3B
NFKBID
APOB
IGFBP7-AS1
AL359644.1
SLC12A1
TMC7
LINC00571
IL1RAP
CCDC83
PTGFR
GIMAP1
NYAP2
GPM6B
NEDD4L
HAL
NDUFB10
SCARA3
AC010235.1
GPR160
CABP1
AP001496.1
MICALCL
SMCO4
SNRPD2
SMIM2-AS1
ROBO1
LINC01794
SKAP1-AS1
ANGPTL4
FRMD6
DFNA5
CDH3
NOP10
LINC01598
AC079150.1
HMGN5
PEX5
GLRB
FREM2
PLIN5
GSTCD
MYCT1
AC116563.1
TMEM74
AF123462.1
LINC01965
PMAIP1
FAM83D
LINC01537
CCND1
AC007879.1
CTXND1
CCDC144NL
LINC01194
LAMB3
AL133330.1
HSPB6
AC008074.1
AL136131.2
EGR3
CXCL12
IL1R1
GPR171
RAG1
PA2G4
RANBP3L
EDF1
CEACAM1
SLCO1C1
CCDC150
KLK5
AC111188.1
TNIP3
LMNB1
ZAP70
AC110760.1
ATP10B
CUTA
KCNJ16
LARGE2
PEBP1
MYOF
COPS9
ENOX2
TBC1D30
HOXD-AS2
FHIT
E2F2
CADM2-AS2
HIF1A-AS1
AC002480.1
AC100843.2
SAMD9L
RHBDL3
CLEC19A
ANXA2
PHB2
CAV1
FAS
EEF1B2
AL359220.1
NDC80
AC093893.1
CDKN2B-AS1
AC022182.1
LONRF2
AC010181.1
AC020571.1
AC091013.1
AF241728.1
AL138767.3
AL139237.2
CD5L
ESM1
GALNT5
IP6K3
LINC01166
OR2AT4
ZCCHC12
MKX-AS1
APLNR
COL9A1
ASB4
CYP4X1
FAM213A
LINC00926
SAMMSON
CD320
AGPAT4
SEMA4D
METRNL
PLP2
LGALS3BP
AC090579.1
RIPK2
PKIA-AS1
ST3GAL5
LINC02507
LINC00920
CADPS2
TIMP2
TAOK3
AL136987.1
AP000812.1
AC046136.1
MGC27382
TMEM176A
FHAD1
MCM3
GRB10
C1QL1
HECW1
CCM2L
TMEM151A
KIAA1522
MAL2
AC090115.1
HDAC2-AS2
OXCT1
GRM3
AC131532.1
AC019330.1
P3H2-AS1
OSBPL10
ZSWIM5
TYR
AC139099.2
CCDC168
DUSP2
LINC00334
RIBC2
SLC12A3
GNAL
AC090518.1
PLA2G15
AL031686.1
LMO7
TMEM154
LGALS12
S1PR1
AP003025.1
FAM83H
LINC00944
CDS1
C10orf67
BMP2
SDCBP
VWCE
CMSS1
CUBN
TSPAN33
MPDZ
AC037450.1
AL354771.1
EPS8L3
GDNF
LINC01228
USP31
AL390729.1
LIPE-AS1
FAM13C
TNXB
CSRP2
EIF1
AC103770.1
XRCC2
AC090825.1
LINC01901
LINC00971
CD81
AC022126.1
TBC1D32
AC079779.2
AL591686.2
AC010542.5
AC023347.1
AC024224.2
FRMPD2
GRM5-AS1
LINC02052
NHLH1
OR2L5
AC009518.1
AC010531.4
AC027601.2
AC078880.5
AC087273.2
AC100844.1
AC105446.1
AL118508.2
F9
FAM170B-AS1
FOXF2
IYD
LINC00237
LINC00487
LINC01865
LINC01962
LINC02392
LINC02497
OR51E2
S100A3
TMPRSS7
TRAV6
AC015722.2
AC066612.2
AL031985.3
FADS6
RASSF6
TC2N
LINC01504
FAM107B
GPR158
TKT
SLC13A3
ANKRD50
PMEPA1
AL139393.1
RND3
AC087477.2
AC109811.1
TRIM28
DOCK9
AC022858.1
LINC02196
KCNJ8
ZYX
DPT
TMEM150C
AC105001.2
SMTNL2
FAM20C
FAM171A1
RAN
UNC5B-AS1
PPFIA2-AS1
RASSF2
GSDMA
AC026765.2
PDE4C
B4GALNT3
LY6H
RET
SLC7A8
FAM171B
SCGB2B2
TRABD2A
GPX3
SLIT1
C10orf10
AL163952.1
PECR
AC073082.1
COLGALT1
AC124947.1
AC023421.2
TSPAN12
ERV3-1
LINC00877
ATP11A
AC004870.4
AC092614.1
NIPSNAP3B
RAB8B
LINC00211
CHODL-AS1
TGM6
AC100801.1
FAM222A-AS1
TRPM2
EMP1
AC064875.1
POLN
AC002076.1
AC005481.1
AC004014.1
AC090229.1
AC131391.1
OPN5
SLC22A16
TCHH
MGC32805
ABI3BP
COL6A5
SLC26A5
DDIT4L
UNQ6494
KCNJ2
GC
ALKBH7
IFIH1
RCBTB2
EPB41L1
LRRFIP1
DCN
TNFSF13B
AC007879.3
KCNH4
ITIH3
TMEM47
NBEA
CTTNBP2NL
AC023866.2
AC108463.2
AL355303.1
AL357054.3
AL662907.3
FOLR3
AC069208.1
LINC01948
LIPN
RTL9
C1orf185
AC016723.1
AC092131.1
CIDEA
AP001972.4
TNFRSF18
HSPH1
CTNNBIP1
MT1A
YIPF7
LIPE
CASC11
TLR5
CD244
ARAP3
MIR193BHG
RNF24
TMC1
ARF3
CPEB1
PMFBP1
SHCBP1
C21orf91-OT1
LINC01376
MID2
KLF12
PLEKHG6
TOB1
AL136040.1
RAPGEF3
NIM1K
PHACTR3
EHHADH
ACSS2
TNFAIP8
FAM110C
ITGA2
AC019130.1
F5
KIAA0825
AL445472.1
AL354732.1
DTNB
AC013565.1
SLC44A3
GSE1
AC092652.2
CNBD1
FLJ46284
DIRC3-AS1
VDR
WFDC2
NCAPG
ALK
CSK
WDR93
RALGPS2
MARCKSL1
HAVCR1
GRXCR2
TAT-AS1
LINC00609
CD80
LRFN2
TGFBR1
SLC16A2
NCAPH
PPP1R3A
SPANXA2-OT1
AC007001.1
AL359715.3
LINC02518
FBXW12
C2CD6
MRAS
RDH10-AS1
SLC16A12
BHLHE40-AS1
TVP23A
WDR11-AS1
BEX2
LINC02226
AC004158.1
MEGF9
PTMS
PTPN13
C3orf70
LRRC69
AP2M1
KIF11
FBXO39
CHAC1
PRKAA2
FBXL7
SFRP2
SYT4
TMEM217
MLLT3
NDUFB11
LINC02331
CYFIP2
OBSCN
ID2
AC025594.2
AC104667.2
AL033379.1
APLN
CD24
DIAPH3-AS2
RNF157
CD300A
DMKN
NLRC4
FKBP15
DLL4
AL158071.3
LZTS1-AS1
HGD
ZMAT3
AL365275.1
SLC36A1
NPFFR1
AC004264.1
AC020703.1
NOS2
RDH16
ADAM7
LINC01221
SSMEM1
KIF21A
FZD7
RPL41
SHE
IFIT3
RGS2
RPGRIP1L
AC044810.3
MAATS1
ELOVL6
GNB2
CPEB4
HPSE
LYST
PSTPIP1
AC007495.2
LINC01284
AC003035.1
AC005592.1
AC006237.1
AC008764.5
AC010307.2
AC010894.2
AC022201.1
AC022274.1
AC022730.4
AC090673.2
AC091544.2
AC093843.1
AC106874.1
AC128709.2
AL139819.1
AL157413.1
AL353052.1
AL355102.1
AL355500.1
AL365273.1
AL391834.1
C2orf91
CBLN1
DEFB119
DLX5
DRD1
DYNAP
F11
LINC00395
LINC00911
LINC02508
OR7D2
OXGR1
PPP1R14D
RASSF10
RPE65
SLC13A5
TMEM235
ZNF683
EIF1B-AS1
SLC9A3R1
THSD4-AS1
PCA3
MUC3A
ADCY8
AC108156.1
NEURL1
AL122019.1
RNASEH2B
LINC02198
DENND2A
AC037459.2
RASGEF1C
AC090844.2
RNF103-CHMP3
ARHGEF28
CADM3
ARL4A
AC091939.1
PCAT29
GAS2
LRRN1
CFAP43
VSIR
SLFN11
AC007376.2
PALM2
AL592287.1
LINC02367
AP002884.3
IL21R
PARPBP
HSPBAP1
AL592103.1
FGF8
AC010890.1
SNN
AF250324.1
AC022360.2
SLITRK5
SGPP1
GALNT6
LINC02519
ZP1
RCAN3
NPHP3-AS1
BSG
UBE3D
AL158850.1
AF130417.1
KCNK2
AL356134.1
EVA1C
PATL2
LINC00243
GPC1
BPI
ZC4H2
MUM1L1
HOXD3
CTD-2201I18.1
LAX1
PPP1R1B
ZFHX4
MAP6
PLEKHO2
PLA2G4A
NT5DC3
AL355974.2
ZSCAN31
AC091906.1
PLCL2
FOXC2
AC010096.1
TSKU
APRT
PODN
AC020559.1
SLC4A7
CCDC88C
PLLP
APLF
MDK
AC091940.1
EYA2
SLC45A4
AC063977.6
AC078880.4
AURKB
LINC01664
TCEAL5
ARHGEF15
SHC4
GP6
AC009502.1
KCNG3
ZBED6CL
MYO1E
SCAMP2
NBAT1
LRRC17
TREH
DCAF4L1
MLIP-AS1
USP13
REN
ELK3
ATP5B
C1orf54
CPLX2
MYO7A
ZNF697
ELL2
KLHL29
GEN1
CXCL17
AC004828.1
TNFRSF10A
LINC00581
FP325332.1
SLC15A2
AC093909.4
AL354704.1
AP000275.2
AP005433.1
EPHX4
LINC02546
SCGN
AP003066.1
PPP1R17
TSPAN11
ACE
RAD54L
ACE2
C9orf135
AC008243.1
AL109811.2
AP001007.2
OPN4
TSGA13
AC016722.3
AC243830.1
AC133065.1
TENM1
PLPPR1
AC037198.2
RASGRF1
AL157402.2
LINC01791
ACTR3
CNPY3
AC093879.1
AR
AC079385.1
UQCRH
SLC7A6
FAM151B
AC097515.1
AC092944.1
APBA2
DENND3
AC025219.1
AC092042.3
RACGAP1
ADGRG1
AC025822.2
ELN
TMEM150B
RHOG
LINC00282
LINC00894
SPTLC3
AGBL2
AC078788.1
SLC27A2
EFCC1
PDIA4
STK32A
HIVEP1
UNC5A
AC106869.1
SPEG
PRKX
HRASLS5
PARP8
AL136018.1
PIK3C2B
WDR66
CILP
CEBPB
TLR6
NMNAT3
BID
LINC00982
AL357153.2
AC080013.1
MOB3B
HELLS
MT1X
DAW1
NEB
AL021408.1
PDK3
ZSCAN5A
CLRN1-AS1
AC016687.2
AC092811.1
AC099506.1
AL359633.2
LINC01967
AC091182.1
LINC01387
LIPG
FLG-AS1
GALNT7
AC117473.1
GULP1
AC055758.2
UTS2B
MKNK1
ENC1
RASL10A
PRTFDC1
CHSY1
AC083800.1
AC093459.1
ZFP36L1
JAM3
PTTG1IP
C7orf69
IGSF10
SEZ6L2
SLCO3A1
AC004466.2
AC004520.1
AC005162.2
AC005304.2
AC006441.4
AC007431.1
AC011503.2
AC011897.1
AC026992.2
AC074099.1
AC079209.1
AC087491.1
AC090409.2
AC106897.1
AC114550.1
AF111167.1
AJ239328.1
AL512408.1
AL589678.1
AP001189.5
CECR3
EIF4E1B
LEFTY1
LINC01531
LINC01804
LINC01994
LINC02446
LYPD3
MACC1-AS1
MTUS2-AS2
ONECUT2
OR14A16
RASA2-IT1
SDR16C5
SLC13A1
SLC2A7
AIFM3
PWRN4
AC018832.1
NDUFB7
CCDC68
PRB1
ADCY4
C2orf73
PGAP1
ADAMTS9-AS1
LINC02550
HSPA12A
CASZ1
DUSP6
BX322234.1
ARRDC4
DUSP10
ZNF827
MAGI3
CPO
HESX1
GAB2
ERICH3
FGF12-AS1
FFAR2
SYNJ2
PLXNC1
PFKM
BAIAP2
CYP8B1
RASIP1
MAP3K19
KLHDC8A
LINC02126
SULT1B1
TMSB15B
SEPT6
SERGEF
TXNDC17
ZNF19
LINC01894
KCNJ5
HGNC:18790
DCLK2
IGSF23
NEDD9
MEG3
CFTR
PLEKHG4B
RTN4RL1
ELMOD3
AC082651.1
AC091826.2
LINC01115
