RBPJ
CADM2
COL25A1
LINC02388
FMN1
F13A1
RELN
RGS6
ADAMTS18
RGS5
KYNU
FABP4
MMRN1
MECOM
SLC2A5
CDH20
VWF
CDADC1
NRG1
BTNL9
FTL
LRP1B
TPO
MSR1
MARCO
FILIP1L
CLSTN2
TLL1
CD163L1
ATP1B3
ADCY2
ESRRG
LINC02006
CDH13
AL162414.1
INPP4B
SLC11A1
LINC01695
LINC02147
CD163
SNTG2
APBB1IP
AL357507.1
PDZRN4
SLC16A10
ARHGAP20
NKAIN2
MRC1
TEX41
CMSS1
AC011287.1
AC004160.1
PTPRB
TTN
CALCRL
SAMSN1
FLT1
AC100849.1
C5orf17
AC020637.1
MERTK
ROBO2
KCNB2
CA4
MT-ND2
POSTN
SERPINE1
AL356479.1
ANO2
IL2RA
HBB
ROCK2
KCNAB1
PLEKHG1
WDFY4
LINC00598
PTCHD4
LINC01554
C5AR2
KIAA1217
MT-ND5
GJA4
MAOB
TPT1
KIT
GPC6
ADGRL4
RCAN2
NDUFA4L2
ZNF804B
NRG3
CST6
KCNMA1
SDK1
MT-CO2
SPACA6
PCDH11X
ABCB11
RBP7
MKI67
MS4A4E
APOLD1
LINC00278
TBXAS1
AC018616.1
RPS3
CFD
CLDN5
LGR4
MFAP5
FGF13
ADGRL3
AC087565.3
LPL
RPL8
RPL13
IGSF21
MCF2L
MME
LINC01697
CPA3
LINC00698
SLCO2B1
RBM47
MT-CO1
FN1
CPB1
RPS14
CLNK
COLEC12
LDB2
RPS5
RPL19
MIR646HG
ALDH1A3
AOAH
PDE3B
FYB1
IDH1
SYTL3
AFF3
EBF2
MT-ND1
SMAP2
MYRIP
MARCH3
HDAC9
RHCG
ACSM3
ZNF385D
MTRNR2L1
ACVR1C
RPS18
CCDC141
ME1
LVRN
RPL18
CYP7B1
PIK3R5
TFCP2L1
NRXN3
NR4A3
EDIL3
GLDN
LINC01088
MT-ND4
SRGN
ASPM
RNF144B
PRG4
LINC02456
AC069277.1
CD74
AJ009632.2
HLA-DRA
CD36
HLA-DRB1
ST6GALNAC3
PPM1L
RPL32
DOCK8
MDGA2
RPS6
SDS
RPL29
KCNIP4
S100A6
PLD5
RPLP1
ARHGEF6
RPS16
RPS12
RPS19
STOX2
DLEU7
ADARB2
AL513283.1
DACH1
NWD2
CD96
HS3ST2
CARMN
SCN7A
SORBS1
IGF1
CNTNAP2
EML6
MT-CYB
DIAPH3
RYR3
LIMCH1
PLCXD3
ITGA8
MS4A6A
PRKAR2B
BMP6
AZI2
GREB1L
GABRB2
RPS4X
AC006387.1
ADIRF
CAVIN2
MT-ND4L
TIPARP
ADAMTSL1
FGF14
DLEU7-AS1
FGF10
MCTP1
ELN
SLC16A12
CTSB
MAMLD1
ELMO1
LIPN
LINC00540
DTL
KCND2
SLC38A11
EGLN3
EZH2
FPR3
VNN1
GPC5
ACSL1
SGCZ
PCDH9
NOSTRIN
ABLIM3
EPB41L3
ARHGEF10L
RPL34
PLTP
SLC19A3
IL7R
F8
NUSAP1
LRIG1
AC008691.1
ENTPD1
IGKC
MT-ND3
PCK1
PCDH11Y
RPL10A
VCAM1
RPL30
AC010737.1
STC1
PRLR
RPL11
TRHDE-AS1
KCNQ5
NCKAP5
TFPI2
HP
CXCL14
TMTC1
AL590867.1
RPL35A
MARC1
LRRC2
STAB1
BRIP1
IQGAP2
MT-ATP6
CDH19
IL1R2
LINC01340
ATP8B4
LINC01021
C5AR1
PDE4D
ACACB
AP2A2
ADGRF5
DOCK2
RPL28
IGFBP5
RPS9
SGCG
TOP2A
MPPED2
CLEC7A
KCNIP2-AS1
CIDEA
LINC01239
KIF26B
NTRK2
TENM3
SIGLEC1
RPL12
RPS8
SLC35F1
COX4I2
ACTB
ZEB2
SHANK3
BRINP3
RPS23
AC002066.1
HLA-DPA1
LINC02511
CDH2
AC099560.1
LINC02211
AGL
NLRP3
CYYR1
LIPE-AS1
ADAMTS9
TRHDE
PGM5
CAMK4
THSD7B
MT-CO3
DGKG
SKAP1
SLC1A3
IL6
GPAM
ADIPOQ
LTBP1
LINC01098
RCSD1
PPARG
IGFBP6
TIMD4
AL358335.2
RAB31
GALNT17
LINGO2
ST6GALNAC5
CPM
NTRK3
DISC1FP1
BCL2
AC092691.1
ADAMTS12
STON2
GNAI1
GTSE1
AC068992.1
FHL5
THBS1
UPP2
TMSB4X
PCDH7
IL1A
KCNIP1
GPRC5A
IL18R1
AC007319.1
C4BPB
IFI30
FAU
SLPI
RASGEF1B
FGF12
RPS13
ALDH1A1
STAT4
ADAM23
PIEZO2
COL4A4
LYVE1
AC018742.1
LINC02432
FTH1
NLGN4X
CA8
CLSPN
GRIN2A
CLEC12A
PARM1
HLA-DPB1
CYBB
DGKI
PZP
ITLN1
AC026167.1
NEURL2
LRP2
SLC9A9
DCLK1
SLC16A7
EYA4
SH3KBP1
ARNTL2
PTPN3
RAB20
CNR1
SGO1-AS1
PRR16
GRID2
CD69
PPA1
SIK2
RPL36
ANGPT4
RNF152
CX3CL1
LOXHD1
AC084871.1
PFKFB1
PAPPA
FRMPD4
NOTCH4
MAST4
ELAVL4
NPL
FAM105A
NETO1
ARHGAP15
CADM1
CSMD3
ENPP2
PLCB4
ADGRB3
MSLN
LINC00970
VAV3
RPL15
BMP2K
HPSE2
PSAP
TMCC3
GRIK2
FAM19A1
KHDRBS2
XACT
RPL13A
PTPRC
MIR100HG
STARD13
KIF18B
GHR
RASGRF2
PECAM1
AC008591.1
AL356277.3
SLC20A1
HAS1
INSIG1
AKAP12
HCLS1
SLC7A6
TBX1
NELL1
KLHL4
CLMP
SIRPB2
DIRC3
PIK3R3
AC016907.2
SLCO2A1
ZNF367
CD28
PFKFB3
ACSS3
PLIN1
PLVAP
FCN1
UGP2
CLDN1
GALNT18
SOX17
RIPOR2
MGAT1
AC007529.2
RPL7A
GSE1
COL4A1
AL365295.1
IGHA1
RPL10
SYK
LINC02055
SCN9A
LINC00989
LINC00968
CD86
TNC
ARL15
TMEM164
PAQR5
DPYS
MELK
MTUS2
CDC42EP4
DNM1
PTGS2
RDH10-AS1
IGFBP7
ATP13A4
LIMS1
ANO3
AC009975.1
MCM10
MIR193BHG
HPGD
STEAP4
LMCD1
ARHGAP11B
LINC00504
COL4A2
PDE1C
KAZN
CCL21
RPL37A
MYH11
PDE4B
KRT19
LINC01748
LINC01924
UBA52
AC019197.1
RPS11
SLC2A3
DDAH1
TSPAN15
TBC1D4
RGS1
CLVS1
AC087857.1
LUZP2
SLAMF1
NACA
MYBL1
AC015878.1
AC015712.2
GPT2
ETS1
AL138694.1
RDH5
PSMA1
AC090531.1
HS6ST3
RPL23A
CENPK
ANO6
ABCB5
FGL2
KCNMB4
ANOS1
NPSR1
AC106729.1
UBASH3B
GPR20
ADCY5
FGD2
ADAMTS3
ZNF831
HLA-DQA1
TIMP1
RAPGEF5
ENPEP
CD247
ZBED3-AS1
TAGLN
ATP1A2
RPL35
NAMPT
LINC01505
GPIHBP1
LINC01708
AC099673.1
AL096799.1
MS4A7
LYN
NEGR1
DGKB
CIDEC
GFOD1
MT2A
MYLIP
NPSR1-AS1
AC114689.3
DCN
LOXL2
P2RY14
ADRA1A
EPAS1
RHOJ
ANGPT1
CDH6
MGAT4C
MOCOS
RBFOX1
FAM159B
DTHD1
SEMA3A
RPS27A
TBX15
POLQ
PLEK
KCTD16
MYO16-AS1
CD300LG
FCGBP
SLC24A4
RASGRP3
PCSK6
LCP2
THBS4
GRK3
AC109779.1
AQP7
VEGFC
THEMIS
AL590385.2
CIT
AL035401.1
DHFR
SGIP1
A2M
APOE
ACTG1
ISM1
GJB2
NHSL1
ST18
FLI1
HSPG2
PROX1-AS1
NRP1
LINC01099
AREG
LINC02307
VSIG4
TFPI
CCDC178
WASHC2A
LINC02237
MEF2C
GPR132
APOD
E2F8
ITGB2
CYTIP
KCNH5
AGBL4
PRAG1
AC104574.2
AGMO
PDGFD
PXDNL
PALMD
STOM
ABTB2
TACC3
SPOCK1
EBF1
RASSF4
AC000061.1
RFTN2
BARX2
NCAM2
RIMS2
XKR4
IQGAP3
MS4A2
TOX
LINC00871
NCKAP1L
HMCN1
BUB1B
INHBB
LINC01146
HMOX1
PLAT
SCD
KALRN
AFF2
L2HGDH
GYG2
FRMD3
MITF
LINC02296
PRKCB
PLAUR
C1QA
IFNG-AS1
RPL14
UAP1
LINC02328
CCSER1
ELOVL7
AP002989.1
ZDHHC20
NCR1
KLRB1
AC073050.1
FGR
NEURL1B
ZNF804A
KMO
PCSK5
DAPL1
EGFL7
PRICKLE2
LINC00639
RPS21
ELL2
C7
LRRIQ3
NCAPG
LINC01036
SPATA9
DMD
NHS
AP001605.1
TNFRSF11A
SH3BGRL2
AC092979.1
HTR4
P3H2
RBP4
GBE1
CEP55
DYNC1I1
AL160272.1
CACNA1C
ANKRD22
GALNT13
LNX1
RACK1
KRT18
LINC01235
COL15A1
ITGAM
AC002070.1
PKHD1
SORCS1
ADAMTS5
LINC01684
AC106798.1
MEG8
RPS20
NOVA1
PDK4
HCN1
PCDH9-AS2
ADAM12
LINC02137
SERPINB2
ADAMTS6
FYB2
VCAN
HAS2
CECR2
ALDH1L1
PTPRR
AQP1
RAB3C
RPH3AL
AC079061.1
PGM1
IL1RL1
MS4A4A
STK39
P2RY6
PLBD1-AS1
MIR222HG
CLU
AC003991.1
SYT1
NR4A1
PGAP1
EPHA6
CXorf36
ADIPOQ-AS1
CSN1S1
AC073529.1
CR1
AL355102.4
SH3RF2
FCHSD2
ANKRD30A
CMTM8
EEF2
HJURP
TTC29
ZBTB46
APLNR
BRCA2
MYO1B
AC004870.2
AC131160.1
TROAP
IKZF1
CARD11
KCNT2
IGFBP3
AC096711.3
CYP1B1
AC022075.1
CD8A
TGM3
CD1C
NKAIN3
TPK1
SLC4A4
SV2B
IL1RAPL1
ITGA7
CTGF
CENPF
AL358394.3
GPM6A
SIGLEC10
RGCC
AC012349.1
PLA2G5
MT1G
AC020909.2
RTN1
SLC30A8
CHST15
LITAF
FRMD4A
C6
RPL37
SLC22A3
GALNT15
HLA-A
S100A9
CAV2
MIR3142HG
AC112206.2
IGLC2
KCTD12
AC005064.1
GCLC
TNIK
SH3RF3
AC104304.1
LINC00922
THSD7A
CD55
AC073612.1
ADGRE5
HSPA1A
DPT
AC110023.1
C8orf34
GHRHR
LINC00276
S100A10
PRKAG2
ST3GAL6
AC025569.1
DOCK9
KIF1BP
GCLM
AC025470.2
PIK3C2G
KNL1
HHIP
LGALS1
LINC00607
PREX1
KIF11
STARD13-AS
TNFSF8
MACC1
MAMDC2
LAPTM5
UBE2U
DKK2
COL6A3
HDC
SPON1
DCDC2C
GFRA1
KIF14
AF279873.3
ANGPTL7
AVPR1A
AC011586.1
GRIA1
FGF10-AS1
SRGAP2
HLA-B
LPIN1
ADAMTS19
FAM117B
CXCL8
KCNIP2
MLIP
FARP1
TNFRSF21
TRAC
AC104809.2
RPL38
AC005885.1
AC092131.1
NFAM1
AC087280.2
AC138123.2
C3
DDHD1
RHOH
TWIST2
NEDD9
DAW1
AC008568.1
AC010967.1
LINC02149
C1QC
LINC01871
CRISPLD2
SNAP91
HCK
CASC9
AC113383.1
MT1H
NRIP1
RNF150
KC6
CHSY3
AC097478.1
CREB5
AC112493.1
CATSPERB
HSD52
RBM20
IL1B
SLA
HSD17B2
SPARCL1
LILRB2
UVRAG
FAM129A
LRRC4C
RPL27
CHODL
KCTD8
SYN2
TOX2
RIN3
SPC25
CYGB
CCL8
NRK
ITPKB
CDH4
AC069208.1
ITGBL1
FMNL2
LINC01876
AL136985.3
HYAL2
MYO5A
BTF3
TINAGL1
JAKMIP2
NCEH1
AC016205.1
CMKLR1
AC011247.1
FSTL4
ACKR1
PTPRE
AC090568.2
NFASC
TENM2
PRKCH
GRIA4
STEAP2-AS1
AC074286.1
CENPE
CCDC80
KCNQ3
TRG-AS1
KLRC4-KLRK1
KCNAB2
LUM
AC007527.1
FGL1
AL157392.2
SLC40A1
IRF4
LINC01934
LINC01170
TFEC
MANBA
EDNRB
ANGPT2
SMAD6
CD83
SGO1
AL031599.1
MIR181A1HG
MAFB
SCEL
GAS2L3
RPL26
DIO1
C4orf32
AC098864.1
FBN1
SORT1
BCL11A
ANGPTL4
TOMM7
NPR3
RPS27
IFI44L
KCNMB2-AS1
NES
AC105411.1
RUNX3
PID1
CTNNA3
C2CD2
CABLES1
PDE10A
LIPE
AC097372.3
WWC1
MUC6
KCNMB2
AC002546.2
GPAT3
ITK
ZNF331
LST1
PCLO
IFIT2
MIR503HG
AC007091.1
BUB1
HRH1
AL022068.1
GRM7
ITGA6
AC010542.4
ADGRG5
LINC02469
LEP
FOXN4
ANLN
KLB
FZD4
FNBP1L
DPP6
SCN1A
AC079380.1
BFSP2
NEIL3
CHRM3
WDR49
CENPU
DYSF
TMEM182
VNN3
G0S2
CAT
ACSM1
SNX13
LINC02355
C4orf22
MGP
HMGCLL1
AC104041.1
SVIL
TMSB10
FGFBP2
CCDC170
LINC00924
RALGAPA2
ALCAM
OTOGL
CTNNA2
CXCL2
PTPRT
FAM213A
RUNX1
SYNPO2
HK2
HLA-C
ZDHHC14
ABHD5
AC093655.1
C2orf48
SLC2A9
RPLP2
AC098829.1
GSN
LINC01446
CHST11
CEACAM1
POU2F2
AC138305.1
AMOTL1
AJAP1
AC064834.1
STAB2
CYTH1
ARHGAP25
LINC01950
AC013652.1
RMST
MT1M
TRABD2A
CAMK2D
INMT
AC098679.1
CXCL10
RPS15
AC090124.1
ANKFN1
GPD1
MEOX2
OLR1
IL10
CHKA
LINC01037
RPSA
FAM111B
ID4
PELI2
AP000311.1
TENM4
AC087242.1
AL354733.1
AP003063.2
CCR6
AF241725.1
SCN3A
CALCR
CLIC5
AC008780.1
RIMS1
BCAT1
HLA-DOA
AL442647.1
MYO1E
RPL5
GUCY1A2
ADAMTS4
RUNDC3B
ALPK3
PLIN5
PEX5L
CD300E
ECHDC3
LRRC75A-AS1
ACTA2
CALCB
PTPRZ1
TNFAIP8
LINC01049
BBOX1-AS1
AC009975.2
RPS15A
ALOX5
ANTXR2
PKIA
AL845331.2
TEK
DOCK10
GEM
AC002127.2
AC099506.1
AL049629.1
AL662860.1
C14orf144
CLEC4D
GAGE10
GNRH2
PPBP
AC005772.1
RRM2
TXK
GYPA
ALK
LINC01142
AC020703.1
SLC7A6OS
VIT
SLC24A3
HIF3A
PTGDS
VOPP1
CCL3
SAMD4A
EPHA4
AC124854.1
TF
SLC22A23
EBF3
PPP1R16B
HIGD1B
ADAP2
SOX2-OT
LRRTM4
ARHGAP31
CLECL1
VIM
CYP1B1-AS1
F2RL3
LINC01266
FMO2
IGHG2
FAM155A
DLGAP1
MT-ND6
C19orf12
ACO1
SPTLC2
NR4A2
ITGA1
DPP10
BRINP1
STK32B
CDR1
TRABD2B
MAN1A1
PHLPP1
AC008056.1
IRF8
AL355838.1
LINC01122
LIX1-AS1
APBA1
SCNN1B
FAM46D
AL392023.2
RGS2
PDZK1IP1
FHOD3
CD44
MME-AS1
JAML
AL033504.1
LY86
RPS24
MAP2K1
ABCD2
AC092155.1
EPB41L4A
ARHGAP22
GAB2
TMEM144
PLCL1
AL162727.2
SEZ6L
AC008050.1
GFRA2
PAK3
MT1X
FOXP2
CD53
FCHO2
BCL11B
CHRM2
DISC1
LINC01443
LINC02309
LINC00519
PC
EPHA3
LPAR1
LINC02476
AGTR1
VEGFA
CLEC1A
IFITM3
CPAMD8
TACC1
CXXC4-AS1
TPRG1
TNFRSF1B
AC099499.1
AL583785.1
AL807742.1
EMCN
AC078845.1
TBC1D14
NCAPG2
PAX6
SH2D3C
FAM49A
AL391117.1
RARRES1
NLK
PDZRN3
SHROOM4
CRABP2
LINC02234
SPTLC3
PPFIA2
AP000755.2
CD84
TLN2
ADIPOR2
SIPA1L1
PIK3AP1
AL157871.4
TCF7L2
KLHL5
MIR325HG
AC026790.1
P2RY12
PALM2-AKAP2
KCNE4
KCNK2
NOX4
ITGA4
COL11A1
TG
COLEC10
SOX5
AADAC
TP63
LINC02240
RDH10
CCDC3
AC024901.1
AC099805.1
KIF4A
AL445250.1
RCL1
TRIM55
MMP16
FAM199X
NMNAT2
MAPK4
AP001636.3
RARRES2
DHRS3
HPGDS
APOL4
LINC02542
CYP3A5
C3orf67
AC139720.1
ENPP1
MS4A14
RPS7
APBA2
SRPX
ADAMTS1
CNKSR3
EPB41L4B
GUCY1A3
POLR2L
KLHL13
MARK1
THRB
PTPRM
SYN3
WNK3
ZNF189
SMIM9
AC096639.1
GFI1B
LINC02188
RERGL
AC135371.1
CDCA3
HAS2-AS1
XYLT1
BMX
KRT8
AC074327.1
PTPN22
AP002383.3
NGEF
CSF1R
AL356108.1
NR6A1
CD200R1
ST8SIA4
RND3
IGHM
GJA5
FAP
AL591501.1
PAPSS2
AC092440.1
TRGV10
TMEM2
AL390036.1
SLC14A1
TGFBR3
PDGFRB
CEP126
PAG1
GNG2
CRHBP
NR5A2
EGFL6
AJ006995.1
ACER3
CADM3-AS1
AC131025.2
GRB14
AC007422.2
ABCA1
CKB
SPI1
AL137186.1
AC091691.2
MGAM
SLC16A12-AS1
NPFFR2
IL1RAPL2
AC144836.1
LINC00976
ZPLD1
RUNX2
LRFN5
PRDM16
LINC01605
GABRA3
ARL4C
CD4
MTSS1
MLXIPL
AL078459.1
AC104667.2
AL354704.1
SCARA5
AC060234.3
FHL1
PRICKLE2-AS1
FRAS1
AL512380.2
AC009226.1
SLC44A5
ELOVL5
RORB
MT-ATP8
PART1
AP003086.2
AC010609.1
FRMD6-AS2
FAM19A2
TARID
AC010127.1
AC092167.1
MYH15
SH3BP5
INPP5D
ABCB1
SLCO5A1
OSBPL3
LINC00923
LINC00609
AC009055.1
LY86-AS1
GSTP1
PPM1H
DEPTOR
MGLL
SLC39A8
AC117473.1
AC244021.1
NOP53
AL137024.1
PACRG
TMPRSS4-AS1
SLC5A4-AS1
AC105094.2
ACSM4
TM4SF1
TIE1
GRIK1
DEC1
LINC01182
DIO2
AC019211.1
S100A4
AC008957.2
LAMA2
RNF103-CHMP3
CD93
AC018680.1
PPP1R12B
CNGA1
AC091939.1
PTCHD1-AS
NOVA1-AS1
CBR3
SERF2
ADAMTS16
TMEM108
MMD
ID1
SHISA6
ICA1
PNPLA2
CHST8
SH3TC1
PQLC2L
FLT4
AC010275.1
RNF112
TRIM63
HOXD1
AP001599.1
ZNF366
AC005358.1
SNX10
AC069114.1
BIRC5
EREG
AVPR2
AL139383.1
LINC01194
AC107021.1
OVCH1-AS1
NCF1
AC110009.1
HTR1E
LINC02253
AL391704.2
AC068051.1
IER3
LIN7A
FBLN1
L1TD1
LINC00473
HIPK2
EEF1D
SLC22A15
SEMA3G
CLIP4
GAS7
IGHG1
POT1-AS1
TRPS1
CTSS
AC004784.1
LINC02540
CCDC129
AIM2
HSPA1B
IL12RB2
CLPSL1
FCER1A
SERPINB10
STOX1
AL442163.1
SAMD3
AC090833.1
TGFBI
GFPT2
RPS25
AL445430.2
ITGAX
PRDX5
PPP2R2B
LINC01725
GRID1
PLA2G2A
COL4A3
AMPH
SLC7A2
KIAA1324L
MLIP-AS1
ANO4
ROBO1
MYO16
LINC02391
GRAP2
AASS
HSD17B13
CLMN
PTN
TET1
LHX6
RSPO3
CCDC102B
AC010235.1
CDO1
SLC7A14
C10orf10
STPG2
GAPDH
CNTN1
ALDH1L1-AS2
ANKRD20A8P
ZNF385B
TMEM100
MDFIC
RGS13
TMEM233
KIF13B
MAMDC2-AS1
AL157911.1
AC096711.2
GLCCI1
SLC6A15
C14orf39
KIAA1456
SRP14
UNC5C
LINC01885
GABRB3
PPFIBP1
NEBL
PSD3
PRRX1
GABRG3
AC027288.3
RPL24
CCDC168
TCF4
IDO1
PRDM6
AC093865.1
AC067956.1
PSAT1
ERG
AL390860.1
STK10
FAM20A
IGSF11
PCP4
SNTB1
ADM
TM6SF1
LINC00578
NETO2
APCDD1
ANK2
GLT1D1
AC016152.1
AC007611.1
MGST1
PKP2
CA2
AC117386.2
TSPEAR
HLA-DQA2
NCAM1
NRG2
SEPT4
AL133346.1
ATP1B3-AS1
FCGR3A
AC007364.1
MSC-AS1
MMP9
EXPH5
AC079760.2
EGR3
LINC01500
LINC02233
HMMR
TMEM217
LILRB5
TTYH3
SLC8A3
AL591686.1
AC095350.2
NAV2
ABHD2
AC124254.1
PPDPF
MAOA
AP005059.2
SOX18
CDKL5
LINC02227
TMEM178B
AC091946.1
AC010343.3
AC099792.1
BMPER
SASH1
MIR31HG
MEOX1
AC113386.1
AC020704.1
LINC00824
ACER2
TNFAIP8L3
AC023421.2
AC009271.1
FLNB
FOXO1
PI16
LINC02398
C1QTNF1
CBLN2
HLA-DRB5
AC124657.1
AP000462.1
LINC01301
FGF23
BOLL
CRISP2
AL713851.1
RRAD
TBC1D2
AP003110.1
RPL36AL
TSHR
TGFB2
CCDC148
GADD45G
MLLT3
DAPK2
PROX1
CDHR3
RAPGEF4
LINC01828
AC117944.1
TNF
LDLRAD3
EPHB1
SMOC1
AC126177.4
FBN2
PRKCQ
TRIM14
KRT7
PLA2G4A
TLR4
SNCA
ANK3
C1R
ANPEP
AR
AP005212.5
LINC00159
PBX1
MKRN3
AC104123.1
NIPAL1
DLC1
ADGRE2
MBNL3
PDE7B
FAM49B
USP33
AL592402.1
AKR1C2
PHLDB2
THY1
GNAT3
SLC2A14
AC069228.1
KCNJ15
CD14
SLC39A14
SDC2
MED12L
RANBP17
PKIA-AS1
RHAG
FGF7
RGS16
TET3
MLPH
NET1
MROH9
AC022424.2
CDCA2
AC105935.2
AK4
SLC7A11
SH3GL3
MRVI1
CDYL
CPNE4
AC099687.1
RUNX1T1
MIR2052HG
PQLC1
RCAN1
AC116563.1
PARD6G
TMEM132C
CACNA2D3
PGM3
TMTC2
GRM5
PIR
SGPP2
KIRREL3
SNX29
PRF1
PPP2R1B
AC013565.1
TCEAL4
ADGRG3
AC034195.1
AGBL1
MEI4
PTPRJ
NUAK1
CACNA1E
SLC4A10
BACH2
SPAAR
LRP5L
AC007656.1
ITM2C
SERINC5
AC110995.1
SMIM3
SLC18B1
AC007277.1
AC037486.1
LMO3
AL445430.1
S100A8
GRIN2B
SPX
AL356272.1
CDC25C
CXXC4
AC123777.1
SLC8A1-AS1
RPL23
NALCN
SESTD1
RPS17
DSCAML1
GCC2-AS1
AC011498.4
HS6ST2
PCDH19
SCGN
AP005059.1
TTLL7
SEMA6A
AL050403.2
SPINK13
AC097480.1
SFRP2
LRRTM3
RPL4
LRMP
GPR39
LAMB4
SLCO6A1
CAV1
IGF2
ABCA10
FPR1
ATOH8
AC244205.1
BANK1
AP005328.1
THEMIS2
CXCL12
BAMBI
AL136234.1
LINC01104
DIRAS1
EPPIN-WFDC6
PI15
AC093772.1
CIITA
PRDM1
AP000842.2
FLVCR2
LINC00470
AC008507.2
ATXN8OS
BARD1
TRDN
LINC02426
TMEM236
AL139807.1
TSPAN2
LGR5
LGR6
HLA-E
ZNF117
GNAO1
DOCK5
ADAM28
LGMN
GPX3
PDE8B
SLC14A2
MGAT5
AC024084.1
TRPM3
DRAIC
COLEC11
MAP2
GAS1
STXBP5-AS1
PRICKLE1
IL10RA
SNCAIP
HELLS
NAALAD2
SHCBP1
AC079298.3
AC083923.2
LGALS12
PDE9A
AKR1C3
SGK2
PRDX2
TMEM232
CADPS
ABCG1
NKD1
AF165147.1
CMTM7
GADL1
FAR2
NCALD
MYL6
AF127577.2
TSPAN18
TNFAIP3
AC016766.1
SERPINI2
GPC6-AS1
FRMD4B
MRVI1-AS1
UQCRB
CNTN3
UPK3B
GABRE
AL357052.1
TMEM196
DPEP2
RNF157
FAM163A
SLC22A25
JARID2
ETV6
MREG
CADM3
TNS1
HECW2
C22orf34
GPR34
ABCC5
CNTN4
AC093607.1
AC087164.1
LNPK
NECTIN3-AS1
LINC00907
CDC7
TIMP4
RPL36A-HNRNPH2
KCNJ8
AC108866.1
CYYR1-AS1
FAM196B
RNF212B
KRTAP10-4
AL929288.1
CDC42EP3
CASC19
MARCKS
AC125793.1
AC007923.4
AL359644.1
OPCML
AUTS2
SAMD12-AS1
BCL6B
SYNE1
KIAA1211
ATRNL1
NXN
PRC1
CCBE1
HOMER1
AC005537.1
TFF3
LRP4
AC105180.1
MGAT4A
GPR156
EYA2
ARAP2
AC087672.3
CRYBG1
GALNT6
NRCAM
MT1E
LINC02015
PHLDA1
CTSA
OLFM1
SP140
PPP1R14A
LBH
TUBA1A
SYT4
LINC01515
PFDN5
NDC80
MEF2C-AS1
AC019183.1
AC111152.2
DEPDC1
FUT1
AC004156.1
AC018554.1
AL109947.1
KCNJ4
PAH
WFDC11
HLA-DQB1
AC243829.2
LINC00886
CYP3A4
LINC01435
ZFYVE28
NR2F2-AS1
PECR
P2RX7
BST2
GLYAT
HSPB1
MIR4300HG
IER2
MGC4859
AC103409.1
TTK
BLK
RGS7BP
ABLIM1
LRRC1
FILIP1
LINC00534
FSHR
ABCA9-AS1
C1orf162
MPZL2
MYO1F
CRISPLD1
LINC02198
ADAMTSL3
AC096577.1
GXYLT2
ECT2
FAT3
LINC01324
LINC01640
SPATA25
TIMP3
MGC32805
GC
AC022858.1
TMX4
LRCH1
CFP
LINC01572
PPM1E
HBEGF
UNC5D
WARS
PREX2
LINC01765
AC021733.1
AURKB
LINC01661
KIF15
ABCC3
HEPN1
PLPP1
GLOD5
KCNS3
LY96
KLF2
COL1A2
AC092378.1
HPCAL1
CASC2
AF250324.1
AC021351.1
AP001528.2
AC012613.1
COX6C
ZSCAN31
ALPL
FSIP1
STAT5A
UBB
MFAP4
ARHGAP24
MTHFD1L
PCDH17
KCNE1
ACSL4
LINC01482
PRUNE2
ITIH5
AC079760.1
IKZF2
SLC15A5
LINC02086
SOX4
NTM
AC040174.1
AC012668.3
EEF1B2
YPEL5
TPM2
AC096773.1
AL499616.1
LINC00299
LRRIQ1
LRRN3
NT5DC3
MYOCD
AL592103.1
AL603840.1
LRRC3B
CNTN6
HSPB8
AC099329.1
AL356270.1
PCOLCE
RPLP0
AC090415.2
C8orf89
TFDP2
CHN2
AC015849.1
SAA1
DLL1
EPGN
COX4I1
UFL1-AS1
AL451069.1
ESPL1
OR8A1
DNAJC6
OLFML2B
BNIP3L
NRN1
MUSK
AC023157.3
HEYL
EID1
PDE2A
PARP8
AC044810.3
ARNTL2-AS1
AC121154.1
HES1
CD248
PLAC9
LDLRAD4
ANKS1A
NREP-AS1
SLC25A25
RPL3
PDE3A
AC092078.2
AL138828.1
DPH6-AS1
PELI1
AF213884.3
EPHA7
AC004973.1
AC022613.1
AC113391.1
FBXW10
LINC01807
MIR217HG
CADM2-AS1
LINC01449
MDFIC2
C8orf37-AS1
ID2
WDHD1
HAVCR2
ASIC2
ABCA9
PCOLCE2
ECE1
SAMD5
REL
GPR137C
KCND3
ABCB4
RPS29
DUSP4
ADA2
MTHFD2
AC005208.1
MCOLN2
NFATC2
ACE2
MIR3681HG
PAPPA2
AC092264.1
SGO2
CTIF
BAALC
ARHGEF15
TGM2
AC100802.1
HS3ST3A1
BASP1
FAM129C
RNASE1
SEMA5A
PSTPIP2
DLL4
ZBTB7C
GRN
PADI4
AC139713.2
SESN3
ITGA5
IDO2
NDUFS5
AC007879.1
HIST1H4C
ZNF385D-AS2
CALB2
GALNT1
AC092422.1
AC090921.1
UBC
AC090579.1
ACP5
KIAA1958
LINC01619
SUCNR1
AC109927.1
AC004828.1
UGT2B4
ID3
FZD1
ACTG2
F5
WDR76
EYA1
TSHZ1
LYPD6
AC025180.1
NEXMIF
LMCD1-AS1
ZFHX3
AF121898.1
BBOX1
SEMA3E
EPS8
RYR2
NEDD4L
RNF130
AC104596.1
KLHL31
AL136131.2
ARHGEF26-AS1
AC073941.1
FAM26D
PRSS3
SLC7A11-AS1
TUBB8
VAT1L
AC246817.1
AC083836.1
AP001341.1
GDNF
HRC
LINC02303
POU2AF1
TRGC1
AC078881.1
AC104461.1
NDUFA4
TESPA1
ARHGEF26
NID1
ADAMTS17
RIMKLB
DCC
MCHR2
IQSEC1
UBA6-AS1
CD226
LEPR
TNFAIP2
AC007744.1
AC011257.1
AC069431.1
AC118757.1
AL117258.1
AL590432.1
AL592528.1
ARL5C
CYP4F8
FCRL5
HIST1H3H
IGFBPL1
LINC00487
LINC01336
LINC01479
LINC01705
LINC01865
LINC02081
OR1N2
PRODH2
PROK2
SBSN
WFDC6
AC006441.4
AC026427.1
AC073283.2
AC116667.2
AC117465.1
AC138360.1
AL139041.1
AL157373.2
CASC6
LINC00941
LINC01228
LINC02104
OPN5
SLFN14
CYSLTR2
MAP4K2
AC016705.2
SLC2A13
PPP1R3C
HAND2
ACOXL
MYO10
TMEM268
EAF2
LINC01933
SLC43A2
SLC6A1
EPB41L2
BMPR1B
BTNL8
SEC14L1
HSP90AB1
ITGA9
TAF4B
PPARGC1A
FAM46A
LYST
STARD4
CETP
LTB
ADAM22
C3AR1
SERTM1
CTSZ
JPH2
EMP3
PTGIS
FGF2
NOD2
AC007513.1
SYNDIG1
SH2B3
BLNK
ABCC4
CLEC14A
AC103796.1
LINC02226
AC027701.1
KCNJ3
SH3RF3-AS1
SLC22A16
ZWINT
ACPP
SLC10A6
C2orf40
APP
AC142391.1
TCTEX1D1
ADAMTS9-AS1
KLF5
GREM2
PMEPA1
PCNX1
KCNN3
AC006974.1
VAV3-AS1
TRBC2
RTN4RL1
ZEB1-AS1
ALKBH7
CNKSR2
SYNE3
LINC02232
ATP5O
DOK6
LINC01762
TMEM117
SUCLG2-AS1
AC090993.1
IQSEC2
COL24A1
ST8SIA1
C6orf141
AC131956.2
AP000812.1
SCN3B
SYBU
LINC01362
FGF1
CD3D
LINC00407
FCAR
HTR7
CRB1
TMEM131L
HES4
PLS3-AS1
AC016924.1
EIF4A3
LINC02306
ST6GAL1
CAMK1D
AL357793.1
HRH2
ACKR3
STPG2-AS1
AC007278.1
HBA1
CDK1
PIMREG
KCNJ16
LMNB1
KDM4D
NTN4
SLC9A3R2
AP1B1
DPP4
PTGER3
ARHGAP28
FRMD5
MRAS
RAMP3
TEX14
AC003075.1
CYTH4
DPYSL3
AC007495.1
SHANK2
CMTM4
IQCM
RPL27A
RAD51AP1
OSBPL6
FAM69A
AC012501.1
DUSP5
F11-AS1
AIF1
GPR137B
ZC3HAV1
CLIC3
WDR66
TULP2
AC107029.2
AC114316.2
LMX1A
DNAH11
CCNF
FBLN5
TBC1D1
LIFR-AS1
IGHG3
PLOD2
NXPH2
OPRM1
C14orf180
FAM13A
CPNE8
FREM1
VWC2L
JAG1
CAVIN1
LINC00649
AC011503.1
TRPC3
RTN3
SEMA3C
LDB3
MOGAT1
CLDN14
TMEM151A
LARGE1
ZFAND5
DAAM2
AHR
VEPH1
DMXL2
SLFN12L
C18orf54
AP000446.1
LINC01442
IMPDH2
LUCAT1
BIN2
CYB5A
LINC00243
MX2
NAA11
AC134312.4
LINC02207
ITSN1
AL157392.3
PRSS23
CSF3R
GALNT14
COL9A1
E2F7
KBTBD8
WWTR1-IT1
GALR1
MAP2K6
MOCS1
AL359710.1
LINC00866
AL591178.1
TK1
AC007406.3
LINC02126
MYH9
USP6NL
MPZL3
CST3
SFRP4
AL356124.1
CTNND2
FMO3
PLA2G16
IL33
SUGCT
CALN1
AP1S2
FAM89A
COL12A1
DAB2
EHHADH
NR3C1
MYOM1
ADAMTSL2
GLYATL1
GOLGA6L7P
NDNF
PCDHB10
AP003049.2
PLCG2
HNMT
AC133065.1
PTGER2
CREM
PTK2B
PTH2R
DNER
NCAPD3
AC107419.1
CHEK1
SKAP1-AS1
GNLY
FAM19A4
BMP5
AC138627.1
LINC01094
RETREG1
ANXA6
AC018618.1
ITGB8
GRAMD1B
ZPBP
C12orf42
GPBAR1
H2AFY
GNAQ
SH3GL2
GPR155
SCML4
LINC01982
ICAM1
OXCT1
GADD45A
ST6GAL2
SLC9C2
PRKCA
TMEM51
RASIP1
PLP2
WIPF3
CCDC69
DIP2C
AC002467.1
IRS2
COBL
AC134511.1
BATF
RAI2
CYR61
CTTNBP2NL
LINC01006
AC002454.1
CCDC26
LIPC
SGK1
GPRIN3
IL18RAP
SPP1
HIVEP2
GNG11
TACR1
ADAM19
PTMA
TSPAN5
C11orf44
LINC02008
VSNL1
CCDC60
ADCYAP1
AP005230.1
LINC01091
ZNF608
FBP1
TSPAN13
LNPEP
COL6A6
NUAK2
CCDC85B
EPHA5
ADD3-AS1
NTN1
TMEM132B
ADH1A
FCGR2B
SH3BGRL3
F3
CXCL6
SLC1A1
TCN2
ATP5D
SERTAD2
LY6E
AC006299.1
LINC02082
FOXN2
RFX4
CEBPD
CDK15
TSPAN6
ESRRB
RP1
AC111188.1
DEPDC1B
TESK2
AC068305.3
CYP2R1
TC2N
SLC25A21
SMAD1
TES
AC092802.1
MMP19
LINC02277
BOC
LURAP1L
KRT5
WDR64
PRICKLE2-AS3
TEX36
TREM1
C12orf57
KLRG1
COLGALT2
ADAMTS14
CDCA5
CTLA4
IGFL2-AS1
PLEKHN1
EOMES
QRFPR
SLC17A3
LINC00994
AC008742.1
AC012557.3
AC073578.2
AC104458.1
AC106037.1
AC117513.1
AL008723.1
AL133353.1
AL390838.1
AL645933.2
CXCL9
EPPIN
LINC01058
LINC01262
LINC01873
RNASE2
SIRPD
SPTSSB
A4GNT
AC018521.6
AC026992.1
AC069155.1
AC073115.1
AC079598.1
AC084030.1
AC107952.2
AC108935.1
AL031727.2
AL122125.1
AL583808.2
AL583859.2
DDR1-AS1
DEFA3
DISP3
DKK1
ERICH4
GAL
HOXA10
LINC00683
LINC01081
LINC01477
LINC01591
LINC01676
LINC02526
MYMX
NAPSA
NLRP2B
PCDHA1
PKMYT1
PTCSC3
SKA1
XKR3
CALM1
TUSC5
LINC01931
PLXND1
AL133372.2
CROCC2
FAM71E1
ACOX1
FABP5
EFCC1
ITM2A
AL359232.1
MYO3B
RNF165
MYO3A
C8orf46
FBXO32
RPGR
AL360227.1
NCMAP
BRINP2
PHGDH
CCDC192
C1orf21
ARHGDIB
CD244
SEPT11
FAAH2
VAV1
FAM83B
AADACL2-AS1
C11orf63
ISL1
TNS3
KIF23
AC023510.1
AC078850.1
AL353148.1
AL358394.1
AP001029.1
CXCL3
GJA3
KRT80
LINC00382
PTTG1
SRRM4
PWRN4
SGCD
AC026523.1
AC073569.2
SPECC1
SHMT1
FRK
AL034397.3
C4orf19
SLC6A1-AS1
AGPAT2
OGN
ODC1
FAM129B
ZNF503
ANO5
AP002370.2
TRPC6
KCTD1
ALDOA
AC073082.1
FAM126B
PPP1R1A
DOPEY2
FBXO31
LINC01013
RASGRF1
NRP2
AL357060.2
GMCL1
PKP1
AL110292.1
TBX2
PAMR1
SLC12A8
GAB3
COL1A1
NOTCH3
FGD3
KIAA1549
SUSD5
ATAD2
CLIC4
SDC4
TNFAIP6
RNF24
LINC01481
SCN4A
CFL1
LINC02005
SLC15A2
AL359220.1
MUM1L1
TM4SF18
TSGA10
PRR5L
KIAA0040
CH25H
AC007785.1
NDRG4
SPINT2
AC012409.2
LINC02112
EGFLAM
AC079779.2
AC022387.1
ST8SIA6
BCL6
SESN1
RNF144A
MALRD1
AL157371.2
CEACAM4
MUC13
AC103949.1
CSRNP3
GPX4
AC100861.2
AC091979.1
LCP1
AL365275.1
ABCA6
DMGDH
ERRFI1
BICDL1
DCDC1
AC006305.1
MKX
TENM1
LIFR
AC006145.1
AC008551.1
LINC01197
SMPD3
RTL9
NRXN1
OAZ1
GCH1
KLHL32
PRKCD
XAF1
FAM184A
EDNRA
RAP2C-AS1
AC004917.1
CCL4
IPMK
UST
DUSP27
LINC00840
LINC02450
RBM46
CPXM2
SLC26A7
UBN1
KLRD1
PRKCA-AS1
STXBP6
MDK
CNBD1
JDP2
ADRB1
ABLIM2
AC104248.1
AC064871.1
AL445584.2
AC108067.1
AF130417.1
CDH5
AL365273.2
SPARC
BLM
AC005165.1
TMEM150C
LRRC63
AF127577.4
GFPT1
TTC38
AP001831.1
HIVEP3
AC100771.2
IFIH1
PBX3
HEPACAM
TFRC
RASL11A
BACE2
AC105402.3
GRIP1
GSDMA
KANK3
EDN1
ENG
NOVA2
AL078590.2
LIF
AC008534.1
EXOC3L1
DENND5B
SLC18A2
NEK10
GPC3
SOBP
PTX3
HEBP2
LARGE-AS1
TUBB
MEGF9
SLC7A1
ARHGAP32
CHN1
AC087482.1
ATP9A
ZGRF1
LINC02356
LPA
SLC46A3
KIF5C
LILRB4
AC073316.3
RGS17
RNASEH2B-AS1
PKIB
ELMOD3
NAP1L2
LINC01913
CCDC68
FANCI
TPX2
AC021439.1
KLRC1
DTX1
IQCJ-SCHIP1
PWRN1
RASD1
ZSWIM5
TBL1Y
APPL2
SCARB1
DKK3
JCAD
AC007255.1
MYH1
TSPEAR-AS1
ZBED6CL
AC009041.2
AC022568.1
AC090376.1
AC093702.1
AL162632.1
AL391988.1
AP003555.3
GPR19
RLBP1
RUFY4
XCL1
TNIP3
AL121721.1
AC009119.1
CAPN6
EHD3
MX1
MAGI1
SH3PXD2A
PRELID2
EFNB2
TEC
ERV3-1
CRYAB
FAM78B
AC093523.1
SATB1-AS1
ERC2
AC090709.1
CCNG2
DAB1
JADE3
ARHGAP18
RASAL2
OSMR
EDA
SLC25A33
PDLIM1
AFAP1L2
SH3PXD2B
MCAM
CASC20
AF241726.2
TMEM163
FCGR2A
CPB2-AS1
NINJ2
CORO2B
BCHE
TPTE2
JPH1
AC008840.1
HERC6
GLIS1
CASC15
FFAR4
CFAP221
MAF
AC007389.1
TRIO
MARCH1
IL1R1
FCER1G
TMEM72-AS1
AC092546.1
GATA4
LINC00158
LINC01645
CTXND1
FABP6
GML
SPINK8
HSPB7
SLC39A11
SORBS2
SMS
ESYT2
MBOAT2
CTD-2201I18.1
MFHAS1
MAEL
ULK4
MIR181A2HG
AC000124.1
AC009093.1
AC026369.3
AC027801.5
AC099063.1
AC107882.1
AC140125.2
AL109920.1
AL138899.1
AL157702.2
AL161669.1
AL390067.1
AL645608.7
CCR5
CLEC4A
DRD2
IFNK
LINC01618
LINC01624
LINC02236
LINC02308
PCAT4
POU2F3
PROB1
Z97987.1
AC080078.2
ADAD1
AL021368.3
AL162384.1
AL365361.1
AP001065.1
AP001783.1
CD300C
DRP2
GS1-24F4.2
UCHL1-AS1
DES
IL4R
AL356476.1
OR1L8
ADAMTS8
HOXD-AS2
HMGN5
LINC02331
OR3A2
ISPD
ADCY7
GABRB1
CACNB4
PCAT1
AC018552.2
DNASE1L3
PARP15
PTPRO
RAP1GAP2
MACROD2
AC112907.1
RASSF3
TRERF1
CPEB2-AS1
LINC01060
AC021594.2
LINC00882
C6orf132
DDB2
C20orf27
COL23A1
AC010997.3
SSH2
GJC1
LINC01010
PSG3
UNC13C
LINC01524
PGD
ADAM8
ADAMTS15
VIPR1
FCGRT
VWCE
SETBP1
CSAD
RAD51
TRPC4
HEATR3
TRMT112
GREB1
FBXO17
PDE4DIP
GPSM3
WDR17
WDFY3-AS2
WNK2
RARB
RGL1
CHSY1
IFITM2
EPM2A
C6orf10
LURAP1L-AS1
PLXDC2
LINC01508
THSD4-AS1
S100Z
AC007100.1
LINC00271
OR9Q1
RASSF9
AL122019.1
AC090204.1
AC139491.5
SEMA6A-AS1
OVCH1
USP2-AS1
LINC02269
CFAP161
RNF217-AS1
TUSC3
FKBP11
GNA14-AS1
NHSL2
AC090115.1
LINC00535
AL596218.1
SIM2
AC008109.1
AC106820.4
AL118508.2
COL2A1
FAM222A
HOXC9
LINC01886
SYCE1
NGF
AL158198.1
DOC2B
ELOB
ANKH
CACNG4
DNAH14
AC100803.3
GNMT
MBOAT4
TDRD1
AL158835.1
LYPD6B
PTEN
ARHGAP30
NELL2
C3orf79
IGFBP2
AC093801.1
SLC37A2
AC091976.1
AC009126.1
BTG2
ABHD3
SNX18
CDON
HUNK
ZCCHC6
AC024909.1
SMAD9
AC020687.1
AL512506.3
RD3
ZNF503-AS1
PPP1R42
A2ML1
AC105430.1
TRAT1
LINC01483
LRRC8B
AC025627.1
AP003063.1
LEF1
NTF3
MYRFL
LPCAT2
GNA14
KIF18A
C2orf73
AC079210.1
EZR
TNFSF10
FYN
COL4A6
AL390729.1
AC108451.1
CYP19A1
ALX4
COL14A1
ATP5E
GALNT16
ARHGAP26-AS1
ENTPD1-AS1
AC114763.1
CD200
SMAD7
RERG
WISP1
AL512428.1
PRSS12
ARSB
C9orf139
AC137770.1
C1orf186
SLC36A1
AC004158.1
CLDN11
PSME4
AC091940.1
BHLHE40-AS1
EEPD1
COL4A5
LRRC49
AC008957.1
RHBDL3
MLKL
SLC1A2
SEPT9
AL355490.1
DAZL
MMP2-AS1
AP002498.1
PLXNA4
CADPS2
EFHD1
CKMT2
TCF4-AS1
SEMA3D
AC021546.1
AL513318.2
SRGAP3
GRHL1
ACOXL-AS1
RANBP3L
SEL1L3
KIAA1524
SYTL2
SLC25A3
RHBDF2
RCAN3
PRMT6
AL590764.1
CLGN
NAA50
RNF175
RASSF6
RPL34-AS1
AC124947.1
LGALS3BP
LINC02133
PIK3R6
OCA2
VWC2
PARVG
MYOC
PALD1
ZRANB2-AS2
NAV1
PCED1B
SLC12A2
GTDC1
AC022915.2
WDFY2
AC004870.4
AC016687.2
C20orf197
AC022126.1
AC100814.1
ELOVL4
FAM159A
KLHL6-AS1
LINC01163
LINC01277
PCA3
CRAT37
EHD4
AC008127.1
AC007384.1
ABALON
AC008780.2
AC010890.1
FAM124B
PCLAF
PTPN5
JAM2
APMAP
RAB39A
AC005237.1
GAREM1
RPL18A
GPC6-AS2
SLC12A1
CFTR
HDX
KHDRBS3
BAALC-AS1
C3orf70
MPP1
PGM2L1
OSBPL10
UTS2B
CPO
RFC3
RABAC1
RAI14
AC011379.2
HSDL2
TRPM2
SLC4A8
TPD52L1
AC091078.1
LINC02058
ART4
FAM189A1
AC106894.1
GPR85
AC003666.1
AC010336.2
AC010761.4
AC022382.1
AC026691.1
AC068759.1
AC073842.1
AC084824.3
AC087241.3
AC087380.1
AC090572.2
AC092810.3
AC093423.2
AC123905.1
AC127002.1
AL049839.2
AL133247.1
AL445183.2
ALB
APOA1
CAMK2A
CCL23
DAND5
DKFZp779M0652
FAM180B
FAM183A
HAO2
HRASLS2
ITGB1BP2
JRKL-AS1
KRT6A
LINC00323
LINC02341
LY6G6C
RAB3A
SELENOV
SENCR
TBX18-AS1
TTTY9B
MXD1
EPSTI1
CD40LG
ESCO2
OOEP
AC002091.1
AC005280.1
AC073073.2
AL138881.1
PCDHB6
AC027312.1
DNAJC5B
DSG1-AS1
ARID5B
EDF1
FANCA
CD38
TSPAN11
AC125613.1
AL024509.3
RGS18
HGF
LINC01358
ALOX15
CC2D2B
FIRRE
PCBP3
SELP
ME3
MVB12B
AC007376.2
RPS6KA6
DENND2A
TBCD
SIPA1L2
SLITRK4
AL589740.1
AC007193.2
AC078923.1
AL354732.1
AC104170.1
ZMAT4
ATP10B
AC022523.1
AC099066.2
AC119868.2
AC120193.1
BTBD11
AC005609.5
AC005550.3
CLDN16
PLN
ASXL3
SULT1B1
FHL2
ANKRD30B
TCF21
STK26
HEY1
SUCLA2
AC091212.1
CPA6
LINC00964
AC244131.2
RASL10A
PRKG2
MYO7A
NOS3
KLF12
AC002480.1
AP001257.1
HMGA1
ASTN1
IL32
XRCC4
SPESP1
FAM126A
AC091948.1
CD300A
RAB44
TRIP13
RMDN2-AS1
SOAT1
CDS1
AC019068.1
ZNF816-ZNF321P
PRELID1
PIP4K2A
CPEB1
DDIT4
AP002856.2
ARRB2
GNGT1
C20orf194
LINC00506
LINC01902
NOS1AP
AC004540.1
MT1A
AC021086.1
CLEC19A
SUSD1
SATB2
B3GALNT2
TMEM135
CD6
LINC02343
MANSC4
PPP4R4
GRIA3
AC139749.1
ITGA11
GDAP1
ADCY3
AC099566.1
KIAA1671
CCDC88A
AC022796.1
AL137145.2
ARAP3
AC005906.2
AC092162.2
SYCP1
LINC01612
NCOA7-AS1
LINC02202
SORCS2
APOL6
AFAP1
AIF1L
TWIST1
ELOVL6
ARRDC2
MYL9
ALOX5AP
ARRDC3
CHD7
AL591368.1
PARVB
ATP10A
LAMA3
TMEFF2
SSPN
DAB2IP
SNAP25
SPRY4-AS1
PDGFC
FIS1
GPATCH11
UNC79
SFMBT2
AC012499.1
AC092954.1
AL359738.1
AP000695.1
AP005328.2
LAMB3
LINC02228
NUDT11
SALL4
SKA3
SLC6A12
AL121985.1
EDAR
PCBP1
FASN
AC091906.1
AC018816.1
BTK
KLF4
CXCL17
AC129102.1
FCN3
JAKMIP1
LINC00861
TSPAN33
WSCD2
FRRS1L
AC078850.2
BEND6
ST6GALNAC1
TBL1X
ANGEL1
LCK
CLIC1
ELAVL2
PARK7
TSPAN12
HS3ST4
GLUL
LRRK2
PLPP3
CTSC
ABCA4
S100A11
AC097347.1
TNN
DOCK6
RCOR1
NDUFAF3
PLSCR2
CUX2
C1QTNF7
SMARCA2
KNTC1
GJA1
LEKR1
C12orf60
ADCYAP1R1
KIAA1211L
SMC4
LINC02546
AL365318.1
ARL2-SNX15
AC022360.2
C18orf63
FAM81B
LINC00327
LINC00691
NOL4
SLC27A2
AC093879.1
LINC01257
CCL5
ABCA13
MYOZ2
AC069023.1
C2CD6
CASC21
LRP4-AS1
LRRC9
TTC3-AS1
SPATA17
ADAM32
ENPP3
TGM1
THRSP
PRR11
AL160290.2
H2AFY2
C3orf58
MASP1
AP000959.1
LMOD1
GPR176
ZC3H12D
PRKX
HDAC2-AS2
AC004223.3
AC009139.1
AC010320.1
AC011824.2
AC016257.1
AC024475.1
AC060765.1
AC073325.1
AC090971.5
AC093677.2
AC093893.1
AC096667.1
AC100847.1
AC104232.1
AC104241.1
AC108156.1
AC109588.1
AC118553.1
AGR2
AL022316.1
AL122017.1
AL355310.2
AL357054.4
AL445465.2
AP001330.5
BDKRB2
BEND4
C13orf42
CAMK1G
CRB3
DDC
FAM209B
FNDC10
GDF9
KCNAB1-AS2
KCNT1
LINC00570
LINC01204
LINC01563
LINC01927
LINC01937
LINC02315
LINC02549
LINGO4
LMLN-AS1
OCM
OR52E5
OXCT1-AS1
PPP1R17
PPP1R3G
PSG1
RASSF1-AS1
RIPPLY2
TAS2R10
WFDC21P
CPVL
AL157838.1
GLDC
SNX30
CMIP
ESAM
IPCEF1
ACVR1
AC006581.2
SLC35F3
ATF3
RUBCNL
KIF21B
SPOCK2
AXL
RASSF2
CLEC4E
CDCP1
CDKL1
RPS2
PGR
MICAL2
GSG1
ECH1
NEDD4
GNA13
MOB3B
STK35
ATP8A1
TEX48
LYPLAL1-AS1
AC106895.2
DACT3-AS1
COL22A1
KIAA1549L
LINC01714
STYK1
GPR63
KLKB1
DPY19L2
IL15
FAM102B
FTCDNL1
AP000561.1
FERMT2
ADGRG6
AC068025.2
AC092944.1
PDK3
TSPAN9
INSR
KCNK13
PLS1
ZNF704
CITED2
SCN11A
DENND5B-AS1
EPHA1-AS1
EMILIN2
AC108062.1
LINC01905
HCFC1R1
MIR548A1HG
USP54
DIRC3-AS1
TXLNG
NAAA
BHLHE40
MGME1
CA3
AC109471.3
CFAP58
TIMELESS
NLGN4Y
NXPE1
FGD5
LAMC3
AL158209.1
GRM8
AC008703.1
CCL4L2
AC068446.2
CPLX2
LMOD2
AC013264.1
CCL3L3
FGF12-AS1
AC010601.1
AL591686.2
ENOX2
POLR1E
AP002026.1
AC084816.1
PIK3C2B
AC113137.1
GFRAL
PCDHB5
TAS1R1
PTPN14
LRGUK
NIPSNAP3B
PML
ARHGAP4
NDUFB7
SYNE2
CLIC2
B4GALT1
THBS2
KLHL29
TRPA1
AC011511.2
TMEM204
CA1
CCRL2
LINC01822
CELSR2
MMS22L
CR1L
FAM151A
OSTN
RGS4
IFI44
OVCH2
CLEC2A
AC019117.1
LIN9
AVPI1
FLT3
AMDHD1
AC035140.1
MYOM2
APH1B
AMOT
MB21D2
SCLT1
GLRA2
PITPNC1
HRASLS5
PLAU
LINC01105
AC116337.3
KIFC1
LINC02378
PIF1
VCAN-AS1
XDH
SCD5
FAM107B
AC007681.1
PCSK1N
CORO2A
FAM13C
SHROOM3
CHL1
RNF43
DUSP6
AC079467.1
NSDHL
MMRN2
ATP2A3
AL356134.1
CCL2
FAM151B
ZNF846
MYO5C
VGLL3
NSD2
AC004381.1
NT5DC1
Z99289.1
IFIT3
RCN3
NLRP1
STEAP1B
AC090673.1
LGI2
GPR158
QKI
CFAP77
LRTM1
AL671511.2
NTNG1
MNDA
RGL3
MAP3K13
MSN
TIAM1
AC074033.2
TAGAP
NFATC1
LINC01416
S1PR1
SLC8A1
PRKCQ-AS1
VNN2
ARPP21
AP1S3
CXCR4
RAPGEF4-AS1
LINC01794
AL445472.1
ZNF98
CPPED1
ELOVL2
MAP7
MZT2B
CDC14A
LINC02172
FLVCR1-AS1
FPR2
LINC01111
PTMS
FAM214A
GLCE
FAM160A1
C19orf53
AC092652.2
FST
GBP1
SOCS2-AS1
MDM2
HFM1
COTL1
AL354696.2
LINC02384
RTL8A
MARCKSL1
CD48
RALYL
AC011899.2
ADGRG4
LINC01494
LINC02083
PMAIP1
RDH12
NTRK3-AS1
STBD1
ROBO4
C4orf45
CD109
VLDLR-AS1
PPP3CB-AS1
CILP
ABHD6
AC020594.1
NIM1K
TDRD5
TNMD
ZNF22
MIR34AHG
AKAP6
AC138304.1
AC024257.1
AC104078.2
CDKN2D
LINC02057
HADH
RAPGEF1
HIP1
CDKN1A
AL606468.1
BEX1
CLIC6
SMCO3
TIPARP-AS1
AC026369.1
HFE2
PPP1R14C
AC016576.1
WFDC9
ACSM6
MTCL1
SPTBN5
AC005035.1
AC005920.1
AC007431.1
AC008514.1
AC012355.1
AC016877.1
AC022031.2
AC025263.1
AC025524.2
AC083964.1
AC090630.1
AC091820.2
AC093305.1
AC097372.1
AC100830.3
AC110285.5
AC126177.8
AC127521.1
AC145285.4
ACHE
ACP7
AF129408.1
AIFM3
AL023881.1
AL138799.4
AL139393.2
AL357060.1
AL451050.2
AMBP
AP000911.1
CACTIN-AS1
CRYBB1
EEF1A2
FAM167B
FBXO47
FGF22
GLRA3
GRM7-AS1
KDF1
KLF14
KRT23
LCN12
LINC00881
LINC00927
LINC00940
LINC01166
LINC01878
LINC01963
LINC02136
NOX5
PCAT14
PSAPL1
RAB33A
RND1
SEC23A-AS1
TKTL1
DOCK9-AS1
ITGAV
FMNL3
MYL12A
AP001527.2
CXorf21
GPR65
LINC02516
IGF2BP3
AC008014.1
NKG7
GK-AS1
C11orf96
SERPING1
AL353801.1
AL136298.1
AC063944.1
CDH3
MYLK
AC037198.2
COL28A1
EXOC3L2
COMMD6
ST3GAL5
CALM2
CHIT1
LINC02405
AC008083.1
AKNA
SYNPR
AP005329.2
AP000787.1
FAM162B
NT5DC2
PLAC8
AC087762.1
GNAI2
SLC12A7
TPD52
STK33
MCCC2
SMIM12
CDK6
CLEC10A
CPS1
STMN1
XKR9
NEURL1
PLPPR4
ARRDC3-AS1
MND1
LINC02224
GSTCD
JAZF1
SLC26A5
PLB1
TMED3
MYLK4
SYNJ2
SIX4
NLRC4
VRK1
MN1
STK32A
AP001347.1
RAB7B
AP005436.1
ERBB4
SNRK-AS1
AC106799.2
QPCT
AC068286.1
AP002856.4
CD7
SHC4
NEAT1
ZNF521
DNAH9
SPAG16
AC107032.2
RIMS4
ME2
AP000919.2
ZMAT3
AC098617.1
AL078590.3
HK3
CRYL1
ZFHX4-AS1
ARMC4
TESC
AC092142.1
CCDC88C
ADGRG1
ITPRIP
DSP
SORL1
SH3BGR
RNF149
MAPRE2
GATA2
AC044810.2
TNFRSF10D
KITLG
STEAP3
XKR6
PPFIBP2
HTR2A
KIF19
TMEM64
RELT
EBI3
SCUBE2
TLR5
AC026333.3
AACS
SNED1
FAM198B
TSHZ3
TSPAN8
SGMS2
ANKRD44
SOD1
ZCCHC2
MEI1
CASC1
ANXA3
MTUS1
PDE1A
DGKE
CEP128
SLC9C1
C21orf62
PILRA
GALNT3
HMSD
TMEM71
AL138930.1
TMEM154
BIRC3
AC090061.1
KRT15
LINC01698
RHEBL1
AC015917.2
AC037198.3
AC084759.2
AC107398.2
AL626787.1
GABRP
NXT2
CCR1
CD2
SIGLEC9
LINC00862
SLC5A6
LINC00702
ANKRD6
DNA2
RAP2B
AC128689.1
COL8A1
FLJ21408
HAL
HNF4G
AL035701.1
PLCL2
FAM124A
RGS22
FAXC
MARC2
ZNF423
WIPF1
CPE
HEPH
AC023034.1
LINC01517
IMPG2
NRG4
HBA2
AC069368.1
PITPNM2
LRAT
SEMA6D
ETV1
LINC01504
HSP90AA1
KBTBD12
HIST1H2BN
AC006487.1
AL161457.1
CLEC5A
ELMOD1
HIPK1-AS1
LINC02330
FCGR3B
LINC02223
LINC02235
BAG4
HERC5
GPR183
CEBPA
AL034417.4
AC110491.3
AL596220.1
COL5A3
AL354754.1
PNPLA3
ITGB1
SESN2
IQUB
PEMT
AHNAK2
NUGGC
CATSPERE
RAMP2
SCOC-AS1
PBK
FREM3
LINC01606
KCNK15-AS1
ARID3A
MOXD1
AC010197.1
AC011773.3
AC022398.1
AC022809.1
AC087439.1
AC131532.1
AKR1B10
AL035252.3
AL049838.1
AL133351.1
AL451069.2
AL451085.1
AL591848.2
AP000462.3
AP001021.1
ATP1A4
C1GALT1C1L
CT62
LINC00298
LINC01019
LINC02026
LINC02107
LINC02373
MIR4422HG
NFKBIE
PSG4
TBC1D8-AS1
TYR
WFDC8
Z84492.1
ZNF724
AC008040.1
AC008403.2
AC010731.2
AC016885.2
AC018809.1
AC079062.1
AC100768.2
AC129507.2
AL121772.1
AP003119.3
ASB18
CCDC63
EGF
ERC2-IT1
FGF17
KCNA1
KCNQ1-AS1
LARGE2
LGALS8-AS1
LINC01387
MACC1-AS1
MFAP2
MRLN
PDCD4-AS1
RAD21L1
RIBC2
RBMS3-AS2
AP002986.1
HLX-AS1
AC073254.1
PEG3
IPO9-AS1
NECAB1
KATNAL2
SRL
ANKRD7
FAM109A
TNFRSF12A
IRF5
OTUD7A
CNTNAP3
ARRDC4
AC005162.3
FBXO27
UBE3D
SLC22A1
AP000721.2
RYR1
PYHIN1
FAM171A1
SHC3
MPP7
RGS3
DOCK3
CA12
C1QTNF1-AS1
AHNAK
AC006042.2
CACHD1
AL117190.2
AC025219.1
AL356580.1
AC098613.1
AC104151.1
CRTAC1
MIR3945HG
SRCIN1
FLRT3
AC107973.1
COL26A1
CXorf57
PHYHIPL
KDR
USP13
LINC01799
AL121760.1
AP000781.2
RIMKLA
LINC01392
AC023024.1
HSD11B1
AL139220.2
C9orf172
AC005056.1
AC009902.2
PHACTR1
MGARP
SLC25A18
DIAPH2-AS1
NLGN1
KIF20B
AC130456.2
GREM1
AC089999.2
DHRS13
FRMD7
KEL
ARC
C19orf38
CA14
TDGF1
ZSWIM2
AL157834.1
DCDC2
HOXD8
HOXD9
LINC01845
MIR600HG
PLA2G7
DCBLD1
KBTBD11
FAM71D
FMO1
CYP4X1
AC022007.1
DNAH12
AC237221.1
INSRR
AC016687.3
LINC01558
SLC5A4
AC008759.3
LINC02004
TGFA
CCDC36
PBX4
SNX24
DOK5
AL020995.1
BMF
METTL24
MCF2L2
STK17B
ZC3H12B
TAF9
LINC01829
RPS6KA2
PLIN4
AL357153.2
PDLIM3
SCML2
AC246817.2
OSBP2
USF3
MKL2
IL1RAP
CEP152
RNF220
PHPT1
GCNT2
PICALM
CXADR
SLC7A7
GULP1
ATP2A1
PSG8
VMP1
RPS6KA5
KIAA0513
GINS1
CSMD2
FNIP2
ADCY1
IL17D
AC107029.1
SUSD4
MYO9B
KCNK6
AL049869.2
AC104827.1
ARL13A
CTSG
SOAT2
TAOK3
C9orf147
TAL1
AC010168.1
GAS2
MAP4K5
AL109930.1
ARID4A
AC099489.1
SYNJ1
SLC41A2
AC104984.4
LINC01901
BCL2L13
COL5A2
BID
KTN1-AS1
AL031123.1
ASB4
LHCGR
UNC5B-AS1
AC110772.1
AL357673.1
CASQ2
CRTAM
HSF5
NYAP2
LINC02242
AC025822.2
AL049749.1
AC010776.1
KIF21A
SYNM
LHFPL6
AC090518.1
AC025040.1
DIAPH1
FLJ46284
PRKAA2
SDC3
NREP
PLEKHA7
AC008074.1
GABPB2
BMP3
GLIS3
GLP2R
NAV2-AS3
SYCP2L
SLC39A10
TUBA1B
TNFRSF19
MIR4435-2HG
AC127526.4
AC090197.1
GPD2
SLC35F2
IL13RA1
AC097515.1
LYZ
AC084200.1
GRXCR2
AC092916.1
AGAP2
GDF15
PTGIR
AC060766.7
ARHGAP11A
TMEM74
ZNF653
PDGFB
SEPT6
CSGALNACT1
MYH13
CRYM
SSTR2
CUBN
ITGA10
ELK3
SLC4A7
RSU1
AC003092.1
AC007613.1
AC009090.1
AC009171.2
AC012413.1
AC022034.2
AC025437.4
AC027271.1
AC068831.1
AC078882.1
AC083864.2
AC091544.5
AC105919.1
ACTN3
AF123462.1
AL021707.5
AL079303.2
AL158817.1
AL354707.2
AL355390.2
AP005264.1
BDKRB1
C9orf163
CD300LF
CKAP2L
CLEC4F
COMP
CU639417.2
CYP4A22
GPR55
GZMB
HHIPL2
JSRP1
LINC00901
LINC01375
LINC01687
LINC02552
MIP
NMU
SFTA1P
SFTPD-AS1
SLC6A13
TOX3
ZIM2-AS1
AL356258.1
RSAD2
AC010099.4
AC020912.1
FCER2
LINC02320
MEIG1
MEOX2-AS1
SMCO2
AC117377.1
LINC02408
RXRG
SEMA6A-AS2
NSUN7
GALM
CACNA1A
B3GNT5
CCM2L
CLTCL1
MEDAG
ANKRD28
SCIN
SIRT1
MYL12B
MPEG1
AC092747.1
DDX11-AS1
AC109630.1
ADORA2A-AS1
SELL
COX7C
AC109811.1
SMIM25
VWA3A
POU6F2
CTTNBP2
GRASP
AL512638.2
LAX1
AL135937.1
SYT16
LMNA
AC004448.4
IGFBP4
AC087477.2
TEX26-AS1
KLHL6
SLC28A3
RBM15B
AP001528.1
HSD17B4
AC119150.1
AC007743.1
ABCG2
CYP26B1
RHOC
SLC7A8
GPR180
SLAMF6
DMRTA1
AIFM2
CDKN2B-AS1
P2RX4
SLC16A6
CFAP54
DENND3
ETS2
ALDH2
HLA-DMA
AC002429.2
AL359636.1
ARHGAP19-SLIT1
IDI2-AS1
POF1B
LIMS2
PCSK1
AL691403.1
SPATA6L
ZMIZ1
ARL4D
SAMD12
EFNB1
SOCS3
AL365259.1
AC092431.1
NGFR
MCTP2
YWHAH
LSAMP
CYP27C1
LILRB3
DGAT2L6
AP000915.2
RBPMS2
HSD17B6
PFN1
AP2M1
RCBTB1
AC005037.1
CDH8
GLYCTK-AS1
MEX3A
TTC30A
AC013564.1
AC022217.2
AC092611.1
LINC01568
SLC26A4
IL24
PMFBP1
ALDH1L2
AC025262.1
AL136982.1
SAMHD1
MAGIX
KLRF1
LINC02196
ARNTL
ZFP36L2
ST5
IGDCC4
AC011139.1
PROS1
MID1
AC089983.1
TGFBR1
RFLNB
IRAK2
BX322234.1
LINC02427
LINC01476
ST14
THBD
CBFA2T3
MAL2
ATP5H
AP005120.1
FAM177B
AC015845.2
DARS-AS1
MIR4500HG
CETN2
ADRA2A
ADRB2
HTRA1
C10orf107
C6orf106
PLS3
KCNG2
PCDH18
GBP2
FKBP8
EPB41L1
OSTF1
AL034417.2
AC078785.1
PTAFR
DLEU2
IER5
ACSF2
GMFG
ARSJ
CAV3
GDNF-AS1
AC010884.1
AC091138.1
AC107067.1
C2orf72
FAM228A
LRCOL1
AC004704.1
AC011455.2
AL163952.1
CDKL4
FGF14-IT1
HMGCS2
NCAPH
SMIM1
SPN
WIF1
ZP1
ARHGEF37
HS3ST3B1
PCTP
TLR2
AB015752.1
RGS10
TMC8
KLK10
AL445623.2
DDX58
AC019130.1
SYTL1
AC010333.2
RAB9B
ABCC9
CHCHD10
UBE2D1
AC097662.1
GRM7-AS3
LINC01990
STAC
AC079150.1
ST3GAL6-AS1
FAM84B
ASAH1
IFI27
HESX1
AL133415.1
RHOB
CGNL1
SCGB2B2
NDC1
ERI2
GNAL
HS3ST1
AC079447.1
CTBP2
SIAH2
EGOT
SLC1A4
HID1
PTPRN2
AC002383.1
AL445259.1
AL928654.2
ANGPTL5
BTLA
ERP27
HOXB8
LINC00987
RSG1
LINC01791
AC006115.3
CCDC83
AK7
CASS4
DIRC2
CCDC34
PLCB2
BHMT2
AC108134.2
RNF180
DNM3OS
AC007292.1
AC011346.1
AC025539.1
AC027307.1
AC063979.2
AC068506.1
AC087897.2
AC092068.2
AC092813.1
AC093510.1
AC093909.4
AC103957.1
AC104653.1
AC108879.1
AC114488.2
AC127070.2
AF038458.3
AL008582.1
AL139393.1
AL162734.1
AL512791.2
AP005136.2
BTNL3
CEACAM8
CLDN2
DHH
FBXO39
FBXO43
GUCY2D
HYAL4
IGDCC3
IGF2-AS
KIAA1614-AS1
LINC00589
LINC01192
LINC01230
LINC01704
MIR548XHG
NUTM1
OPRD1
PCAT6
PRDM7
PRRG3
RAC3
RORA-AS2
TMEM221
ZNF488
ZC4H2
TMEM213
AL122035.1
PHLDB1
OIP5
ADGRA2
CHMP2A
CABYR
ADD3
MTMR8
AL158071.3
ANKRD37
AC017101.1
GADD45B
CHRDL1
LINC02254
PCAT19
WDR11-AS1
PRR15L
RBBP9
CDKN2C
TRIB1
MYH10
MCU
POLN
RHBDL2
ROR2
CSGALNACT2
ENAH
LCORL
RFWD3
UBE2QL1
CHRNA7
LINC00511
E2F3
HSD17B3
CSTA
APCDD1L-AS1
AC106795.3
TMEM44
AC068234.1
C9orf72
PANK1
SIDT1
PRPS2
AC079790.1
AC104117.3
TLE1
REEP1
ITGAL
REPS2
LDLRAD2
SLC7A10
TNFSF13B
TMEM241
LINC02250
KCNMA1-AS1
PRAM1
AK9
DNAJC27
LMBR1
AC027698.1
AC007389.3
AC099753.1
YAP1
PRKG1-AS1
NDRG2
ABAT
DNAH6
CCND1
PSMD8
TRDC
AC012617.1
AC024475.4
