0.09523809523809527
0.1914893617021276
0.04911955514365154
0.04423243712055507
0.10236220472440943
0.04911955514365154
0.2830188679245281
0.04911955514365154
0.05785123966942148
0.1914893617021276
0.06122448979591838
0.06122448979591838
0.08885754583921016
0.029675638371290544
0.04423243712055507
0.05785123966942148
0.21533923303834804
0.1914893617021276
0.05472636815920398
0.08310991957104558
0.14168377823408632
0.06122448979591838
0.15555555555555556
0.06122448979591838
0.21533923303834804
0.07790549169859513
0.03797468354430379
0.06487695749440714
0.21533923303834804
0.021077283372365346
0.17191283292978196
0.03272727272727273
0.051823416506717866
0.036126056879323604
0.24503311258278151
0.11942959001782533
0.04911955514365154
0.05472636815920398
0.4031413612565445
0.12977099236641218
0.04201680672268908
0.10236220472440943
0.09523809523809527
0.031161473087818706
0.15555555555555556
0.036126056879323604
0.039934800325998374
0.06884480746791133
0.14168377823408632
0.05785123966942148
0.051823416506717866
0.04659498207885305
0.11942959001782533
0.0731707317073171
0.03272727272727273
0.09523809523809527
0.09523809523809527
0.05785123966942148
0.04911955514365154
0.06122448979591838
0.05472636815920398
0.11036789297658862
0.02692055154300722
0.17191283292978196
0.06884480746791133
0.03272727272727273
0.03272727272727273
0.06487695749440714
0.1914893617021276
0.07790549169859513
0.1914893617021276
0.01637612255678817
0.03797468354430379
0.06122448979591838
0.11036789297658862
0.03272727272727273
0.03437967115097159
0.0731707317073171
0.11036789297658862
0.14168377823408632
0.039934800325998374
0.04423243712055507
0.0731707317073171
0.09523809523809527
0.04423243712055507
0.04911955514365154
0.03437967115097159
0.024420788979336257
0.05785123966942148
0.03272727272727273
0.12977099236641218
0.2830188679245281
0.10236220472440943
0.015544041450777207
0.2830188679245281
0.04659498207885305
0.33333333333333315
0.08885754583921016
0.06122448979591838
0.019079685746352413
0.05785123966942148
0.14168377823408632
0.06122448979591838
0.04659498207885305
0.11942959001782533
0.06884480746791133
0.039934800325998374
0.14168377823408632
0.09523809523809527
0.022142429682824656
0.15555555555555556
0.17191283292978196
0.17191283292978196
0.029675638371290544
0.036126056879323604
0.08310991957104558
0.039934800325998374
0.5064935064935057
0.04201680672268908
0.0731707317073171
0.04911955514365154
0.09523809523809527
0.07790549169859513
0.0731707317073171
0.031161473087818706
0.10236220472440943
0.10236220472440943
0.06884480746791133
0.21533923303834804
0.05472636815920398
0.12977099236641218
0.031161473087818706
0.03272727272727273
0.11036789297658862
0.06487695749440714
0.33333333333333315
0.14168377823408632
0.04911955514365154
0.03437967115097159
0.05785123966942148
0.051823416506717866
0.11942959001782533
0.036126056879323604
0.03272727272727273
0.07790549169859513
0.039934800325998374
0.05472636815920398
0.17191283292978196
0.036126056879323604
0.04201680672268908
0.02692055154300722
0.08310991957104558
0.04659498207885305
0.08885754583921016
0.12977099236641218
0.1914893617021276
0.031161473087818706
0.2830188679245281
0.06884480746791133
0.10236220472440943
0.03272727272727273
0.11942959001782533
0.11942959001782533
0.029675638371290544
0.022142429682824656
0.12977099236641218
0.07790549169859513
0.031161473087818706
0.05785123966942148
0.21533923303834804
0.06122448979591838
0.031161473087818706
0.06487695749440714
0.022142429682824656
0.051823416506717866
0.04911955514365154
0.12977099236641218
0.17191283292978196
0.015544041450777207
0.03437967115097159
0.10236220472440943
0.05785123966942148
0.11942959001782533
0.03437967115097159
0.02692055154300722
0.07790549169859513
0.04423243712055507
0.01724137931034483
0.03797468354430379
0.036126056879323604
0.06122448979591838
0.04423243712055507
0.02692055154300722
0.05785123966942148
0.036126056879323604
0.05785123966942148
0.21533923303834804
0.05472636815920398
0.1914893617021276
0.051823416506717866
0.11942959001782533
0.021077283372365346
0.021077283372365346
0.08310991957104558
0.06487695749440714
0.01724137931034483
0.04659498207885305
0.03797468354430379
0.10236220472440943
0.1914893617021276
0.09523809523809527
0.06122448979591838
0.05472636815920398
0.2830188679245281
0.0731707317073171
0.03272727272727273
0.12977099236641218
0.039934800325998374
0.051823416506717866
0.12977099236641218
0.04911955514365154
0.07790549169859513
0.33333333333333315
0.15555555555555556
0.06487695749440714
0.024420788979336257
0.03797468354430379
0.025641025641025644
0.21533923303834804
0.21533923303834804
0.03272727272727273
0.04423243712055507
0.08885754583921016
0.03797468354430379
0.036126056879323604
0.05472636815920398
0.33333333333333315
0.21533923303834804
0.2830188679245281
0.12977099236641218
0.05472636815920398
0.022142429682824656
0.2830188679245281
0.02692055154300722
0.051823416506717866
0.08885754583921016
0.022142429682824656
0.05472636815920398
0.10236220472440943
0.05785123966942148
0.06884480746791133
0.14168377823408632
0.04201680672268908
0.11942959001782533
0.11036789297658862
0.0731707317073171
0.051823416506717866
0.039934800325998374
0.1914893617021276
0.051823416506717866
0.17191283292978196
0.08885754583921016
0.029675638371290544
0.05472636815920398
0.09523809523809527
0.05785123966942148
0.04201680672268908
0.03272727272727273
0.03437967115097159
0.10236220472440943
0.08310991957104558
0.07790549169859513
0.15555555555555556
0.05785123966942148
0.05785123966942148
0.051823416506717866
0.0731707317073171
0.04659498207885305
0.0731707317073171
0.21533923303834804
0.11036789297658862
0.08310991957104558
0.06487695749440714
0.1914893617021276
0.09523809523809527
0.05472636815920398
0.028263795423956937
0.06487695749440714
0.03797468354430379
0.0731707317073171
0.04911955514365154
0.03437967115097159
0.0731707317073171
0.21533923303834804
0.05785123966942148
0.09523809523809527
0.17191283292978196
0.06487695749440714
0.039934800325998374
0.24503311258278151
0.036126056879323604
0.21533923303834804
0.03437967115097159
0.0731707317073171
0.11036789297658862
0.0731707317073171
0.04659498207885305
0.021077283372365346
0.21533923303834804
0.08310991957104558
0.04659498207885305
0.0731707317073171
0.036126056879323604
0.06884480746791133
0.17191283292978196
0.11942959001782533
0.0731707317073171
0.05472636815920398
0.04659498207885305
0.4031413612565445
0.04911955514365154
0.10236220472440943
0.051823416506717866
0.17191283292978196
0.11942959001782533
0.06122448979591838
0.2830188679245281
0.04659498207885305
0.15555555555555556
0.0731707317073171
0.11036789297658862
0.12977099236641218
0.02005730659025788
0.11036789297658862
0.33333333333333315
0.05785123966942148
0.04911955514365154
0.04659498207885305
0.0731707317073171
0.04201680672268908
0.02692055154300722
0.039934800325998374
0.14168377823408632
0.025641025641025644
0.04911955514365154
0.04659498207885305
0.04911955514365154
0.06884480746791133
0.04911955514365154
0.06487695749440714
0.04659498207885305
0.031161473087818706
0.04911955514365154
0.04201680672268908
0.12977099236641218
0.09523809523809527
0.24503311258278151
0.036126056879323604
0.08310991957104558
0.04911955514365154
0.029675638371290544
0.06884480746791133
0.0731707317073171
0.10236220472440943
0.21533923303834804
0.03797468354430379
0.07790549169859513
0.022142429682824656
0.09523809523809527
0.02005730659025788
0.06884480746791133
0.03437967115097159
0.06122448979591838
0.15555555555555556
0.15555555555555556
0.039934800325998374
0.04659498207885305
0.05472636815920398
0.06884480746791133
0.036126056879323604
0.11036789297658862
0.03797468354430379
0.029675638371290544
0.1914893617021276
0.05472636815920398
0.031161473087818706
0.04659498207885305
0.036126056879323604
0.21533923303834804
0.036126056879323604
0.2830188679245281
0.04911955514365154
0.0731707317073171
0.06122448979591838
0.05472636815920398
0.12977099236641218
0.021077283372365346
0.1914893617021276
0.12977099236641218
0.33333333333333315
0.04201680672268908
0.06884480746791133
0.039934800325998374
0.05785123966942148
0.10236220472440943
0.2830188679245281
0.11942959001782533
0.036126056879323604
0.051823416506717866
0.04659498207885305
0.0731707317073171
0.0731707317073171
0.10236220472440943
0.06122448979591838
0.07790549169859513
0.21533923303834804
0.08885754583921016
0.11036789297658862
0.024420788979336257
0.031161473087818706
0.04201680672268908
0.17191283292978196
0.04911955514365154
0.039934800325998374
0.11942959001782533
0.11036789297658862
0.06487695749440714
0.04423243712055507
0.17191283292978196
0.2830188679245281
0.10236220472440943
0.04659498207885305
0.07790549169859513
0.10236220472440943
0.031161473087818706
0.07790549169859513
0.08310991957104558
0.21533923303834804
0.028263795423956937
0.07790549169859513
0.06487695749440714
0.06884480746791133
0.06884480746791133
0.08310991957104558
0.11942959001782533
0.03437967115097159
0.17191283292978196
0.04911955514365154
0.06884480746791133
0.06487695749440714
0.15555555555555556
0.17191283292978196
0.1914893617021276
0.11036789297658862
0.11942959001782533
0.08885754583921016
0.08885754583921016
0.07790549169859513
0.06122448979591838
0.05785123966942148
0.09523809523809527
0.05472636815920398
0.05472636815920398
0.04201680672268908
0.0731707317073171
0.05785123966942148
0.08310991957104558
0.022142429682824656
0.07790549169859513
0.04423243712055507
0.17191283292978196
0.06487695749440714
0.05785123966942148
0.03797468354430379
0.11036789297658862
0.08310991957104558
0.14168377823408632
0.08310991957104558
0.11036789297658862
0.14168377823408632
0.05785123966942148
0.024420788979336257
0.33333333333333315
0.021077283372365346
0.09523809523809527
0.09523809523809527
0.08885754583921016
0.05472636815920398
0.04423243712055507
0.17191283292978196
0.036126056879323604
0.024420788979336257
0.025641025641025644
0.04423243712055507
0.031161473087818706
0.06487695749440714
0.06487695749440714
0.025641025641025644
0.15555555555555556
0.04659498207885305
0.0731707317073171
0.09523809523809527
0.0731707317073171
0.24503311258278151
0.06122448979591838
0.11036789297658862
0.036126056879323604
0.028263795423956937
0.24503311258278151
0.09523809523809527
0.06487695749440714
0.03797468354430379
0.11942959001782533
0.07790549169859513
0.0731707317073171
0.11942959001782533
0.06122448979591838
0.1914893617021276
0.11942959001782533
0.14168377823408632
0.1914893617021276
0.1914893617021276
0.07790549169859513
0.1914893617021276
0.21533923303834804
0.06122448979591838
0.03797468354430379
0.07790549169859513
0.023255813953488372
0.051823416506717866
0.018141836173721827
0.06487695749440714
0.039934800325998374
0.1914893617021276
0.04659498207885305
0.2830188679245281
0.24503311258278151
0.06122448979591838
0.036126056879323604
0.02692055154300722
0.5064935064935057
0.21533923303834804
0.03797468354430379
0.04659498207885305
0.11942959001782533
0.08885754583921016
0.039934800325998374
0.04911955514365154
0.06884480746791133
0.21533923303834804
0.17191283292978196
0.11036789297658862
0.4031413612565445
0.0731707317073171
0.1914893617021276
0.21533923303834804
0.04201680672268908
0.06487695749440714
0.036126056879323604
0.5064935064935057
0.06884480746791133
0.05472636815920398
0.025641025641025644
0.03797468354430379
0.02692055154300722
0.2830188679245281
0.04911955514365154
0.07790549169859513
0.06122448979591838
0.051823416506717866
0.14168377823408632
0.05785123966942148
0.028263795423956937
0.07790549169859513
0.03272727272727273
0.15555555555555556
0.04659498207885305
0.09523809523809527
0.06122448979591838
0.04911955514365154
0.08885754583921016
0.11036789297658862
0.03272727272727273
0.05472636815920398
0.21533923303834804
0.4031413612565445
0.06884480746791133
0.21533923303834804
0.08310991957104558
0.08310991957104558
0.06487695749440714
0.14168377823408632
0.06884480746791133
0.0731707317073171
0.05785123966942148
0.039934800325998374
0.05472636815920398
0.024420788979336257
0.09523809523809527
0.024420788979336257
0.4031413612565445
0.08885754583921016
0.051823416506717866
0.02005730659025788
0.04423243712055507
0.022142429682824656
0.05785123966942148
0.08885754583921016
0.04423243712055507
0.21533923303834804
0.051823416506717866
0.051823416506717866
0.11036789297658862
0.03272727272727273
0.04659498207885305
0.12977099236641218
0.06122448979591838
0.21533923303834804
0.09523809523809527
0.04911955514365154
0.07790549169859513
0.10236220472440943
0.024420788979336257
0.04659498207885305
0.08310991957104558
0.14168377823408632
0.03797468354430379
0.07790549169859513
0.06122448979591838
0.07790549169859513
0.03797468354430379
0.04911955514365154
0.031161473087818706
0.05785123966942148
0.11036789297658862
0.051823416506717866
0.04911955514365154
0.12977099236641218
0.06884480746791133
0.04201680672268908
0.05472636815920398
0.04423243712055507
0.10236220472440943
0.07790549169859513
0.02692055154300722
0.06487695749440714
0.06122448979591838
0.029675638371290544
0.04659498207885305
0.028263795423956937
0.06487695749440714
0.2830188679245281
0.14168377823408632
0.04201680672268908
0.03272727272727273
0.08310991957104558
0.14168377823408632
0.05785123966942148
0.09523809523809527
0.03437967115097159
0.031161473087818706
0.01724137931034483
0.09523809523809527
0.08885754583921016
0.04201680672268908
0.03797468354430379
0.10236220472440943
0.07790549169859513
0.33333333333333315
0.0731707317073171
0.04201680672268908
0.03437967115097159
0.24503311258278151
0.06487695749440714
0.24503311258278151
0.03437967115097159
0.08310991957104558
0.07790549169859513
0.02692055154300722
0.029675638371290544
0.07790549169859513
0.06487695749440714
0.05472636815920398
0.05785123966942148
0.06122448979591838
0.036126056879323604
0.04201680672268908
0.2830188679245281
0.028263795423956937
0.21533923303834804
0.33333333333333315
0.04911955514365154
0.33333333333333315
0.0731707317073171
0.05472636815920398
0.031161473087818706
0.023255813953488372
0.05472636815920398
0.0731707317073171
0.06884480746791133
0.09523809523809527
0.06884480746791133
0.08885754583921016
0.21533923303834804
0.04201680672268908
0.04423243712055507
0.11036789297658862
0.11036789297658862
0.019079685746352413
0.07790549169859513
0.03272727272727273
0.06487695749440714
0.039934800325998374
0.21533923303834804
0.2830188679245281
0.039934800325998374
0.15555555555555556
0.06884480746791133
0.09523809523809527
0.04659498207885305
0.08310991957104558
0.03272727272727273
0.07790549169859513
0.06884480746791133
0.02692055154300722
0.11942959001782533
0.05785123966942148
0.04201680672268908
0.08885754583921016
0.04201680672268908
0.17191283292978196
0.10236220472440943
0.036126056879323604
0.14168377823408632
0.06122448979591838
0.028263795423956937
0.02692055154300722
0.08885754583921016
0.07790549169859513
0.08310991957104558
0.06487695749440714
0.03437967115097159
0.06122448979591838
0.04659498207885305
0.05472636815920398
0.03797468354430379
0.04423243712055507
0.04659498207885305
0.04659498207885305
0.17191283292978196
0.06122448979591838
0.06884480746791133
0.17191283292978196
0.04201680672268908
0.11942959001782533
0.05472636815920398
0.10236220472440943
0.21533923303834804
0.21533923303834804
0.11036789297658862
0.1914893617021276
0.10236220472440943
0.051823416506717866
0.05785123966942148
0.11942959001782533
0.03797468354430379
0.023255813953488372
0.10236220472440943
0.028263795423956937
0.11942959001782533
0.05472636815920398
0.08310991957104558
0.051823416506717866
0.04201680672268908
0.051823416506717866
0.021077283372365346
0.08310991957104558
0.11036789297658862
0.15555555555555556
0.051823416506717866
0.11036789297658862
0.018141836173721827
0.24503311258278151
0.05472636815920398
0.06884480746791133
0.022142429682824656
0.0731707317073171
0.2830188679245281
0.05472636815920398
0.03797468354430379
0.07790549169859513
0.07790549169859513
0.06487695749440714
0.33333333333333315
0.036126056879323604
0.17191283292978196
0.023255813953488372
0.0731707317073171
0.09523809523809527
0.018141836173721827
0.1914893617021276
0.0731707317073171
0.12977099236641218
0.04423243712055507
0.11036789297658862
0.06884480746791133
0.036126056879323604
0.05785123966942148
0.0731707317073171
0.08310991957104558
0.08885754583921016
0.06122448979591838
0.051823416506717866
0.04911955514365154
0.14168377823408632
0.08310991957104558
0.051823416506717866
0.031161473087818706
0.15555555555555556
0.036126056879323604
0.025641025641025644
0.11036789297658862
0.06884480746791133
0.05472636815920398
0.10236220472440943
0.039934800325998374
0.0731707317073171
0.06122448979591838
0.03437967115097159
0.17191283292978196
0.03437967115097159
0.04659498207885305
0.02692055154300722
0.024420788979336257
0.036126056879323604
0.2830188679245281
0.0731707317073171
0.025641025641025644
0.08310991957104558
0.08885754583921016
0.10236220472440943
0.10236220472440943
0.04201680672268908
0.14168377823408632
0.14168377823408632
0.031161473087818706
0.11036789297658862
0.12977099236641218
0.06884480746791133
0.08885754583921016
0.04423243712055507
0.03797468354430379
0.03797468354430379
0.06884480746791133
0.05785123966942148
0.12977099236641218
0.04423243712055507
0.04911955514365154
0.12977099236641218
0.02005730659025788
0.2830188679245281
0.09523809523809527
0.05472636815920398
0.04201680672268908
0.06487695749440714
0.039934800325998374
0.01637612255678817
0.03797468354430379
0.08885754583921016
0.06884480746791133
0.051823416506717866
0.17191283292978196
0.1914893617021276
0.028263795423956937
0.036126056879323604
0.02692055154300722
0.10236220472440943
0.03437967115097159
0.08885754583921016
0.24503311258278151
0.028263795423956937
0.09523809523809527
0.04911955514365154
0.039934800325998374
0.1914893617021276
0.0731707317073171
0.06487695749440714
0.029675638371290544
0.14168377823408632
0.21533923303834804
0.21533923303834804
0.21533923303834804
0.10236220472440943
0.06487695749440714
0.04201680672268908
0.029675638371290544
0.11942959001782533
0.05472636815920398
0.04659498207885305
0.04911955514365154
0.04423243712055507
0.08310991957104558
0.08310991957104558
0.09523809523809527
0.04911955514365154
0.05472636815920398
0.0731707317073171
0.33333333333333315
0.04201680672268908
0.1914893617021276
0.06122448979591838
0.10236220472440943
0.051823416506717866
0.12977099236641218
0.039934800325998374
0.08885754583921016
0.031161473087818706
0.1914893617021276
0.039934800325998374
0.036126056879323604
0.0731707317073171
0.04423243712055507
0.03272727272727273
0.039934800325998374
0.04201680672268908
0.11036789297658862
0.07790549169859513
0.03272727272727273
0.05472636815920398
0.11036789297658862
0.10236220472440943
0.08310991957104558
0.051823416506717866
0.06122448979591838
0.021077283372365346
0.028263795423956937
0.039934800325998374
0.039934800325998374
0.04911955514365154
0.036126056879323604
0.04659498207885305
0.09523809523809527
0.031161473087818706
0.06884480746791133
0.5064935064935057
0.06122448979591838
0.04423243712055507
0.0731707317073171
0.15555555555555556
0.03797468354430379
0.05785123966942148
0.05785123966942148
0.04911955514365154
0.03437967115097159
0.05785123966942148
0.24503311258278151
0.07790549169859513
0.031161473087818706
0.08885754583921016
0.15555555555555556
0.05785123966942148
0.029675638371290544
0.04423243712055507
0.07790549169859513
0.33333333333333315
0.14168377823408632
0.04423243712055507
0.06884480746791133
0.11942959001782533
0.11036789297658862
0.09523809523809527
0.12977099236641218
0.031161473087818706
0.03797468354430379
0.33333333333333315
0.12977099236641218
0.5064935064935057
0.21533923303834804
0.08885754583921016
0.051823416506717866
0.019079685746352413
0.09523809523809527
0.021077283372365346
0.03797468354430379
0.4031413612565445
0.08885754583921016
0.11036789297658862
0.14168377823408632
0.15555555555555556
0.14168377823408632
0.06487695749440714
0.031161473087818706
0.021077283372365346
0.06122448979591838
0.06884480746791133
0.04659498207885305
0.4031413612565445
0.1914893617021276
0.05785123966942148
0.06122448979591838
0.05472636815920398
0.2830188679245281
0.01724137931034483
0.03272727272727273
0.05472636815920398
0.04201680672268908
0.11942959001782533
0.05472636815920398
0.06884480746791133
0.09523809523809527
0.05472636815920398
0.03272727272727273
0.0731707317073171
0.07790549169859513
0.05785123966942148
0.14168377823408632
0.06487695749440714
0.0731707317073171
0.05472636815920398
0.06884480746791133
0.1914893617021276
0.12977099236641218
0.17191283292978196
0.06122448979591838
0.04659498207885305
0.03272727272727273
0.04423243712055507
0.06122448979591838
0.09523809523809527
0.08310991957104558
0.04911955514365154
0.06884480746791133
0.1914893617021276
0.05785123966942148
0.05785123966942148
0.0731707317073171
0.06122448979591838
0.1914893617021276
0.051823416506717866
0.03797468354430379
0.03437967115097159
0.08310991957104558
0.1914893617021276
0.14168377823408632
0.21533923303834804
0.07790549169859513
0.03272727272727273
0.04201680672268908
0.03797468354430379
0.06122448979591838
0.1914893617021276
0.039934800325998374
0.0731707317073171
0.1914893617021276
0.06122448979591838
0.039934800325998374
0.14168377823408632
0.031161473087818706
0.03797468354430379
0.05785123966942148
0.039934800325998374
0.06487695749440714
0.04659498207885305
0.03797468354430379
0.07790549169859513
0.15555555555555556
0.07790549169859513
0.06487695749440714
0.04911955514365154
0.01637612255678817
0.04911955514365154
0.04911955514365154
0.07790549169859513
0.17191283292978196
0.09523809523809527
0.04911955514365154
0.07790549169859513
0.11036789297658862
0.08885754583921016
0.4031413612565445
0.02005730659025788
0.051823416506717866
0.10236220472440943
0.04911955514365154
0.08310991957104558
0.14168377823408632
0.14168377823408632
0.06487695749440714
0.06122448979591838
0.06122448979591838
0.051823416506717866
0.06487695749440714
0.09523809523809527
0.05785123966942148
0.04659498207885305
0.06884480746791133
0.05472636815920398
0.036126056879323604
0.06122448979591838
0.09523809523809527
0.14168377823408632
0.14168377823408632
0.10236220472440943
0.14168377823408632
0.031161473087818706
0.051823416506717866
0.031161473087818706
0.2830188679245281
0.029675638371290544
0.06487695749440714
0.1914893617021276
0.06122448979591838
0.06884480746791133
0.039934800325998374
0.03797468354430379
0.15555555555555556
0.07790549169859513
0.04201680672268908
0.029675638371290544
0.04911955514365154
0.08885754583921016
0.1914893617021276
0.06487695749440714
0.02005730659025788
0.051823416506717866
0.06122448979591838
0.04659498207885305
0.08310991957104558
0.039934800325998374
0.6752136752136763
0.09523809523809527
0.01637612255678817
0.051823416506717866
0.06884480746791133
0.06487695749440714
0.11942959001782533
0.11942959001782533
0.11942959001782533
0.023255813953488372
0.06122448979591838
0.029675638371290544
0.06487695749440714
0.05785123966942148
0.33333333333333315
0.03437967115097159
0.04201680672268908
0.10236220472440943
0.03437967115097159
0.04423243712055507
0.05472636815920398
0.039934800325998374
0.06122448979591838
0.05785123966942148
0.051823416506717866
0.07790549169859513
0.12977099236641218
0.11036789297658862
0.04659498207885305
0.031161473087818706
0.06884480746791133
0.04423243712055507
0.0731707317073171
0.04423243712055507
0.06122448979591838
0.013228809407153359
0.04201680672268908
0.2830188679245281
0.036126056879323604
0.10236220472440943
0.025641025641025644
0.17191283292978196
0.051823416506717866
0.05785123966942148
0.036126056879323604
0.06487695749440714
0.10236220472440943
0.06122448979591838
0.05472636815920398
0.019079685746352413
0.06122448979591838
0.028263795423956937
0.0731707317073171
0.17191283292978196
0.022142429682824656
0.04659498207885305
0.04659498207885305
0.24503311258278151
0.05472636815920398
0.21533923303834804
0.08885754583921016
0.02005730659025788
0.02692055154300722
0.12977099236641218
0.08885754583921016
0.051823416506717866
0.039934800325998374
0.04201680672268908
0.24503311258278151
0.08310991957104558
0.10236220472440943
0.04659498207885305
0.2830188679245281
0.07790549169859513
0.06487695749440714
0.028263795423956937
0.0731707317073171
0.015544041450777207
0.0731707317073171
0.21533923303834804
0.04911955514365154
0.0731707317073171
0.06487695749440714
0.036126056879323604
0.09523809523809527
0.06884480746791133
0.08310991957104558
0.028263795423956937
0.06487695749440714
0.14168377823408632
0.06122448979591838
0.0731707317073171
0.04911955514365154
0.06487695749440714
0.05472636815920398
0.24503311258278151
0.05785123966942148
0.06487695749440714
0.2830188679245281
0.04659498207885305
0.06122448979591838
0.031161473087818706
0.05472636815920398
0.05472636815920398
0.05472636815920398
0.10236220472440943
0.04201680672268908
0.04201680672268908
0.023255813953488372
0.15555555555555556
0.05785123966942148
0.03272727272727273
0.11036789297658862
0.14168377823408632
0.06487695749440714
0.06884480746791133
0.03272727272727273
0.05785123966942148
0.17191283292978196
0.04659498207885305
0.03437967115097159
0.05472636815920398
0.08885754583921016
0.11036789297658862
0.015544041450777207
0.12977099236641218
0.01724137931034483
0.15555555555555556
0.022142429682824656
0.17191283292978196
0.04659498207885305
0.04659498207885305
0.11942959001782533
0.05785123966942148
0.02692055154300722
0.036126056879323604
0.06487695749440714
0.02005730659025788
0.15555555555555556
0.04659498207885305
0.021077283372365346
0.12977099236641218
0.06487695749440714
0.11942959001782533
0.0731707317073171
0.04911955514365154
0.07790549169859513
0.028263795423956937
0.051823416506717866
0.08885754583921016
0.2830188679245281
0.02692055154300722
0.06884480746791133
0.031161473087818706
0.14168377823408632
0.24503311258278151
0.07790549169859513
0.05785123966942148
0.11036789297658862
0.06487695749440714
0.10236220472440943
0.039934800325998374
0.12977099236641218
0.17191283292978196
0.03797468354430379
0.09523809523809527
0.031161473087818706
0.14168377823408632
0.05472636815920398
0.06122448979591838
0.12977099236641218
0.04423243712055507
0.02692055154300722
0.04423243712055507
0.0731707317073171
0.07790549169859513
0.04659498207885305
0.036126056879323604
0.05785123966942148
0.03797468354430379
0.03437967115097159
0.028263795423956937
0.021077283372365346
0.06122448979591838
0.15555555555555556
0.05785123966942148
0.04201680672268908
0.08310991957104558
0.051823416506717866
0.04911955514365154
0.06122448979591838
0.05472636815920398
0.06487695749440714
0.05785123966942148
0.11036789297658862
0.051823416506717866
0.06884480746791133
0.0731707317073171
0.06884480746791133
0.04201680672268908
0.15555555555555556
0.04423243712055507
0.04659498207885305
0.07790549169859513
0.05785123966942148
0.14168377823408632
0.15555555555555556
0.14168377823408632
0.0731707317073171
0.06884480746791133
0.08885754583921016
0.07790549169859513
0.023255813953488372
0.4031413612565445
0.09523809523809527
0.051823416506717866
0.21533923303834804
0.10236220472440943
0.05472636815920398
0.06884480746791133
0.14168377823408632
0.04423243712055507
0.08310991957104558
0.33333333333333315
0.07790549169859513
0.028263795423956937
0.0731707317073171
0.11942959001782533
0.036126056879323604
0.06884480746791133
0.04911955514365154
0.05472636815920398
0.036126056879323604
0.05472636815920398
0.06122448979591838
0.2830188679245281
0.11036789297658862
0.06884480746791133
0.4031413612565445
0.09523809523809527
0.21533923303834804
0.028263795423956937
0.06884480746791133
0.06884480746791133
0.05472636815920398
0.07790549169859513
0.06487695749440714
0.051823416506717866
0.0731707317073171
0.33333333333333315
0.05472636815920398
0.2830188679245281
0.03797468354430379
0.06884480746791133
0.031161473087818706
0.039934800325998374
0.09523809523809527
0.051823416506717866
0.0731707317073171
0.04911955514365154
0.05785123966942148
0.24503311258278151
0.039934800325998374
0.2830188679245281
0.02692055154300722
0.029675638371290544
0.05472636815920398
0.06487695749440714
0.10236220472440943
0.06122448979591838
0.029675638371290544
0.051823416506717866
0.021077283372365346
0.05472636815920398
0.06122448979591838
0.05785123966942148
0.06122448979591838
0.5064935064935057
0.031161473087818706
0.21533923303834804
0.0731707317073171
0.051823416506717866
0.10236220472440943
0.03437967115097159
0.04423243712055507
0.04911955514365154
0.0731707317073171
0.06122448979591838
0.0731707317073171
0.04659498207885305
0.031161473087818706
0.1914893617021276
0.03272727272727273
0.10236220472440943
0.06487695749440714
0.036126056879323604
0.05785123966942148
0.01724137931034483
0.04423243712055507
0.21533923303834804
0.24503311258278151
0.04423243712055507
0.019079685746352413
0.24503311258278151
0.11036789297658862
0.051823416506717866
0.11942959001782533
0.03437967115097159
0.08885754583921016
0.036126056879323604
0.09523809523809527
0.05472636815920398
0.10236220472440943
0.17191283292978196
0.09523809523809527
0.0731707317073171
0.05785123966942148
0.05785123966942148
0.023255813953488372
0.1914893617021276
0.06487695749440714
0.05472636815920398
0.029675638371290544
0.04659498207885305
0.036126056879323604
0.04659498207885305
0.06487695749440714
0.21533923303834804
0.03797468354430379
0.07790549169859513
0.06487695749440714
0.04911955514365154
0.11036789297658862
0.08310991957104558
0.09523809523809527
0.019079685746352413
0.11036789297658862
0.06122448979591838
0.17191283292978196
0.17191283292978196
0.07790549169859513
0.036126056879323604
0.15555555555555556
0.024420788979336257
0.02005730659025788
0.04201680672268908
0.10236220472440943
0.06487695749440714
0.06884480746791133
0.08310991957104558
0.09523809523809527
0.05472636815920398
0.039934800325998374
0.051823416506717866
0.051823416506717866
0.031161473087818706
0.06884480746791133
0.09523809523809527
0.15555555555555556
0.11036789297658862
0.05785123966942148
0.21533923303834804
0.06122448979591838
0.03272727272727273
0.08885754583921016
0.10236220472440943
0.21533923303834804
0.06487695749440714
0.2830188679245281
0.21533923303834804
0.04423243712055507
0.09523809523809527
0.06122448979591838
0.03437967115097159
0.04201680672268908
0.11942959001782533
0.0731707317073171
0.11036789297658862
0.09523809523809527
0.03437967115097159
0.036126056879323604
0.0731707317073171
0.05472636815920398
0.06122448979591838
0.024420788979336257
0.06487695749440714
0.2830188679245281
0.036126056879323604
0.11942959001782533
0.06487695749440714
0.036126056879323604
0.031161473087818706
0.05472636815920398
0.2830188679245281
0.05472636815920398
0.022142429682824656
0.04659498207885305
0.05472636815920398
0.025641025641025644
0.08310991957104558
0.04911955514365154
0.06487695749440714
0.04659498207885305
0.21533923303834804
0.03272727272727273
0.11036789297658862
0.031161473087818706
0.11942959001782533
0.04201680672268908
0.06122448979591838
0.03797468354430379
0.03437967115097159
0.04201680672268908
0.04201680672268908
0.039934800325998374
0.04659498207885305
0.07790549169859513
0.12977099236641218
0.14168377823408632
0.04201680672268908
0.10236220472440943
0.12977099236641218
0.039934800325998374
0.036126056879323604
0.05472636815920398
0.33333333333333315
0.04423243712055507
0.029675638371290544
0.14168377823408632
0.0731707317073171
0.12977099236641218
0.03437967115097159
0.04659498207885305
0.03797468354430379
0.04201680672268908
0.10236220472440943
0.06122448979591838
0.04911955514365154
0.04911955514365154
0.0731707317073171
0.04911955514365154
0.05472636815920398
0.01724137931034483
0.07790549169859513
0.10236220472440943
0.06487695749440714
0.07790549169859513
0.031161473087818706
0.08310991957104558
0.2830188679245281
0.02005730659025788
0.05785123966942148
0.17191283292978196
0.06884480746791133
0.021077283372365346
0.07790549169859513
0.051823416506717866
0.051823416506717866
0.029675638371290544
0.051823416506717866
0.08310991957104558
0.06122448979591838
0.022142429682824656
0.21533923303834804
0.08885754583921016
0.06884480746791133
0.14168377823408632
0.05472636815920398
0.06487695749440714
0.04911955514365154
0.10236220472440943
0.08310991957104558
0.4031413612565445
0.07790549169859513
0.10236220472440943
0.03437967115097159
0.06487695749440714
0.0731707317073171
0.03272727272727273
0.14168377823408632
0.029675638371290544
0.06487695749440714
0.09523809523809527
0.1914893617021276
0.08885754583921016
0.4031413612565445
0.33333333333333315
0.036126056879323604
0.021077283372365346
0.15555555555555556
0.06884480746791133
0.03272727272727273
0.06122448979591838
0.05785123966942148
0.05472636815920398
0.02692055154300722
0.05785123966942148
0.06884480746791133
0.0731707317073171
0.03272727272727273
0.05472636815920398
0.11036789297658862
0.10236220472440943
0.24503311258278151
0.11036789297658862
0.06884480746791133
0.11942959001782533
0.05785123966942148
0.0731707317073171
0.24503311258278151
0.031161473087818706
0.07790549169859513
0.06884480746791133
0.04911955514365154
0.11036789297658862
0.1914893617021276
0.10236220472440943
0.06487695749440714
0.04911955514365154
0.03797468354430379
0.06122448979591838
0.06884480746791133
0.06884480746791133
0.036126056879323604
0.039934800325998374
0.07790549169859513
0.24503311258278151
0.05472636815920398
0.039934800325998374
0.028263795423956937
0.21533923303834804
0.06122448979591838
0.0731707317073171
0.05785123966942148
0.09523809523809527
0.028263795423956937
0.031161473087818706
0.04659498207885305
0.04423243712055507
0.04659498207885305
0.06884480746791133
0.05472636815920398
0.06122448979591838
0.06487695749440714
0.06884480746791133
0.2830188679245281
0.0731707317073171
0.11942959001782533
0.04201680672268908
0.11036789297658862
0.06487695749440714
0.11036789297658862
0.10236220472440943
0.039934800325998374
0.051823416506717866
0.05785123966942148
0.07790549169859513
0.06122448979591838
0.15555555555555556
0.019079685746352413
0.06487695749440714
0.021077283372365346
0.04911955514365154
0.04201680672268908
0.06884480746791133
0.04423243712055507
0.24503311258278151
0.05472636815920398
0.05785123966942148
0.08310991957104558
0.022142429682824656
0.07790549169859513
0.05472636815920398
0.11036789297658862
0.03797468354430379
0.06122448979591838
0.02692055154300722
0.21533923303834804
0.0731707317073171
0.07790549169859513
0.028263795423956937
0.08885754583921016
0.03797468354430379
0.039934800325998374
0.04659498207885305
0.08310991957104558
0.029675638371290544
0.21533923303834804
0.06122448979591838
0.04911955514365154
0.0731707317073171
0.04659498207885305
0.06884480746791133
0.05785123966942148
0.03797468354430379
0.039934800325998374
0.06487695749440714
0.03272727272727273
0.039934800325998374
0.08885754583921016
0.06122448979591838
0.029675638371290544
0.025641025641025644
0.08885754583921016
0.031161473087818706
0.24503311258278151
0.33333333333333315
0.10236220472440943
0.15555555555555556
0.024420788979336257
0.021077283372365346
0.2830188679245281
0.04911955514365154
0.11036789297658862
0.06487695749440714
0.08310991957104558
0.021077283372365346
0.04423243712055507
0.051823416506717866
0.04201680672268908
0.21533923303834804
0.08885754583921016
0.17191283292978196
0.04659498207885305
0.11036789297658862
0.06122448979591838
0.04911955514365154
0.028263795423956937
0.14168377823408632
0.03272727272727273
0.0731707317073171
0.03272727272727273
0.08310991957104558
0.08310991957104558
0.12977099236641218
0.051823416506717866
0.2830188679245281
0.04911955514365154
0.1914893617021276
0.08310991957104558
0.06122448979591838
0.07790549169859513
0.028263795423956937
0.11942959001782533
0.06884480746791133
0.03797468354430379
0.06884480746791133
0.07790549169859513
0.06122448979591838
0.07790549169859513
0.14168377823408632
0.08310991957104558
0.06122448979591838
0.03437967115097159
0.11942959001782533
0.02005730659025788
0.17191283292978196
0.03272727272727273
0.08310991957104558
0.06122448979591838
0.09523809523809527
0.06487695749440714
0.04201680672268908
0.07790549169859513
0.036126056879323604
0.04659498207885305
0.07790549169859513
0.06122448979591838
0.06884480746791133
0.025641025641025644
0.03797468354430379
0.03272727272727273
0.07790549169859513
0.09523809523809527
0.036126056879323604
0.11942959001782533
0.06122448979591838
0.036126056879323604
0.05785123966942148
0.07790549169859513
0.12977099236641218
0.08885754583921016
0.04659498207885305
0.019079685746352413
0.03437967115097159
0.08310991957104558
0.051823416506717866
0.0731707317073171
0.14168377823408632
0.14168377823408632
0.06884480746791133
0.06487695749440714
0.051823416506717866
0.08885754583921016
0.12977099236641218
0.21533923303834804
0.06487695749440714
0.08885754583921016
0.0731707317073171
0.05472636815920398
0.24503311258278151
0.021077283372365346
0.07790549169859513
0.17191283292978196
0.10236220472440943
0.15555555555555556
0.08310991957104558
0.04911955514365154
0.11942959001782533
0.06884480746791133
0.015544041450777207
0.06884480746791133
0.039934800325998374
0.04911955514365154
0.036126056879323604
0.04911955514365154
0.08885754583921016
0.0731707317073171
0.0731707317073171
0.04201680672268908
0.03437967115097159
0.05472636815920398
0.05785123966942148
0.019079685746352413
0.04423243712055507
0.08310991957104558
0.05472636815920398
0.05785123966942148
0.04659498207885305
0.05785123966942148
0.04201680672268908
0.11942959001782533
0.05472636815920398
0.15555555555555556
0.06884480746791133
0.022142429682824656
0.0731707317073171
0.03272727272727273
0.12977099236641218
0.08885754583921016
0.08885754583921016
0.17191283292978196
0.021077283372365346
0.05785123966942148
0.029675638371290544
0.0731707317073171
0.029675638371290544
0.06487695749440714
0.029675638371290544
0.04423243712055507
0.03272727272727273
0.05785123966942148
0.029675638371290544
0.05785123966942148
0.029675638371290544
0.06122448979591838
0.0731707317073171
0.33333333333333315
0.07790549169859513
0.0731707317073171
0.06487695749440714
0.05472636815920398
0.04911955514365154
0.5064935064935057
0.07790549169859513
0.11942959001782533
0.02692055154300722
0.06884480746791133
0.03797468354430379
0.05472636815920398
0.12977099236641218
0.0731707317073171
0.14168377823408632
0.12977099236641218
0.025641025641025644
0.06884480746791133
0.0731707317073171
0.04423243712055507
0.05785123966942148
0.04201680672268908
0.11942959001782533
0.025641025641025644
0.06487695749440714
0.05785123966942148
0.04423243712055507
0.06487695749440714
0.031161473087818706
0.05785123966942148
0.03797468354430379
0.029675638371290544
0.06884480746791133
0.06884480746791133
0.09523809523809527
0.12977099236641218
0.02692055154300722
0.0731707317073171
0.05472636815920398
0.17191283292978196
0.33333333333333315
0.03437967115097159
0.12977099236641218
0.2830188679245281
0.05785123966942148
0.029675638371290544
0.07790549169859513
0.039934800325998374
0.11036789297658862
0.06884480746791133
0.14168377823408632
0.10236220472440943
0.06884480746791133
0.029675638371290544
0.04659498207885305
0.08310991957104558
0.2830188679245281
0.029675638371290544
0.03437967115097159
0.022142429682824656
0.023255813953488372
0.05472636815920398
0.08885754583921016
0.07790549169859513
0.06487695749440714
0.09523809523809527
0.21533923303834804
0.0731707317073171
0.05785123966942148
0.1914893617021276
0.06487695749440714
0.05472636815920398
0.04911955514365154
0.06884480746791133
0.05785123966942148
0.04423243712055507
0.05472636815920398
0.03437967115097159
0.14168377823408632
0.08885754583921016
0.04911955514365154
0.10236220472440943
0.04201680672268908
0.04423243712055507
0.024420788979336257
0.12977099236641218
0.21533923303834804
0.06884480746791133
0.0731707317073171
0.07790549169859513
0.04911955514365154
0.019079685746352413
0.04911955514365154
0.051823416506717866
0.051823416506717866
0.11942959001782533
0.06122448979591838
0.036126056879323604
0.029675638371290544
0.031161473087818706
0.06884480746791133
0.17191283292978196
0.07790549169859513
0.04423243712055507
0.1914893617021276
0.06122448979591838
0.06122448979591838
0.021077283372365346
0.03437967115097159
0.07790549169859513
0.06122448979591838
0.04201680672268908
0.15555555555555556
0.11036789297658862
0.24503311258278151
0.036126056879323604
0.1914893617021276
0.03797468354430379
0.04201680672268908
0.0731707317073171
0.14168377823408632
0.029675638371290544
0.051823416506717866
0.14168377823408632
0.06884480746791133
0.15555555555555556
0.11036789297658862
0.039934800325998374
0.12977099236641218
0.14168377823408632
0.09523809523809527
0.09523809523809527
0.07790549169859513
0.04423243712055507
0.06884480746791133
0.04423243712055507
0.14168377823408632
0.024420788979336257
0.02692055154300722
0.15555555555555556
0.036126056879323604
0.09523809523809527
0.051823416506717866
0.04423243712055507
0.11942959001782533
0.08885754583921016
0.06122448979591838
0.021077283372365346
0.06884480746791133
0.06487695749440714
0.15555555555555556
0.04911955514365154
0.039934800325998374
0.09523809523809527
0.03797468354430379
0.04659498207885305
0.02005730659025788
0.06487695749440714
0.07790549169859513
0.21533923303834804
0.03797468354430379
0.022142429682824656
0.039934800325998374
0.02692055154300722
0.15555555555555556
0.11036789297658862
0.051823416506717866
0.07790549169859513
0.03797468354430379
0.06487695749440714
0.05472636815920398
0.06487695749440714
0.06884480746791133
0.08310991957104558
0.21533923303834804
0.08885754583921016
0.06884480746791133
0.06122448979591838
0.03437967115097159
0.05785123966942148
0.04423243712055507
0.06884480746791133
0.04423243712055507
0.17191283292978196
0.029675638371290544
0.051823416506717866
0.028263795423956937
0.0731707317073171
0.028263795423956937
0.029675638371290544
0.17191283292978196
0.04911955514365154
0.11036789297658862
0.21533923303834804
0.08310991957104558
0.03437967115097159
0.06122448979591838
0.05472636815920398
0.02692055154300722
0.21533923303834804
0.023255813953488372
0.05472636815920398
0.029675638371290544
0.051823416506717866
0.024420788979336257
0.09523809523809527
0.06487695749440714
0.08310991957104558
0.05472636815920398
0.14168377823408632
0.022142429682824656
0.09523809523809527
0.05785123966942148
0.08885754583921016
0.07790549169859513
0.06884480746791133
0.10236220472440943
0.029675638371290544
0.051823416506717866
0.04659498207885305
0.5064935064935057
0.03797468354430379
0.04423243712055507
0.05785123966942148
0.028263795423956937
0.051823416506717866
0.039934800325998374
0.14168377823408632
0.036126056879323604
0.05472636815920398
0.06122448979591838
0.24503311258278151
0.12977099236641218
0.24503311258278151
0.021077283372365346
0.08885754583921016
0.14168377823408632
0.029675638371290544
0.03797468354430379
0.04659498207885305
0.04659498207885305
0.029675638371290544
0.04911955514365154
0.06884480746791133
0.04911955514365154
0.04659498207885305
0.12977099236641218
0.11036789297658862
0.24503311258278151
0.17191283292978196
0.031161473087818706
0.03437967115097159
0.21533923303834804
0.08310991957104558
0.15555555555555556
0.039934800325998374
0.01637612255678817
0.0731707317073171
0.08885754583921016
0.21533923303834804
0.039934800325998374
0.039934800325998374
0.04911955514365154
0.06884480746791133
0.04659498207885305
0.0731707317073171
0.0731707317073171
0.04423243712055507
0.04201680672268908
0.02005730659025788
0.029675638371290544
0.17191283292978196
0.11036789297658862
0.02692055154300722
0.05472636815920398
0.025641025641025644
0.025641025641025644
0.04659498207885305
0.07790549169859513
0.06122448979591838
0.019079685746352413
0.03797468354430379
0.03272727272727273
0.051823416506717866
0.039934800325998374
0.018141836173721827
0.023255813953488372
0.08310991957104558
0.4031413612565445
0.06122448979591838
0.06487695749440714
0.06122448979591838
0.02005730659025788
0.05472636815920398
0.11036789297658862
0.06487695749440714
0.10236220472440943
0.08310991957104558
0.11942959001782533
0.028263795423956937
0.10236220472440943
0.05472636815920398
0.04423243712055507
0.03437967115097159
0.039934800325998374
0.05785123966942148
0.06884480746791133
0.0731707317073171
0.04659498207885305
0.08885754583921016
0.05785123966942148
0.024420788979336257
0.17191283292978196
0.1914893617021276
0.06884480746791133
0.05785123966942148
0.11942959001782533
0.2830188679245281
0.11942959001782533
0.0731707317073171
0.039934800325998374
0.08310991957104558
0.06487695749440714
0.09523809523809527
0.05472636815920398
0.05472636815920398
0.06884480746791133
0.021077283372365346
0.24503311258278151
0.05785123966942148
0.0731707317073171
0.039934800325998374
0.05472636815920398
0.039934800325998374
0.06122448979591838
0.06884480746791133
0.029675638371290544
0.06884480746791133
0.051823416506717866
0.03437967115097159
0.05472636815920398
0.12977099236641218
0.03272727272727273
0.03797468354430379
0.05785123966942148
0.04911955514365154
0.09523809523809527
0.08885754583921016
0.14168377823408632
0.0731707317073171
0.05472636815920398
0.03437967115097159
0.018141836173721827
0.06487695749440714
0.12977099236641218
0.11036789297658862
0.05472636815920398
0.051823416506717866
0.0731707317073171
0.06122448979591838
0.17191283292978196
0.06122448979591838
0.15555555555555556
0.04423243712055507
0.04911955514365154
0.06884480746791133
0.07790549169859513
0.11942959001782533
0.14168377823408632
0.21533923303834804
0.14168377823408632
0.036126056879323604
0.02692055154300722
0.04659498207885305
0.06487695749440714
0.06487695749440714
0.036126056879323604
0.06122448979591838
0.03272727272727273
0.031161473087818706
0.33333333333333315
0.023255813953488372
0.09523809523809527
0.039934800325998374
0.24503311258278151
0.08310991957104558
0.0731707317073171
0.03437967115097159
0.031161473087818706
0.06884480746791133
0.036126056879323604
0.03437967115097159
0.06122448979591838
0.08885754583921016
0.04423243712055507
0.06884480746791133
0.028263795423956937
0.03797468354430379
0.02692055154300722
0.029675638371290544
0.05785123966942148
0.051823416506717866
0.024420788979336257
0.09523809523809527
0.06884480746791133
0.06487695749440714
0.12977099236641218
0.11942959001782533
0.051823416506717866
0.1914893617021276
0.06122448979591838
0.04423243712055507
0.17191283292978196
0.0731707317073171
0.08885754583921016
0.06487695749440714
0.04911955514365154
0.036126056879323604
0.05785123966942148
0.0731707317073171
0.03437967115097159
0.06884480746791133
0.023255813953488372
0.04659498207885305
0.0731707317073171
0.04423243712055507
0.08310991957104558
0.04659498207885305
0.05785123966942148
0.024420788979336257
0.0731707317073171
0.08310991957104558
0.025641025641025644
0.04201680672268908
0.036126056879323604
0.05472636815920398
0.025641025641025644
0.12977099236641218
0.05472636815920398
0.08885754583921016
0.0731707317073171
0.33333333333333315
0.0731707317073171
0.04911955514365154
0.051823416506717866
0.051823416506717866
0.06884480746791133
0.08885754583921016
0.02692055154300722
0.05472636815920398
0.04659498207885305
0.12977099236641218
0.11036789297658862
0.17191283292978196
0.10236220472440943
0.024420788979336257
0.04423243712055507
0.0731707317073171
0.03797468354430379
0.0731707317073171
0.051823416506717866
0.2830188679245281
0.08310991957104558
0.05472636815920398
0.0731707317073171
0.12977099236641218
0.12977099236641218
0.08310991957104558
0.08885754583921016
0.08885754583921016
0.07790549169859513
0.02692055154300722
0.03437967115097159
0.07790549169859513
0.0731707317073171
0.06487695749440714
0.04423243712055507
0.10236220472440943
0.04659498207885305
0.03797468354430379
0.019079685746352413
0.0731707317073171
0.04423243712055507
0.06884480746791133
0.031161473087818706
0.08310991957104558
0.08310991957104558
0.024420788979336257
0.05472636815920398
0.21533923303834804
0.03272727272727273
0.06487695749440714
0.03272727272727273
0.031161473087818706
0.09523809523809527
0.24503311258278151
0.06122448979591838
0.06884480746791133
0.06487695749440714
0.06884480746791133
0.09523809523809527
0.051823416506717866
0.05472636815920398
0.036126056879323604
0.06487695749440714
0.08310991957104558
0.08885754583921016
0.03437967115097159
0.0731707317073171
0.14168377823408632
0.2830188679245281
0.029675638371290544
0.10236220472440943
0.24503311258278151
0.06122448979591838
0.08885754583921016
0.11942959001782533
0.08885754583921016
0.07790549169859513
0.029675638371290544
0.036126056879323604
0.03797468354430379
0.17191283292978196
0.6752136752136763
0.09523809523809527
0.051823416506717866
0.06122448979591838
0.1914893617021276
0.15555555555555556
0.08885754583921016
0.21533923303834804
0.21533923303834804
0.039934800325998374
0.04911955514365154
0.09523809523809527
0.33333333333333315
0.06884480746791133
0.022142429682824656
0.051823416506717866
0.24503311258278151
0.10236220472440943
0.051823416506717866
0.051823416506717866
0.06122448979591838
0.03797468354430379
0.03797468354430379
0.08310991957104558
0.05785123966942148
0.051823416506717866
0.023255813953488372
0.04911955514365154
0.021077283372365346
0.21533923303834804
0.051823416506717866
0.08310991957104558
0.24503311258278151
0.10236220472440943
0.08310991957104558
0.036126056879323604
0.06487695749440714
0.07790549169859513
0.07790549169859513
0.05472636815920398
0.039934800325998374
0.09523809523809527
0.33333333333333315
0.11036789297658862
0.07790549169859513
0.03797468354430379
0.04423243712055507
0.08310991957104558
0.031161473087818706
0.06122448979591838
0.051823416506717866
0.025641025641025644
0.019079685746352413
0.09523809523809527
0.051823416506717866
0.17191283292978196
0.1914893617021276
0.14168377823408632
0.06884480746791133
0.08310991957104558
0.036126056879323604
0.06487695749440714
0.4031413612565445
0.07790549169859513
0.05785123966942148
0.05785123966942148
0.0731707317073171
0.09523809523809527
0.03272727272727273
0.06122448979591838
0.023255813953488372
0.08885754583921016
0.051823416506717866
0.08885754583921016
0.04911955514365154
0.039934800325998374
0.14168377823408632
0.04911955514365154
0.11036789297658862
0.21533923303834804
0.08310991957104558
0.028263795423956937
0.06884480746791133
0.051823416506717866
0.05472636815920398
0.11942959001782533
0.07790549169859513
0.04423243712055507
0.06487695749440714
0.06487695749440714
0.11036789297658862
0.051823416506717866
0.025641025641025644
0.036126056879323604
0.11036789297658862
0.09523809523809527
0.06487695749440714
0.04659498207885305
0.21533923303834804
0.039934800325998374
0.06122448979591838
0.039934800325998374
0.03797468354430379
0.06487695749440714
0.023255813953488372
0.02005730659025788
0.06122448979591838
0.11036789297658862
0.12977099236641218
0.04911955514365154
0.08885754583921016
0.09523809523809527
0.07790549169859513
0.04201680672268908
0.17191283292978196
0.04911955514365154
0.17191283292978196
0.03437967115097159
0.05785123966942148
0.04659498207885305
0.06122448979591838
0.06122448979591838
0.029675638371290544
0.018141836173721827
0.06487695749440714
0.06122448979591838
0.03437967115097159
0.018141836173721827
0.05785123966942148
0.05472636815920398
0.04659498207885305
0.05472636815920398
0.11942959001782533
0.2830188679245281
0.04659498207885305
0.06487695749440714
0.1914893617021276
0.09523809523809527
0.03272727272727273
0.051823416506717866
0.10236220472440943
0.039934800325998374
0.05785123966942148
0.05785123966942148
0.05472636815920398
0.03272727272727273
0.014743263853584135
0.11036789297658862
0.11036789297658862
0.06884480746791133
0.04423243712055507
0.06884480746791133
0.05785123966942148
0.04423243712055507
0.05472636815920398
0.03272727272727273
0.04201680672268908
0.06884480746791133
0.039934800325998374
0.02692055154300722
0.05472636815920398
0.03437967115097159
0.01637612255678817
0.03437967115097159
0.15555555555555556
0.08310991957104558
0.03797468354430379
0.04423243712055507
0.04659498207885305
0.023255813953488372
0.08885754583921016
0.04201680672268908
0.019079685746352413
0.08310991957104558
0.21533923303834804
0.08885754583921016
0.025641025641025644
0.14168377823408632
0.06122448979591838
0.05785123966942148
0.02005730659025788
0.06884480746791133
0.07790549169859513
0.06122448979591838
0.05785123966942148
0.025641025641025644
0.04911955514365154
0.21533923303834804
0.051823416506717866
0.2830188679245281
0.15555555555555556
0.022142429682824656
0.04201680672268908
0.08885754583921016
0.06884480746791133
0.06487695749440714
0.2830188679245281
0.03272727272727273
0.2830188679245281
0.03437967115097159
0.06884480746791133
0.036126056879323604
0.031161473087818706
0.09523809523809527
0.05785123966942148
0.06122448979591838
0.12977099236641218
0.05472636815920398
0.06884480746791133
0.06884480746791133
0.06487695749440714
0.06122448979591838
0.05785123966942148
0.12977099236641218
0.03797468354430379
0.04659498207885305
0.03797468354430379
0.11036789297658862
0.07790549169859513
0.10236220472440943