0.04380242311276794
0.051975051975051964
0.14414414414414414
0.09379968203497614
0.09379968203497614
0.20120120120120114
0.06633906633906633
0.08108108108108107
0.11969111969111967
0.14414414414414414
0.0870870870870871
0.051975051975051964
0.06633906633906633
0.05855855855855858
0.04144144144144144
0.07078507078507078
0.15970515970515978
0.10135135135135138
0.09379968203497614
0.15970515970515978
0.08108108108108107
0.08108108108108107
0.20120120120120114
0.08108108108108107
0.09379968203497614
0.10990990990990991
0.06227967097532316
0.08108108108108107
0.0870870870870871
0.15970515970515978
0.04633204633204634
0.03521703521703521
0.04904904904904905
0.07078507078507078
0.20120120120120114
0.04144144144144144
0.06633906633906633
0.0870870870870871
0.10135135135135138
0.10135135135135138
0.09379968203497614
0.08108108108108107
0.2297297297297298
0.2664092664092664
0.09379968203497614
0.3837837837837838
0.06227967097532316
0.06633906633906633
0.04380242311276794
0.11969111969111967
0.1309771309771309
0.07567567567567568
0.06227967097532316
0.10135135135135138
0.07078507078507078
0.07567567567567568
0.07078507078507078
0.04380242311276794
0.10135135135135138
0.10135135135135138
0.06227967097532316
0.15970515970515978
0.06633906633906633
0.10135135135135138
0.08108108108108107
0.07567567567567568
0.11969111969111967
0.1309771309771309
0.08108108108108107
0.2664092664092664
0.2297297297297298
0.10990990990990991
0.07567567567567568
0.04904904904904905
0.11969111969111967
0.07078507078507078
0.04904904904904905
0.2297297297297298
0.07567567567567568
0.08108108108108107
0.2664092664092664
0.05855855855855858
0.2297297297297298
0.14414414414414414
0.05855855855855858
0.0870870870870871
0.04633204633204634
0.15970515970515978
0.05855855855855858
0.08108108108108107
0.08108108108108107
0.06633906633906633
0.05513513513513514
0.11969111969111967
0.0870870870870871
0.06227967097532316
0.06227967097532316
0.04144144144144144
0.10135135135135138
0.10135135135135138
0.0870870870870871
0.1309771309771309
0.1309771309771309
0.14414414414414414
0.05855855855855858
0.1309771309771309
0.08108108108108107
0.05513513513513514
0.10990990990990991
0.051975051975051964
0.11969111969111967
0.08108108108108107
0.06227967097532316
0.04904904904904905
0.2664092664092664
0.11969111969111967
0.10990990990990991
0.04380242311276794
0.025641025641025644
0.051975051975051964
0.05855855855855858
0.14414414414414414
0.15970515970515978
0.051975051975051964
0.0870870870870871
0.07567567567567568
0.09379968203497614
0.05855855855855858
0.10990990990990991
0.20120120120120114
0.15970515970515978
0.11969111969111967
0.051975051975051964
0.10990990990990991
0.0870870870870871
0.15970515970515978
0.06633906633906633
0.06633906633906633
0.06227967097532316
0.03521703521703521
0.08108108108108107
0.11969111969111967
0.1309771309771309
0.10135135135135138
0.07567567567567568
0.14414414414414414
0.1309771309771309
0.14414414414414414
0.03923278116826505
0.14414414414414414
0.20120120120120114
0.11969111969111967
0.10990990990990991
0.07567567567567568
0.09379968203497614
0.15970515970515978
0.20120120120120114
0.07078507078507078
0.06227967097532316
0.03716216216216217
0.07567567567567568
0.1783783783783784
0.14414414414414414
0.11969111969111967
0.10990990990990991
0.20120120120120114
0.1309771309771309
0.06227967097532316
0.031660231660231665
0.04904904904904905
0.1309771309771309
0.09379968203497614
0.07078507078507078
0.06227967097532316
0.051975051975051964
0.04633204633204634
0.10990990990990991
0.08108108108108107
0.06227967097532316
0.04904904904904905
0.20120120120120114
0.07078507078507078
0.07078507078507078
0.051975051975051964
0.11969111969111967
0.04380242311276794
0.05513513513513514
0.0870870870870871
0.07078507078507078
0.09379968203497614
0.04633204633204634
0.14414414414414414
0.06633906633906633
0.09379968203497614
0.09379968203497614
0.10135135135135138
0.20120120120120114
0.04633204633204634
0.05513513513513514
0.1783783783783784
0.10990990990990991
0.06227967097532316
0.07567567567567568
0.05855855855855858
0.20120120120120114
0.10990990990990991
0.05855855855855858
0.06633906633906633
0.09379968203497614
0.07567567567567568
0.04144144144144144
0.0870870870870871
0.08108108108108107
0.07078507078507078
0.06227967097532316
0.2297297297297298
0.0870870870870871
0.07078507078507078
0.07567567567567568
0.15970515970515978
0.14414414414414414
0.02848794740686632
0.04904904904904905
0.05855855855855858
0.1309771309771309
0.04144144144144144
0.11969111969111967
0.10990990990990991
0.05855855855855858
0.08108108108108107
0.10135135135135138
0.07078507078507078
0.10990990990990991
0.04904904904904905
0.09379968203497614
0.1783783783783784
0.06633906633906633
0.10135135135135138
0.10135135135135138
0.10135135135135138
0.05513513513513514
0.06633906633906633
0.05513513513513514
0.03521703521703521
0.04633204633204634
0.07078507078507078
0.14414414414414414
0.08108108108108107
0.06633906633906633
0.10135135135135138
0.08108108108108107
0.06227967097532316
0.05855855855855858
0.10135135135135138
0.06633906633906633
0.07567567567567568
0.05513513513513514
0.2297297297297298
0.10990990990990991
0.05513513513513514
0.10990990990990991
0.07078507078507078
0.05855855855855858
0.08108108108108107
0.11969111969111967
0.05855855855855858
0.03923278116826505
0.07567567567567568
0.06633906633906633
0.05513513513513514
0.06633906633906633
0.07078507078507078
0.08108108108108107
0.05513513513513514
0.0870870870870871
0.0870870870870871
0.05513513513513514
0.09379968203497614
0.09379968203497614
0.06227967097532316
0.15970515970515978
0.08108108108108107
0.10135135135135138
0.15970515970515978
0.10990990990990991
0.11969111969111967
0.15970515970515978
0.07567567567567568
0.09379968203497614
0.03923278116826505
0.0870870870870871
0.14414414414414414
0.08108108108108107
0.08108108108108107
0.07567567567567568
0.0870870870870871
0.05513513513513514
0.1309771309771309
0.05513513513513514
0.03716216216216217
0.0870870870870871
0.09379968203497614
0.11969111969111967
0.04380242311276794
0.08108108108108107
0.20120120120120114
0.1783783783783784
0.10135135135135138
0.10990990990990991
0.06633906633906633
0.06633906633906633
0.10990990990990991
0.05513513513513514
0.09379968203497614
0.05513513513513514
0.20120120120120114
0.08108108108108107
0.05855855855855858
0.10990990990990991
0.20120120120120114
0.1309771309771309
0.04904904904904905
0.07078507078507078
0.051975051975051964
0.1783783783783784
0.05855855855855858
0.05513513513513514
0.051975051975051964
0.04633204633204634
0.0870870870870871
0.10135135135135138
0.2297297297297298
0.10990990990990991
0.0870870870870871
0.2297297297297298
0.04144144144144144
0.05513513513513514
0.09379968203497614
0.05513513513513514
0.04904904904904905
0.06633906633906633
0.04904904904904905
0.10990990990990991
0.04144144144144144
0.05513513513513514
0.15970515970515978
0.10135135135135138
0.06227967097532316
0.09379968203497614
0.1309771309771309
0.15970515970515978
0.06227967097532316
0.31531531531531504
0.08108108108108107
0.06633906633906633
0.07078507078507078
0.0870870870870871
0.051975051975051964
0.11969111969111967
0.04144144144144144
0.11969111969111967
0.11969111969111967
0.0870870870870871
0.07567567567567568
0.10990990990990991
0.07567567567567568
0.10135135135135138
0.07567567567567568
0.04380242311276794
0.04633204633204634
0.07567567567567568
0.051975051975051964
0.10990990990990991
0.14414414414414414
0.06227967097532316
0.051975051975051964
0.10990990990990991
0.10135135135135138
0.10135135135135138
0.06633906633906633
0.10990990990990991
0.05513513513513514
0.15970515970515978
0.10990990990990991
0.051975051975051964
0.08108108108108107
0.07567567567567568
0.10990990990990991
0.2297297297297298
0.07567567567567568
0.10135135135135138
0.06633906633906633
0.1309771309771309
0.10135135135135138
0.2664092664092664
0.05513513513513514
0.05513513513513514
0.15970515970515978
0.051975051975051964
0.11969111969111967
0.11969111969111967
0.09379968203497614
0.05855855855855858
0.07078507078507078
0.04904904904904905
0.06633906633906633
0.06633906633906633
0.08108108108108107
0.06227967097532316
0.051975051975051964
0.09379968203497614
0.0870870870870871
0.1309771309771309
0.10135135135135138
0.04380242311276794
0.1783783783783784
0.06633906633906633
0.10135135135135138
0.10135135135135138
0.05855855855855858
0.3837837837837838
0.09379968203497614
0.03923278116826505
0.1309771309771309
0.0870870870870871
0.14414414414414414
0.09379968203497614
0.0870870870870871
0.06227967097532316
0.07078507078507078
0.05855855855855858
0.09379968203497614
0.20120120120120114
0.07078507078507078
0.06633906633906633
0.11969111969111967
0.1309771309771309
0.05513513513513514
0.05855855855855858
0.03923278116826505
0.08108108108108107
0.0870870870870871
0.08108108108108107
0.051975051975051964
0.20120120120120114
0.10990990990990991
0.09379968203497614
0.09379968203497614
0.0870870870870871
0.14414414414414414
0.03716216216216217
0.07078507078507078
0.20120120120120114
0.10990990990990991
0.1783783783783784
0.07078507078507078
0.1783783783783784
0.2297297297297298
0.0870870870870871
0.03923278116826505
0.051975051975051964
0.08108108108108107
0.11969111969111967
0.04380242311276794
0.2664092664092664
0.06227967097532316
0.10990990990990991
0.06633906633906633
0.10135135135135138
0.0870870870870871
0.04904904904904905
0.07078507078507078
0.0870870870870871
0.04633204633204634
0.11969111969111967
0.0870870870870871
0.09379968203497614
0.09379968203497614
0.051975051975051964
0.03923278116826505
0.1309771309771309
0.05855855855855858
0.11969111969111967
0.03716216216216217
0.04144144144144144
0.14414414414414414
0.08108108108108107
0.2297297297297298
0.04633204633204634
0.1783783783783784
0.05513513513513514
0.1783783783783784
0.05855855855855858
0.05513513513513514
0.04633204633204634
0.04380242311276794
0.06227967097532316
0.09379968203497614
0.15970515970515978
0.1309771309771309
0.08108108108108107
0.06633906633906633
0.07078507078507078
0.11969111969111967
0.07078507078507078
0.051975051975051964
0.10135135135135138
0.05513513513513514
0.07567567567567568
0.06633906633906633
0.07567567567567568
0.04633204633204634
0.06227967097532316
0.05513513513513514
0.05855855855855858
0.07078507078507078
0.05855855855855858
0.10135135135135138
0.05855855855855858
0.1309771309771309
0.05513513513513514
0.09379968203497614
0.05855855855855858
0.14414414414414414
0.09379968203497614
0.033386327503974564
0.09379968203497614
0.05855855855855858
0.0870870870870871
0.04633204633204634
0.09379968203497614
0.03923278116826505
0.0870870870870871
0.051975051975051964
0.06227967097532316
0.05855855855855858
0.0870870870870871
0.08108108108108107
0.04904904904904905
0.04144144144144144
0.07078507078507078
0.06633906633906633
0.11969111969111967
0.10135135135135138
0.10135135135135138
0.06633906633906633
0.10990990990990991
0.03521703521703521
0.14414414414414414
0.10135135135135138
0.05513513513513514
0.05513513513513514
0.05513513513513514
0.09379968203497614
0.10135135135135138
0.2664092664092664
0.07567567567567568
0.051975051975051964
0.04380242311276794
0.11969111969111967
0.07567567567567568
0.0870870870870871
0.08108108108108107
0.05855855855855858
0.0870870870870871
0.05513513513513514
0.1309771309771309
0.051975051975051964
0.09379968203497614
0.07567567567567568
0.09379968203497614
0.1783783783783784
0.051975051975051964
0.10990990990990991
0.051975051975051964
0.07567567567567568
0.05513513513513514
0.08108108108108107
0.04144144144144144
0.09379968203497614
0.07567567567567568
0.15970515970515978
0.05513513513513514
0.09379968203497614
0.08108108108108107
0.0870870870870871
0.07567567567567568
0.05513513513513514
0.09379968203497614
0.10990990990990991
0.05513513513513514
0.06633906633906633
0.06633906633906633
0.14414414414414414
0.10135135135135138
0.06633906633906633
0.06633906633906633
0.0870870870870871
0.05855855855855858
0.04380242311276794
0.11969111969111967
0.1309771309771309
0.07567567567567568
0.20120120120120114
0.14414414414414414
0.15970515970515978
0.0870870870870871
0.11969111969111967
0.14414414414414414
0.03923278116826505
0.20120120120120114
0.10990990990990991
0.03716216216216217
0.06633906633906633
0.03923278116826505
0.051975051975051964
0.08108108108108107
0.04633204633204634
0.07567567567567568
0.10135135135135138
0.05855855855855858
0.1783783783783784
0.2664092664092664
0.031660231660231665
0.05513513513513514
0.1309771309771309
0.07078507078507078
0.15970515970515978
0.09379968203497614
0.2664092664092664
0.05513513513513514
0.09379968203497614
0.06633906633906633
0.06227967097532316
0.03716216216216217
0.2664092664092664
0.15970515970515978
0.06633906633906633
0.10135135135135138
0.051975051975051964
0.10135135135135138
0.14414414414414414
0.09379968203497614
0.06227967097532316
0.10135135135135138
0.05855855855855858
0.051975051975051964
0.10990990990990991
0.04904904904904905
0.1783783783783784
0.04144144144144144
0.1309771309771309
0.07078507078507078
0.07078507078507078
0.06633906633906633
0.07078507078507078
0.06227967097532316
0.07078507078507078
0.05855855855855858
0.07567567567567568
0.07567567567567568
0.14414414414414414
0.06633906633906633
0.06227967097532316
0.09379968203497614
0.07567567567567568
0.03923278116826505
0.06633906633906633
0.10135135135135138
0.06633906633906633
0.4864864864864872
0.05855855855855858
0.06633906633906633
0.05855855855855858
0.04380242311276794
0.05513513513513514
0.05855855855855858
0.10990990990990991
0.10135135135135138
0.06227967097532316
0.07078507078507078
0.051975051975051964
0.04144144144144144
0.051975051975051964
0.08108108108108107
0.10990990990990991
0.14414414414414414
0.1309771309771309
0.1309771309771309
0.07078507078507078
0.10990990990990991
0.05855855855855858
0.11969111969111967
0.1309771309771309
0.08108108108108107
0.051975051975051964
0.08108108108108107
0.06633906633906633
0.0870870870870871
0.10990990990990991
0.0870870870870871
0.14414414414414414
0.0870870870870871
0.0870870870870871
0.04633204633204634
0.04380242311276794
0.04904904904904905
0.15970515970515978
0.08108108108108107
0.10135135135135138
0.10990990990990991
0.2297297297297298
0.10135135135135138
0.07567567567567568
0.20120120120120114
0.20120120120120114
0.05855855855855858
0.06633906633906633
0.06227967097532316
0.03716216216216217
0.07567567567567568
0.04633204633204634
0.0870870870870871
0.06633906633906633
0.033386327503974564
0.05855855855855858
0.04904904904904905
0.0870870870870871
0.0870870870870871
0.06227967097532316
0.2297297297297298
0.0870870870870871
0.07567567567567568
0.05855855855855858
0.1783783783783784
0.10135135135135138
0.05513513513513514
0.10135135135135138
0.07567567567567568
0.06633906633906633
0.11969111969111967
0.05513513513513514
0.10990990990990991
0.051975051975051964
0.051975051975051964
0.03521703521703521
0.1783783783783784
0.11969111969111967
0.10990990990990991
0.04633204633204634
0.07567567567567568
0.06633906633906633
0.08108108108108107
0.1309771309771309
0.14414414414414414
0.04633204633204634
0.051975051975051964
0.0870870870870871
0.04144144144144144
0.15970515970515978
0.14414414414414414
0.05513513513513514
0.10135135135135138
0.14414414414414414
0.06633906633906633
0.08108108108108107
0.04144144144144144
0.11969111969111967
0.031660231660231665
0.10990990990990991
0.04633204633204634
0.09379968203497614
0.0870870870870871
0.10990990990990991
0.05855855855855858
0.20120120120120114
0.03521703521703521
0.06633906633906633
0.1309771309771309
0.04633204633204634
0.051975051975051964
0.10135135135135138
0.10990990990990991
0.11969111969111967
0.11969111969111967
0.10135135135135138
0.04380242311276794
0.06633906633906633
0.06633906633906633
0.07078507078507078
0.10990990990990991
0.10135135135135138
0.1309771309771309
0.10990990990990991
0.3837837837837838
0.06633906633906633
0.08108108108108107
0.03521703521703521
0.08108108108108107
0.0870870870870871
0.05855855855855858
0.1309771309771309
0.05513513513513514
0.10990990990990991
0.08108108108108107
0.04380242311276794
0.2664092664092664
0.05513513513513514
0.04904904904904905
0.15970515970515978
0.05513513513513514
0.06633906633906633
0.09379968203497614
0.1309771309771309
0.2664092664092664
0.07078507078507078
0.03923278116826505
0.08108108108108107
0.05513513513513514
0.06633906633906633
0.11969111969111967
0.4864864864864872
0.09379968203497614
0.09379968203497614
0.07567567567567568
0.06227967097532316
0.04904904904904905
0.05513513513513514
0.10135135135135138
0.1309771309771309
0.05855855855855858
0.07567567567567568
0.06227967097532316
0.09379968203497614
0.15970515970515978
0.07078507078507078
0.06227967097532316
0.2297297297297298
0.07567567567567568
0.04380242311276794
0.11969111969111967
0.07078507078507078
0.08108108108108107
0.04633204633204634
0.0870870870870871
0.06633906633906633
0.07567567567567568
0.09379968203497614
0.04904904904904905
0.15970515970515978
0.15970515970515978
0.0870870870870871
0.15970515970515978
0.06633906633906633
0.14414414414414414
0.06227967097532316
0.07078507078507078
0.04144144144144144
0.0870870870870871
0.08108108108108107
0.11969111969111967
0.1309771309771309
0.04904904904904905
0.05855855855855858
0.05513513513513514
0.04904904904904905
0.07567567567567568
0.06227967097532316
0.07567567567567568
0.05855855855855858
0.09379968203497614
0.07078507078507078
0.04380242311276794
0.08108108108108107
0.04633204633204634
0.1783783783783784
0.08108108108108107
0.051975051975051964
0.06227967097532316
0.06633906633906633
0.06227967097532316
0.11969111969111967
0.05855855855855858
0.2297297297297298
0.31531531531531504
0.10990990990990991
0.09379968203497614
0.10990990990990991
0.11969111969111967
0.11969111969111967
0.10990990990990991
0.20120120120120114
0.05513513513513514
0.06633906633906633
0.07078507078507078
0.10135135135135138
0.051975051975051964
0.031660231660231665
0.11969111969111967
0.05513513513513514
0.1783783783783784
0.05855855855855858
0.08108108108108107
0.10990990990990991
0.10135135135135138
0.05513513513513514
0.11969111969111967
0.06633906633906633
0.10135135135135138
0.06227967097532316
0.11969111969111967
0.08108108108108107
0.31531531531531504
0.09379968203497614
0.09379968203497614
0.07078507078507078
0.09379968203497614
0.08108108108108107
0.04904904904904905
0.03923278116826505
0.051975051975051964
0.05855855855855858
0.06227967097532316
0.06227967097532316
0.06227967097532316
0.08108108108108107
0.06633906633906633
0.09379968203497614
0.09379968203497614
0.1309771309771309
0.04904904904904905
0.07078507078507078
0.05513513513513514
0.04904904904904905
0.051975051975051964
0.06633906633906633
0.15970515970515978
0.0870870870870871
0.10135135135135138
0.20120120120120114
0.10135135135135138
0.06633906633906633
0.0870870870870871
0.08108108108108107
0.31531531531531504
0.04633204633204634
0.09379968203497614
0.08108108108108107
0.07078507078507078
0.06633906633906633
0.07078507078507078
0.04144144144144144
0.051975051975051964
0.0870870870870871
0.051975051975051964
0.07567567567567568
0.06633906633906633
0.05513513513513514
0.10135135135135138
0.05855855855855858
0.04904904904904905
0.10990990990990991
0.04904904904904905
0.15970515970515978
0.06227967097532316
0.06633906633906633
0.10135135135135138
0.14414414414414414
0.2297297297297298
0.07567567567567568
0.07078507078507078
0.051975051975051964
0.15970515970515978
0.15970515970515978
0.09379968203497614
0.05513513513513514
0.08108108108108107
0.10135135135135138
0.10990990990990991
0.15970515970515978
0.1309771309771309
0.07078507078507078
0.05513513513513514
0.10990990990990991
0.04144144144144144
0.10990990990990991
0.051975051975051964
0.051975051975051964
0.07567567567567568
0.05513513513513514
0.07567567567567568
0.0870870870870871
0.07567567567567568
0.03923278116826505
0.06227967097532316
0.15970515970515978
0.15970515970515978
0.08108108108108107
0.03716216216216217
0.1783783783783784
0.04380242311276794
0.15970515970515978
0.09379968203497614
0.07078507078507078
0.08108108108108107
0.10990990990990991
0.14414414414414414
0.09379968203497614
0.05513513513513514
0.09379968203497614
0.07567567567567568
0.0870870870870871
0.07078507078507078
0.05855855855855858
0.03716216216216217
0.09379968203497614
0.04904904904904905
0.09379968203497614
0.2297297297297298
0.05855855855855858
0.04380242311276794
0.10990990990990991
0.2664092664092664
0.0870870870870871
0.06227967097532316
0.10990990990990991
0.07078507078507078
0.11969111969111967
0.06227967097532316
0.2664092664092664
0.03923278116826505
0.05855855855855858
0.07567567567567568
0.05855855855855858
0.06227967097532316
0.051975051975051964
0.03521703521703521
0.05855855855855858
0.14414414414414414
0.06633906633906633
0.051975051975051964
0.1309771309771309
0.09379968203497614
0.05513513513513514
0.2664092664092664
0.04633204633204634
0.07567567567567568
0.07078507078507078
0.2297297297297298
0.11969111969111967
0.07567567567567568
0.11969111969111967
0.1309771309771309
0.04144144144144144
0.07078507078507078
0.2664092664092664
0.14414414414414414
0.06227967097532316
0.03521703521703521
0.10135135135135138
0.051975051975051964
0.1783783783783784
0.06633906633906633
0.06633906633906633
0.07078507078507078
0.10135135135135138
0.06633906633906633
0.10990990990990991
0.05513513513513514
0.14414414414414414
0.09379968203497614
0.08108108108108107
0.11969111969111967
0.05513513513513514
0.0870870870870871
0.10135135135135138
0.0870870870870871
0.06227967097532316
0.11969111969111967
0.08108108108108107
0.03923278116826505
0.10135135135135138
0.04144144144144144
0.08108108108108107
0.03521703521703521
0.07567567567567568
0.03923278116826505
0.030030030030030033
0.10135135135135138
0.051975051975051964
0.04144144144144144
0.08108108108108107
0.06633906633906633
0.05513513513513514
0.06633906633906633
0.06633906633906633
0.10990990990990991
0.0870870870870871
0.04144144144144144
0.07567567567567568
0.08108108108108107
0.06227967097532316
0.14414414414414414
0.1309771309771309
0.10990990990990991
0.07567567567567568
0.05855855855855858
0.10135135135135138
0.0870870870870871
0.05513513513513514
0.2297297297297298
0.2297297297297298
0.10135135135135138
0.10990990990990991
0.03716216216216217
0.06227967097532316
0.07567567567567568
0.10135135135135138
0.04144144144144144
0.04144144144144144
0.03923278116826505
0.2664092664092664
0.10135135135135138
0.03716216216216217
0.06227967097532316
0.10990990990990991
0.06633906633906633
0.11969111969111967
0.1309771309771309
0.04904904904904905
0.1309771309771309
0.05855855855855858
0.08108108108108107
0.07567567567567568
0.1783783783783784
0.08108108108108107
0.05513513513513514
0.04633204633204634
0.0870870870870871
0.15970515970515978
0.09379968203497614
0.07567567567567568
0.0870870870870871
0.06633906633906633
0.11969111969111967
0.09379968203497614
0.0870870870870871
0.10990990990990991
0.04144144144144144
0.08108108108108107
0.03521703521703521
0.06227967097532316
0.05855855855855858
0.11969111969111967
0.10135135135135138
0.06633906633906633
0.07567567567567568
0.14414414414414414
0.10135135135135138
0.10990990990990991
0.07567567567567568
0.11969111969111967
0.15970515970515978
0.10135135135135138
0.04633204633204634
0.11969111969111967
0.04904904904904905
0.10135135135135138
0.07078507078507078
0.1783783783783784
0.04380242311276794
0.07567567567567568
0.1783783783783784
0.05855855855855858
0.04633204633204634
0.051975051975051964
0.0870870870870871
0.15970515970515978
0.11969111969111967
0.08108108108108107
0.0870870870870871
0.07567567567567568
0.04380242311276794
0.10990990990990991
0.0870870870870871
0.04904904904904905
0.05513513513513514
0.051975051975051964
0.05855855855855858
0.07567567567567568
0.06227967097532316
0.10135135135135138
0.06633906633906633
0.11969111969111967
0.0870870870870871
0.04380242311276794
0.06633906633906633
0.04380242311276794
0.0870870870870871
0.1309771309771309
0.06227967097532316
0.07567567567567568
0.07567567567567568
0.0870870870870871
0.05513513513513514
0.14414414414414414
0.06633906633906633
0.06633906633906633
0.14414414414414414
0.09379968203497614
0.10990990990990991
0.11969111969111967
0.09379968203497614
0.10990990990990991
0.08108108108108107
0.20120120120120114
0.05855855855855858
0.1309771309771309
0.09379968203497614
0.10135135135135138
0.04380242311276794
0.09379968203497614
0.05855855855855858
0.04380242311276794
0.10135135135135138
0.10135135135135138
0.04380242311276794
0.1309771309771309
0.08108108108108107
0.2664092664092664
0.07567567567567568
0.08108108108108107
0.05513513513513514
0.051975051975051964
0.15970515970515978
0.07078507078507078
0.033386327503974564
0.07078507078507078
0.04380242311276794
0.11969111969111967
0.07078507078507078
0.07078507078507078
0.08108108108108107
0.09379968203497614
0.20120120120120114
0.11969111969111967
0.033386327503974564
0.06633906633906633
0.07567567567567568
0.02848794740686632
0.07567567567567568
0.07567567567567568
0.03923278116826505
0.06227967097532316
0.14414414414414414
0.07567567567567568
0.0870870870870871
0.06633906633906633
0.06227967097532316
0.05855855855855858
0.08108108108108107
0.10135135135135138
0.11969111969111967
0.2664092664092664
0.15970515970515978
0.05513513513513514
0.06227967097532316
0.31531531531531504
0.11969111969111967
0.05855855855855858
0.03923278116826505
0.04904904904904905
0.06227967097532316
0.15970515970515978
0.10990990990990991
0.08108108108108107
0.2664092664092664
0.07567567567567568
0.11969111969111967
0.14414414414414414
0.0870870870870871
0.2297297297297298
0.07567567567567568
0.15970515970515978
0.06633906633906633
0.0870870870870871
0.1783783783783784
0.05513513513513514
0.11969111969111967
0.03521703521703521
0.11969111969111967
0.10135135135135138
0.1783783783783784
0.051975051975051964
0.10990990990990991
0.14414414414414414
0.06633906633906633
0.04904904904904905
0.10990990990990991
0.1783783783783784
0.07567567567567568
0.051975051975051964
0.06227967097532316
0.20120120120120114
0.08108108108108107
0.09379968203497614
0.07078507078507078
0.09379968203497614
0.09379968203497614
0.15970515970515978
0.09379968203497614
0.07567567567567568
0.05855855855855858
0.07078507078507078
0.08108108108108107
0.20120120120120114
0.05513513513513514
0.11969111969111967
0.15970515970515978
0.08108108108108107
0.04904904904904905
0.10990990990990991
0.07078507078507078
0.06227967097532316
0.09379968203497614
0.2297297297297298
0.14414414414414414
0.05513513513513514
0.10990990990990991
0.08108108108108107
0.051975051975051964
0.03716216216216217
0.07078507078507078
0.05855855855855858
0.04904904904904905
0.06227967097532316
0.11969111969111967
0.1783783783783784
0.05513513513513514
0.0870870870870871
0.10135135135135138
0.05513513513513514
0.06633906633906633
0.05513513513513514
0.04904904904904905
0.04904904904904905
0.1783783783783784
0.03923278116826505
0.051975051975051964
0.06227967097532316
0.03923278116826505
0.15970515970515978
0.09379968203497614
0.3837837837837838
0.07078507078507078
0.20120120120120114
0.07567567567567568
0.10990990990990991
0.03923278116826505
0.08108108108108107
0.05855855855855858
0.15970515970515978
0.04904904904904905
0.10990990990990991
0.05855855855855858
0.20120120120120114
0.05855855855855858
0.0870870870870871
0.051975051975051964
0.06227967097532316
0.04144144144144144
0.05513513513513514
0.0870870870870871
0.06633906633906633
0.05855855855855858
0.06227967097532316
0.07567567567567568
0.04633204633204634
0.04144144144144144
0.06633906633906633
0.10135135135135138
0.10990990990990991
0.07078507078507078
0.0870870870870871
0.14414414414414414
0.20120120120120114
0.15970515970515978
0.07567567567567568
0.05513513513513514
0.09379968203497614
0.07567567567567568
0.03716216216216217
0.06227967097532316
0.051975051975051964
0.04144144144144144
0.1309771309771309
0.04633204633204634
0.04633204633204634
0.04904904904904905
0.0870870870870871
0.10990990990990991
0.1309771309771309
0.051975051975051964
0.07567567567567568
0.2664092664092664
0.2664092664092664
0.08108108108108107
0.05855855855855858
0.07078507078507078
0.03716216216216217
0.05513513513513514
0.09379968203497614
0.1309771309771309
0.1309771309771309
0.07078507078507078
0.05513513513513514
0.2664092664092664
0.1783783783783784
0.06633906633906633
0.08108108108108107
0.07078507078507078
0.08108108108108107
0.07567567567567568
0.14414414414414414
0.05513513513513514
0.14414414414414414
0.07078507078507078
0.10990990990990991
0.0870870870870871
0.04633204633204634
0.07078507078507078
0.03923278116826505
0.04144144144144144
0.10135135135135138
0.051975051975051964
0.15970515970515978
0.09379968203497614
0.033386327503974564
0.06633906633906633
0.11969111969111967
0.09379968203497614
0.09379968203497614
0.04904904904904905
0.10990990990990991
0.04904904904904905
0.1309771309771309
0.09379968203497614
0.04904904904904905
0.06227967097532316
0.0870870870870871
0.07078507078507078
0.1309771309771309
0.07078507078507078
0.08108108108108107
0.2664092664092664
0.15970515970515978
0.09379968203497614
0.07078507078507078
0.04904904904904905
0.07567567567567568
0.04904904904904905
0.04144144144144144
0.10990990990990991
0.06633906633906633
0.07078507078507078
0.051975051975051964
0.09379968203497614
0.07567567567567568
0.10135135135135138
0.05513513513513514
0.08108108108108107
0.04904904904904905
0.07567567567567568
0.04633204633204634
0.09379968203497614
0.0870870870870871
0.06633906633906633
0.05855855855855858
0.11969111969111967
0.05855855855855858
0.05855855855855858
0.10135135135135138
0.14414414414414414
0.04633204633204634
0.05513513513513514
0.07078507078507078
0.08108108108108107
0.051975051975051964
0.2664092664092664
0.1783783783783784
0.03521703521703521
0.1309771309771309
0.15970515970515978
0.07078507078507078
0.06633906633906633
0.09379968203497614
0.05855855855855858
0.1783783783783784
0.04144144144144144
0.14414414414414414
0.07567567567567568
0.08108108108108107
0.033386327503974564
0.0870870870870871
0.04633204633204634
0.06227967097532316
0.051975051975051964
0.1783783783783784
0.051975051975051964
0.0870870870870871
0.051975051975051964
0.1783783783783784
0.10135135135135138
0.03521703521703521
0.10135135135135138
0.05855855855855858
0.04904904904904905
0.07078507078507078
0.11969111969111967
0.05855855855855858
0.0870870870870871
0.08108108108108107
0.04380242311276794
0.05513513513513514
0.03716216216216217
0.05855855855855858
0.07567567567567568
0.07078507078507078
0.07567567567567568
0.15970515970515978
0.09379968203497614
0.20120120120120114
0.11969111969111967
0.05513513513513514
0.06633906633906633
0.08108108108108107
0.05855855855855858
0.04380242311276794
0.0870870870870871
0.06227967097532316
0.04144144144144144
0.08108108108108107
0.04904904904904905
0.05855855855855858
0.0870870870870871
0.1783783783783784
0.10135135135135138
0.08108108108108107
0.10135135135135138
0.0870870870870871
0.20120120120120114
0.15970515970515978
0.07078507078507078
0.0870870870870871
0.04904904904904905
0.07567567567567568
0.04904904904904905
0.10135135135135138
0.07078507078507078
0.051975051975051964
0.06633906633906633
0.09379968203497614
0.05855855855855858
0.0870870870870871
0.08108108108108107
0.08108108108108107
0.06633906633906633
0.15970515970515978
0.07078507078507078
0.0870870870870871
0.10990990990990991
0.051975051975051964
0.03716216216216217
0.20120120120120114
0.05855855855855858
0.31531531531531504
0.10135135135135138
0.06227967097532316
0.05855855855855858
0.08108108108108107
0.05855855855855858
0.14414414414414414
0.10135135135135138
0.06633906633906633
0.07078507078507078
0.14414414414414414
0.06227967097532316
0.09379968203497614
0.06633906633906633
0.09379968203497614
0.04904904904904905
0.07078507078507078
0.09379968203497614
0.10135135135135138
0.05855855855855858
0.04144144144144144
0.09379968203497614
0.04904904904904905
0.04633204633204634
0.03923278116826505
0.06633906633906633
0.06227967097532316
0.08108108108108107
0.10135135135135138
0.04144144144144144
0.1783783783783784
0.05855855855855858
0.2297297297297298
0.09379968203497614
0.07078507078507078
0.07078507078507078
0.06633906633906633
0.051975051975051964
0.06227967097532316
0.06633906633906633
0.05855855855855858
0.07078507078507078
0.03716216216216217
0.07078507078507078
0.03521703521703521
0.06633906633906633
0.20120120120120114
0.06227967097532316
0.07567567567567568
0.07567567567567568
0.10135135135135138
0.11969111969111967
0.09379968203497614
0.06633906633906633
0.2664092664092664
0.09379968203497614
0.07567567567567568
0.07567567567567568
0.2297297297297298
0.07567567567567568
0.10135135135135138
0.05513513513513514
0.04380242311276794
0.051975051975051964
0.04904904904904905
0.04144144144144144
0.051975051975051964
0.15970515970515978
0.06227967097532316
0.04380242311276794
0.09379968203497614
0.06227967097532316
0.07567567567567568
0.04380242311276794
0.10990990990990991
0.04380242311276794
0.0870870870870871
0.08108108108108107
0.1783783783783784
0.07567567567567568
0.07078507078507078
0.09379968203497614
0.0870870870870871
0.05855855855855858
0.2664092664092664
0.09379968203497614
0.05855855855855858
0.06633906633906633
0.07078507078507078
0.03716216216216217
0.04904904904904905
0.31531531531531504
0.10990990990990991
0.051975051975051964
0.07567567567567568
0.08108108108108107
0.08108108108108107
0.05513513513513514
0.09379968203497614
0.1783783783783784
0.06633906633906633
0.09379968203497614
0.05855855855855858
0.10135135135135138
0.04633204633204634
0.04633204633204634
0.06227967097532316
0.05513513513513514
0.07078507078507078
0.10135135135135138
0.10990990990990991
0.06227967097532316
0.06227967097532316
0.07567567567567568
0.11969111969111967
0.08108108108108107
0.1309771309771309
0.05855855855855858
0.04144144144144144
0.10990990990990991
0.09379968203497614
0.0870870870870871
0.08108108108108107
0.04633204633204634
0.10135135135135138
0.06227967097532316
0.1309771309771309
0.04380242311276794
0.11969111969111967
0.14414414414414414
0.2297297297297298
0.07567567567567568
0.051975051975051964
0.07567567567567568
0.051975051975051964
0.06227967097532316
0.05855855855855858
0.03716216216216217
0.1309771309771309
0.2297297297297298
0.10135135135135138
0.09379968203497614
0.06633906633906633
0.04904904904904905
0.08108108108108107
0.09379968203497614
0.04904904904904905
0.08108108108108107
0.05855855855855858
0.15970515970515978
0.08108108108108107
0.06227967097532316
0.11969111969111967
0.1309771309771309
0.08108108108108107
0.1309771309771309
0.03716216216216217
0.10990990990990991
0.15970515970515978
0.03521703521703521
0.06227967097532316
0.09379968203497614
0.0870870870870871
0.2297297297297298
0.06227967097532316
0.06633906633906633
0.15970515970515978
0.04144144144144144
0.10990990990990991
0.06227967097532316
0.06633906633906633
0.07078507078507078
0.07078507078507078
0.10135135135135138
0.09379968203497614
0.15970515970515978
0.051975051975051964
0.08108108108108107
0.2297297297297298
0.1309771309771309
0.08108108108108107
0.07567567567567568
0.11969111969111967
0.0870870870870871
0.04144144144144144
0.09379968203497614
0.07567567567567568
0.051975051975051964
0.0870870870870871
0.06227967097532316
0.08108108108108107
0.05855855855855858
0.0870870870870871
0.05855855855855858
0.06633906633906633
0.10135135135135138
0.051975051975051964
0.2664092664092664
0.04144144144144144
0.1309771309771309
0.051975051975051964
0.051975051975051964
0.10135135135135138
0.04144144144144144
0.06227967097532316
0.11969111969111967
0.10990990990990991
0.20120120120120114
0.08108108108108107
0.07567567567567568
0.1309771309771309
0.07078507078507078
0.09379968203497614
0.0870870870870871
0.04633204633204634
0.05855855855855858
0.04633204633204634
0.14414414414414414
0.06227967097532316
0.06227967097532316
0.15970515970515978
0.09379968203497614
0.11969111969111967
0.07567567567567568
0.31531531531531504
0.05855855855855858
0.2297297297297298
0.05855855855855858
0.05855855855855858
0.2664092664092664
0.051975051975051964
0.05855855855855858
0.07567567567567568
0.0870870870870871
0.10990990990990991
0.07567567567567568
0.14414414414414414
0.08108108108108107
0.15970515970515978
0.08108108108108107
0.06633906633906633
0.05513513513513514
0.04144144144144144
0.08108108108108107
0.2297297297297298
0.09379968203497614
0.06633906633906633
0.14414414414414414
0.03923278116826505
0.09379968203497614
0.06227967097532316
0.03923278116826505
0.1783783783783784
0.11969111969111967
0.10135135135135138
0.05513513513513514
0.0870870870870871
0.06227967097532316
0.07567567567567568
0.06227967097532316
0.06633906633906633
0.11969111969111967
0.08108108108108107
0.09379968203497614
0.09379968203497614
0.10135135135135138
0.05855855855855858
0.11969111969111967
0.06227967097532316
0.07567567567567568
0.06633906633906633
0.06633906633906633
0.04633204633204634
0.06633906633906633
0.05855855855855858
0.2297297297297298
0.04380242311276794
0.06633906633906633
0.08108108108108107
0.08108108108108107
0.09379968203497614
0.07078507078507078
0.08108108108108107
0.06633906633906633
0.07567567567567568
0.0870870870870871
0.06227967097532316
0.11969111969111967
0.06633906633906633
0.10990990990990991
0.11969111969111967
0.07567567567567568
0.05855855855855858
0.051975051975051964
0.10990990990990991
0.051975051975051964
0.15970515970515978
0.05855855855855858
0.0870870870870871
0.05513513513513514
0.03521703521703521
0.09379968203497614
0.051975051975051964
0.1309771309771309
0.14414414414414414
0.07078507078507078
0.07078507078507078
0.0870870870870871
0.03716216216216217
0.03716216216216217
0.08108108108108107
0.05513513513513514
0.2664092664092664
0.08108108108108107
0.14414414414414414
0.07078507078507078
0.10990990990990991
0.10135135135135138
0.05513513513513514
0.10990990990990991
0.06227967097532316
0.08108108108108107
0.07567567567567568
0.0870870870870871
0.03923278116826505
0.04144144144144144
0.10990990990990991
0.04633204633204634
0.04380242311276794
0.0870870870870871
0.11969111969111967
0.06227967097532316
0.07567567567567568
0.04633204633204634
0.08108108108108107
0.10990990990990991
0.04380242311276794
0.10990990990990991
0.20120120120120114
0.04144144144144144
0.04904904904904905
0.06227967097532316
0.2297297297297298
0.08108108108108107
0.09379968203497614
0.04633204633204634
0.1309771309771309
0.08108108108108107
0.06633906633906633
0.2664092664092664
0.10135135135135138
0.05855855855855858
0.08108108108108107
0.10990990990990991
0.10135135135135138
0.0870870870870871
0.20120120120120114
0.09379968203497614
0.07078507078507078
0.04144144144144144
0.06633906633906633
0.051975051975051964
0.03716216216216217
0.04633204633204634
0.07567567567567568
0.04380242311276794
0.07078507078507078
0.04380242311276794
0.07078507078507078
0.10990990990990991
0.15970515970515978
0.1309771309771309
0.04904904904904905
0.10990990990990991
0.05855855855855858
0.09379968203497614
0.05513513513513514
0.03716216216216217
0.07567567567567568
0.10990990990990991
0.0870870870870871
0.10135135135135138
0.10135135135135138
0.0870870870870871
0.05855855855855858
0.07567567567567568
0.06227967097532316
0.1783783783783784
0.05513513513513514
0.07078507078507078
0.06633906633906633
0.07567567567567568
0.1783783783783784
0.06633906633906633
0.04144144144144144
0.06633906633906633
0.10990990990990991
0.1783783783783784
0.07567567567567568
0.033386327503974564
0.09379968203497614
0.09379968203497614
0.10990990990990991
0.05513513513513514
0.04380242311276794
0.051975051975051964
0.10990990990990991
0.11969111969111967
0.03923278116826505
0.05855855855855858
0.1309771309771309
0.05513513513513514
0.05513513513513514
0.04633204633204634
0.07567567567567568
0.03521703521703521
0.04904904904904905
0.05855855855855858
0.10990990990990991
0.04144144144144144
0.08108108108108107
0.10990990990990991
0.14414414414414414
0.05513513513513514
0.11969111969111967
0.31531531531531504
0.10135135135135138
0.04633204633204634
0.04633204633204634
0.04904904904904905
0.08108108108108107
0.04633204633204634
0.07078507078507078
0.051975051975051964
0.05855855855855858
0.10135135135135138
0.08108108108108107
0.06227967097532316
0.051975051975051964
0.06633906633906633
0.04633204633204634
0.3837837837837838
0.04904904904904905
0.06633906633906633
0.06633906633906633
0.04904904904904905
0.10135135135135138
0.09379968203497614
0.10135135135135138
0.20120120120120114
0.04633204633204634
0.051975051975051964
0.20120120120120114
0.05855855855855858
0.06633906633906633
0.09379968203497614
0.10990990990990991
0.03521703521703521
0.08108108108108107
0.05855855855855858
0.09379968203497614
0.07567567567567568
0.07078507078507078
0.06633906633906633
0.09379968203497614
0.04633204633204634
0.07078507078507078
0.09379968203497614
0.04144144144144144
0.15970515970515978
0.05513513513513514
0.06227967097532316
0.09379968203497614
0.051975051975051964
0.09379968203497614
0.06227967097532316
0.06633906633906633
0.1309771309771309
0.07567567567567568
0.06227967097532316
0.06227967097532316
0.03521703521703521
0.05513513513513514
0.14414414414414414
0.04144144144144144
0.03923278116826505
0.07078507078507078
0.04633204633204634
0.1783783783783784
0.2297297297297298
0.05855855855855858
0.03716216216216217
0.07078507078507078
0.04380242311276794
0.051975051975051964
0.06227967097532316
0.04633204633204634
0.10135135135135138
0.051975051975051964
0.06633906633906633
0.09379968203497614
0.10990990990990991
0.11969111969111967
0.07078507078507078
0.051975051975051964
0.0870870870870871
0.06227967097532316
0.20120120120120114
0.09379968203497614
0.1783783783783784
0.1309771309771309
0.033386327503974564
0.1309771309771309
0.04633204633204634
0.07078507078507078
0.11969111969111967
0.08108108108108107
0.07567567567567568
0.11969111969111967
0.04144144144144144
0.06227967097532316
0.10135135135135138
0.051975051975051964
0.0870870870870871
0.07078507078507078
0.11969111969111967
0.06227967097532316
0.07078507078507078
0.14414414414414414
0.10990990990990991
0.05855855855855858
0.06227967097532316
0.11969111969111967
0.08108108108108107
0.05855855855855858
0.1309771309771309
0.07567567567567568
0.10135135135135138
0.051975051975051964
0.1783783783783784
0.10135135135135138
0.07078507078507078
0.09379968203497614
0.05855855855855858
0.04633204633204634
0.051975051975051964
0.1309771309771309
0.2297297297297298
0.08108108108108107
0.2664092664092664
0.09379968203497614
0.05855855855855858
0.06227967097532316
0.05855855855855858
0.0870870870870871
0.06633906633906633
0.05513513513513514
0.06227967097532316
0.04380242311276794
0.04633204633204634
0.0870870870870871
0.07567567567567568
0.05855855855855858
0.06227967097532316
0.11969111969111967
0.10990990990990991
0.04904904904904905
0.05855855855855858
0.06633906633906633
0.11969111969111967
0.10135135135135138
0.0870870870870871
0.10990990990990991
0.2297297297297298
0.05855855855855858
0.10135135135135138
0.07078507078507078
0.03521703521703521
0.10990990990990991
0.05855855855855858
0.051975051975051964
0.03923278116826505
0.06633906633906633
0.09379968203497614
0.1309771309771309
0.07078507078507078
0.0870870870870871
0.14414414414414414
0.05855855855855858
0.15970515970515978
0.10135135135135138
0.04633204633204634
0.05855855855855858
0.0870870870870871
0.10135135135135138
0.15970515970515978
0.051975051975051964
0.04904904904904905
0.06227967097532316
0.031660231660231665
0.07567567567567568
0.07078507078507078
0.2297297297297298
0.09379968203497614
0.11969111969111967
0.0870870870870871
0.09379968203497614
0.06227967097532316
0.05513513513513514
0.0870870870870871
0.05513513513513514
0.06227967097532316
0.10990990990990991
0.02848794740686632
0.07078507078507078
0.07078507078507078
0.033386327503974564
0.06227967097532316
0.15970515970515978
0.07078507078507078
0.08108108108108107
0.04633204633204634
0.10990990990990991
0.08108108108108107
0.08108108108108107
0.05513513513513514
0.051975051975051964
0.10135135135135138
0.05513513513513514
0.06633906633906633
0.051975051975051964
0.07567567567567568
0.08108108108108107
0.05513513513513514
0.07567567567567568
0.05513513513513514
0.05513513513513514
0.05513513513513514
0.0870870870870871
0.11969111969111967
0.04633204633204634
0.03521703521703521
0.10990990990990991
0.09379968203497614
0.11969111969111967
0.11969111969111967
0.10990990990990991
0.0870870870870871
0.14414414414414414
0.09379968203497614
0.03521703521703521
0.06227967097532316
0.07078507078507078
0.04904904904904905
0.05855855855855858
0.07567567567567568
0.15970515970515978
0.07078507078507078
0.08108108108108107
0.09379968203497614
0.06633906633906633
0.1783783783783784
0.08108108108108107
0.09379968203497614
0.10135135135135138
0.05855855855855858
0.07078507078507078
0.05513513513513514
0.04633204633204634
0.0870870870870871
0.06633906633906633
0.0870870870870871
0.10135135135135138
0.051975051975051964
0.03923278116826505
0.0870870870870871
0.10135135135135138
0.2297297297297298
0.09379968203497614
0.0870870870870871
0.033386327503974564
0.09379968203497614
0.04380242311276794
0.05513513513513514
0.0870870870870871
0.11969111969111967
0.07567567567567568
0.14414414414414414
0.07567567567567568
0.1309771309771309
0.07078507078507078
0.09379968203497614
0.05513513513513514
0.06227967097532316
0.0870870870870871
0.05513513513513514
0.07078507078507078
0.11969111969111967
0.04904904904904905
0.20120120120120114
0.07078507078507078
0.05513513513513514
0.08108108108108107
0.03521703521703521
0.03923278116826505
0.1783783783783784
0.04904904904904905
0.09379968203497614
0.10990990990990991
0.04904904904904905
0.14414414414414414
0.02848794740686632
0.04633204633204634
0.07078507078507078
0.04380242311276794
0.14414414414414414
0.05513513513513514
0.07078507078507078
0.14414414414414414
0.05513513513513514
0.10135135135135138
0.08108108108108107
0.05855855855855858
0.09379968203497614
0.05855855855855858
0.04633204633204634
0.0870870870870871
0.07567567567567568
0.07078507078507078
0.04380242311276794
0.08108108108108107
0.04144144144144144
0.051975051975051964
0.06227967097532316
0.09379968203497614
0.09379968203497614
0.11969111969111967
0.03923278116826505
0.06633906633906633
0.2664092664092664
0.11969111969111967
0.1309771309771309
0.09379968203497614
0.09379968203497614
0.07078507078507078
0.20120120120120114
0.05513513513513514
0.04380242311276794
0.0870870870870871
0.14414414414414414
0.10135135135135138
0.14414414414414414
0.04144144144144144
0.10135135135135138
0.2664092664092664
0.11969111969111967
0.08108108108108107
0.051975051975051964
0.07567567567567568
0.07567567567567568
0.07567567567567568
0.03923278116826505
0.033386327503974564
0.05855855855855858
0.10990990990990991
0.02848794740686632
0.15970515970515978
0.08108108108108107
0.05513513513513514
0.051975051975051964
0.05513513513513514
0.051975051975051964
0.0870870870870871
0.11969111969111967
0.07567567567567568
0.10135135135135138
0.10990990990990991
0.051975051975051964
0.06227967097532316
0.06227967097532316
0.09379968203497614
0.09379968203497614
0.051975051975051964
0.08108108108108107