SERPINE1
CXCL14
LBP
HBB
HPGD
APOD
SELE
RGS5
TNC
COL25A1
PRG4
SAA2
CADM2
HBA2
AC009313.1
POSTN
COL1A1
FAM155A
NQO1
IGFBP7
GNLY
FABP4
SPARCL1
RBP7
HS3ST2
CA4
NDUFA4L2
IL1B
CHI3L2
NKG7
CCL18
HBA1
CLNK
AREG
IFNG-AS1
BTNL9
TLL1
RGS6
MYOC
NKAIN2
CXCL8
LINC01695
FN1
TNFAIP6
MYH11
C5AR2
THBS4
AC100849.1
VWF
HAS1
TPO
IGFBP6
MCTP1
RYR2
VCAM1
NR4A3
PCK1
ADGRL3
CXCL3
PLA2G2A
TFRC
ACTA2
HAS2
IFI27
GNG11
PKHD1L1
LINC02388
MECOM
LINC00639
LINC00540
TAGLN
LGALS1
COL1A2
LINC01697
ZNF331
COL3A1
CD300LG
PAPSS2
RAB27B
CD69
THY1
HTR4
IL1R2
CDH13
KIAA1217
MT2A
WDFY4
NEBL
LINC00968
APOE
LINC02147
KCNAB1
ICAM1
ADAMTS18
ZNF804A
PLAT
LRRTM4
DACH1
AC243829.2
EMCN
VCAN
CD86
ID1
DCN
CD163L1
FCN1
ADGRL4
ABLIM3
VEGFC
MMRN1
CCSER1
CRISPLD2
SCD
RCAN2
CXCL1
RPS18
GRIA4
AC011511.2
AQP1
ALCAM
TNFSF18
LINC01098
P2RY14
AVPR1A
TMSB10
MGP
PLA2G7
IGFBP2
KIT
KMO
MMP19
TMSB4X
AC104574.2
MFAP5
GRID2
FHL5
PDLIM3
GPAT3
HPGDS
PCDH11X
PRKG1
TEX41
RPS4X
BMP5
MAMDC2
PLEK
CSF1
SLC16A10
KCNIP1
CLU
ANO2
CTH
BBOX1-AS1
CX3CL1
KCNB2
AL357507.1
SYT1
RAB3C
CLDN5
ACTB
ATP1B3
ARL15
CCL5
ADAMTS5
OLR1
TMX4
FCRL1
PDK4
ADGRF5
GPIHBP1
AC087565.3
AC024230.1
PLCB4
EFNB2
EREG
C4orf32
LUM
LINC01099
MMP2
GADD45G
HLA-DQA1
S100A6
LINC01478
GREM1
RPLP1
ADAMTS15
AL157871.4
STEAP4
HPSE2
PLAUR
ACKR1
MAMDC2-AS1
PTGS2
MMP9
AL138694.1
C3
GSN
GEM
RGS16
THRSP
BCL11A
SLC38A11
GZMB
SORBS2
S100A4
PKIB
CCL4
KCTD8
CAVIN2
LMCD1
CLIC5
RPL8
GUCY1A2
CHRM3
LIF
IGFBP5
BST2
RPL13
RAPGEF5
BMP6
IGF2
SAMSN1
ADGRB3
BCL2A1
BLK
ADAMTS6
C7
SPX
GK
F13A1
KYNU
CLEC7A
SLC12A1
HDC
TNF
BIRC3
LINC01358
CFD
IL7R
AC021733.1
TGFB2
CXCL10
ROBO2
IFNG
MT1X
LDB2
PI16
CLEC14A
CCDC3
RPL36A-HNRNPH2
TIMP3
AL162414.1
ADAMTS1
RPS8
CSMD1
MRC1
AL035401.1
AC007681.1
PCLO
NR2F2-AS1
ABCB5
RRAD
RHOJ
RYR3
AC013652.1
MYO1B
PTPRT
PDZRN4
SELP
AJ009632.2
RPL18
AC003991.1
SLIT2
C2CD4B
FLT3
LIFR-AS1
THBS1
HMOX1
S100Z
HLA-B
LIPN
NR5A2
MEOX2
LUZP2
SEMA4A
PROX1
COL21A1
ANGPTL4
PPBP
AC084871.1
SFRP4
FGF7
RPL37A
SYNPO2
STMN1
IL6
SDS
VNN1
AC099673.1
A2M
LGMN
MROH9
MARCH1
AC099560.1
FBLN1
CA8
FBN1
AC011287.1
C1R
THEMIS
UAP1
FLT1
B4GALT6
ID4
CCL21
PTPRB
CD248
AOAH
APOLD1
RPL34
RPL35A
WARS
CXCL2
CYYR1
PLCXD3
MFAP4
GPRC5A
RPL32
C5orf17
MACC1
MGAT4C
LEF1
NES
AC020637.1
GAS1
LINC01982
KCTD12
LRP1B
LINC02055
AJ006995.1
CCL4L2
AC012593.1
CAMK4
CCL3
MDGA2
IGFBP3
LINC01436
ADIRF
GZMA
CACNA1C
ZNF385D
DEFB1
HLA-C
KCNIP4
PTHLH
CD247
TGFBI
ST6GALNAC3
AC012349.1
ADAM28
C11orf96
MARCO
IL2RA
HTR7
RPS14
PTX3
C1QC
CRHBP
CD93
CD74
CXCL9
RPL29
TP63
G0S2
SYN3
CDH20
ASPM
SOX18
RPS3
RPL28
SAA2-SAA4
TUBA1A
DHRS9
STC1
AC090415.2
NCKAP5
COL6A2
KCNMA1
CCDC26
DPP6
LINC01505
CLDN11
ESRRG
COX4I2
INPP4B
ENTPD1
KCND2
LINC01091
CCL8
LINC02511
MSR1
DKK2
RPS7
RPS19
GJA5
TPPP3
RGCC
SPACA6
CAVIN1
CYP27A1
GAPDH
COL8A1
RGS7
NRXN3
DYSF
TCF15
TNFAIP8L3
LY86-AS1
UGDH
CLVS1
AC073529.1
CNKSR3
GUCY1A3
DUSP4
FAU
ERG
TAF4B
ADAL
PCSK5
SLC11A1
FTL
CD1C
AC113383.1
AKAP6
BASP1
LINC02296
CHI3L1
AL158850.1
LRP4
SLC9A3R2
AC074327.1
PAX5
IFITM3
RPL11
AC016205.1
FGFBP2
ZNF385B
LSAMP
TNFAIP3
KIF18B
MET
CD83
LINC02040
S100A10
DGKI
RPL30
TPRG1
IL1RL1
ST18
EPHA3
AQP9
CIDEC
EDNRB
NR2F2
PLVAP
WISP2
SYAP1
ADAMTS9
SULF1
TMEM164
AL117190.2
GABRB2
NRCAM
LTB
NRG3
RPL19
TM4SF1
TRPC6
NOV
HSPB1
RNF144B
TRABD2B
SAA1
GPR183
KLHL4
BCAT1
FSTL1
AKR1C1
NFATC2
CDH5
FST
HLA-DRB1
DIAPH3
HAS2-AS1
CRTAM
FCGR3A
RPS23
CILP
LDLRAD4
RRP12
RPL15
AC245427.1
GFPT2
WFDC1
NOSTRIN
CLEC12A
TOX
AC092691.1
ARHGAP11B
SKAP1
ERRFI1
FAM20A
AC139720.1
CCDC178
RPS6
C1QA
RGS13
AC243829.4
MAFB
MIR155HG
AC026167.1
CTGF
TMEM163
LYVE1
HLA-A
HSD52
AC012409.2
TFF3
ACKR3
AP003181.1
ADM
UNC5C
ITGA4
NTRK3
LINC00989
ITGA8
RPL36
GALNT13
SH3BGRL3
SLC1A3
LINC01568
UPP2
PPP1R14A
LINC02227
CCDC141
RTKN2
COLEC12
RPS11
ENPP3
ITGB2
LINC01554
ADGRG5
C6
MMP16
HMCN1
GPC5
MS4A1
PFN1
IGFBP4
RAB31
ERBB4
C1orf186
LINC00992
HLA-DPB1
BX322234.1
TIMP1
BICC1
AP000561.1
GJA4
EDN1
APLNR
FRMPD4
SPARC
TFPI2
RIPK2
DTHD1
EZR
SLC2A5
RPL7A
ANKRD30A
KDR
LPL
FAM129C
SCN9A
DAPP1
LINC02506
HCAR2
NRG1
AC090124.1
IL4I1
COL6A6
RPS13
AC069277.1
ADAMTS8
TIMP4
RND1
LINC01934
IL18R1
PDE4B
LINC01197
MED12L
CLEC4C
RCAN1
TMEM233
AC061992.1
DGKG
RGS18
NLRP3
EMP3
PECAM1
RPL35
GATA6
MAOA
FBXO32
DCLK1
GPAM
MKI67
CLSTN2
PRAG1
PDE4D
CCNB1
AC002066.1
MT-ND2
CD163
RPS15A
CD96
VLDLR-AS1
RPS16
AC019197.1
GPC6
KNL1
RHOC
TPT1
SQSTM1
OPN3
CRISPLD1
CDH6
ARG2
AC064834.1
SLC8A3
XCR1
SERF2
CPXM2
NAV2
FGF14
MS4A2
AL512380.2
LMOD1
PTMS
ARRDC4
LDLR
TFEC
STK32B
FCRL5
CSN1S1
CTSW
DNAJC27
NNAT
ACTG1
ARPP21
LINC01204
AL031599.1
HLA-DRB5
KCNJ2
KCNJ8
PCDH19
AC010127.1
PLAU
CRIP2
IL1RN
DDX58
AL357793.1
RPS12
PTCH2
TMEM108
NOX4
EDNRA
RPL37
KLHL14
HSPA1A
MEST
HLA-DRA
SPC25
CFH
CNTN4
FRMD4B
TNFSF14
KLRC2
LINC01876
AC060234.3
FNDC1
IL1RAPL1
AC018616.1
DLGAP1
KCNJ3
C1QB
AC093772.1
NUSAP1
ID3
RIPOR2
GCLC
LINC00924
ADH1B
C2orf40
ACSL4
CALM1
CST7
MYOCD
SRGN
UBA52
FAM162B
C8orf4
RPS5
NOTCH3
RASD1
ITPKC
CDCP1
TACR1
CD55
CCBE1
SLC8A1
CD24
DEPDC1B
CLEC9A
IL1R1
MYO1E
FGF10
FAM107A
PLOD2
AP001605.1
RBM47
PAMR1
TCF4-AS1
CTNNA3
WDPCP
AC114689.3
LINC01133
CIITA
C8orf34
AC104041.1
CRTAC1
ITGAX
KIRREL3
PGAP1
AC125793.1
SLC14A2-AS1
MEGF9
MT-ND1
TCTEX1D1
AC002384.1
PCDH7
PCDH9
IL32
RNASE1
ACSL1
TPM2
MT1M
TMTC1
PRKCB
C2orf48
TRAT1
GK-AS1
MXRA5
FPR3
AC091691.2
SHANK3
MT-CYB
INSIG1
RPL23
LRRC4C
MYO10
LBH
RPS9
PTGDS
AL356277.3
SDC2
BACH2
MYL12A
PRR16
TOP2A
EDIL3
AP001972.4
TMEM170B
LINC02476
FABP3
PCOLCE
COL14A1
CLEC10A
SLC14A2
AC087857.1
LINC00871
PLEKHG1
CLEC1A
ADAMTSL1
CREB5
LYN
AP003354.2
LINC00861
MS4A7
GAP43
HTRA3
ULK4
AGBL4
ENPP2
CSF3
GIMAP7
SMOC2
ISM1
FAM19A1
IGHD
MT-CO2
NEURL1B
SGO1-AS1
RPS15
LTBP1
AC018742.1
CEP55
AC007529.2
IL5RA
ZNF385D-AS2
LINC01230
SEMA3A
PCDH9-AS2
SLC2A3
PENK
SLC5A4-AS1
ADARB2
ADAMTS4
MYBL1
MIR325HG
CAV1
ADAMTS16
SDK1
GPNMB
EYA4
AC016642.1
RPL13A
ALK
S1PR3
ITM2A
NLGN1
SUCNR1
MT-ND3
ATP2B1
IER3
ANO3
CTLA4
UGP2
LINC00636
TGM2
IRF4
CXorf36
HSPB8
AC138123.2
EPHA6
AL356479.1
CARMN
TM4SF18
AC091939.1
ELOVL7
ADAMTSL3
DACH2
AC093801.1
PRKAR2B
LINC01239
KHDRBS2
ANGPTL8
COL12A1
BMX
CALCRL
SPP1
MT-CO1
GZMH
CPNE4
AC096637.1
ADCY8
ITK
AC068051.1
ADGRE2
CYYR1-AS1
DLL4
JAML
SGK1
DOK6
MAP2
CD80
ADIPOQ
ENOX1
CD9
RHOH
KALRN
SCHLAP1
AC023590.1
HLA-DPA1
GBP1
HS6ST3
TEX26-AS1
HBG2
RAMP2
RPL12
TXK
HIST1H2BC
SLC19A3
GRIN2B
IQCM
AL392023.2
AC079210.1
SLC24A3
AC104809.2
MEDAG
ALKAL2
SLC39A14
NLGN4X
AKR1C2
KLHL29
LINC00348
CENPF
TOX2
ABCD2
C17orf58
CPE
ADGRE5
MS4A4E
RPS27A
COL4A5
PARM1
AP002518.2
NPR3
PZP
SOX2-OT
MGAT1
AL110292.1
AC016766.1
LINC01885
MT-ND4
AC098617.1
INHBA
VPS37B
HPSE
AC009163.1
COL6A3
PLAC8
CTSC
MEG3
AL138720.1
SLC7A2
GPC4
AL391117.1
KLRC1
DISC1FP1
LINC01541
AC112206.2
EGFL7
AC010609.1
TSPAN5
FBLN2
C5AR1
GRM7
AC006387.1
RPL10
CCL2
LINC00598
LINC02085
UPK3B
LINC01931
DSG2
BUB1B
SPRED1
GPX3
RUBCNL
LINC01324
LIFR
OR51E2
AC007384.1
PTGER3
PTTG1
TRHDE-AS1
CD300E
AL445259.1
PDE8B
PDE3B
SOCS2
ANKRD33B
IGHM
NCEH1
MAOB
RPL23A
GLIS3
NPSR1-AS1
TPX2
ATP5E
B2M
CTSK
ALDH1A2
TYR
LINC02456
LRRC3B
TMEFF2
RGS1
GPC3
LINC00607
LINC00276
C1QTNF3
IGF1
RPL27
AC062004.1
ITGA6
CCDC80
KCNQ5
SCN3A
LINC01340
AP002989.1
TMEM88
GBE1
MACROD2
MCM10
AC079298.3
MAPK10
ANXA3
NEURL2
AC005358.1
CLIC1
HILPDA
CCDC148
AL034397.3
CHSY3
SEMA5A
FPR1
C4orf22
AC112493.1
ACTN2
EBF2
IFI30
AC022075.1
AC025470.2
ITGBL1
PAG1
IPCEF1
MARCKS
DUSP2
AC079465.1
PIK3C2G
EDARADD
ACVR1C
ADAMTS3
FCRL2
SIK2
AC019211.1
HK2
LINC01013
AC008568.1
MYL6
GPM6A
ARHGAP15
JDP2
SHROOM4
HLA-DQB1
BAMBI
MEG8
RORB
SLCO2B1
EVA1C
SOX4
CLEC4F
AL078590.2
CD44
ARSJ
LRFN5
TRG-AS1
PLIN5
BCL11B
HOPX
MT1E
ANK2
AC022424.2
AC007240.1
PRF1
TTK
KLRB1
EPAS1
GPD1
NPL
AC005699.1
RPL38
AC074099.1
CTXN1
CLEC6A
SGCG
AADACL2-AS1
ACACB
RACK1
WISP3
AC026116.1
SHISA6
PDZRN3
CIDEA
LINC02552
LRRTM3
LINC01192
LINGO2
RPS24
PODXL
LINC02253
AC024901.1
CCDC85B
CDO1
NREP-AS1
S100A11
AC109466.1
AC007991.3
NABP1
NTNG1
AC008569.1
AFF3
ADRA1A
FCGBP
KIFC1
CPVL
LINC00645
LINC00470
FRAS1
WWTR1
NCAM2
SHANK2
ABCA10
ALDH1A3
AGMO
CRYAB
AC093459.1
PHLDB2
PYHIN1
CRABP2
NRIP3
ARHGDIB
MDK
MYEOV
DNASE1L3
GLCCI1
TRHDE
OSTN-AS1
DGAT2
LMCD1-AS1
PELI1
AL033504.1
NCAM1
RNF122
EID1
CDK15
AC092131.1
KCNA2
IL7
SLC6A1-AS1
AC119868.2
TMEM254-AS1
NOTCH4
CSRP2
TTC29
IL33
PLTP
PDGFRL
IFNLR1
IL31RA
AL157911.1
GLA
PHACTR3
CITED2
SLCO5A1
AC124657.1
LNX1
SRP14
RPS21
AC004160.1
NELL2
AC008574.1
TGM3
RGS2
SVEP1
ATP1B1
PXDNL
PRICKLE1
AC073050.1
WDR49
CCDC71L
SYN2
CASC19
CD22
THBS2
SLC9C1
GAS2L3
FGF2
FMN1
CCL3L3
TINAGL1
CYTIP
CD200R1
AC008957.2
ICOS
EPHA4
PLXNA4
KIF14
NR4A2
THSD4
AL359182.1
HCK
PTMA
ADAMTS9-AS1
AC239798.2
ABCC3
AC009975.1
ARHGEF15
COLEC11
AC104823.1
GTSCR1
RGL1
RPL10A
HDAC9
F8
CHN2
LPAR1
CR1
ELOB
RBPJ
MT-CO3
GALNT18
RASL11A
SEMA3C
AL020998.1
KAZN
FRMD3
AC090568.2
AC091976.1
CACNB2
GHR
SAMD3
PDE1C
AC008840.1
ANLN
CA3
XACT
PKP4
LINC01194
SH3RF2
PMAIP1
HIST1H2AC
CAV2
SLC25A33
PIEZO2
FCER1A
NHSL1
CTD-2201I18.1
BATF
FGF13
SEMA5B
MARCH3
MS4A6A
MYH9
CTSS
PLD5
GLUL
KC6
SAMD12
LINC02355
GYG2
APCDD1
AC092979.1
MAP1LC3C
AL591501.1
AGTR1
AP005203.1
TNXB
LINC01923
MACC1-AS1
RPE65
ESM1
AF123462.1
ST8SIA6
DIRC3
NCAPG
AC078980.1
FAM129A
LINC01266
CD63
RAP1GAP2
LRIG1
STXBP6
AC013565.1
CYSLTR2
NAV3
ADAM12
SNCA
VAMP5
SLC7A14
CPA3
HCAR3
PTPRQ
CDH10
CCDC60
GCSAML
TMEM178B
LIPE
WDR64
HMMR
TENM4
LINC02234
SERINC5
AC012668.3
AL592043.1
ADRA2A
RPL14
AC069228.1
GPR85
MIR3142HG
ZNF730
SERPINE2
TBXAS1
AC113386.1
CD14
SGIP1
TSPAN13
LIPE-AS1
HOXD9
AL627309.1
CXCL12
ZNF711
TMEM217
DSCAML1
LINC00402
AC120193.1
NEGR1
AC026790.1
S100A16
CD59
GLRA2
AC002070.1
AC025524.2
AC113418.1
ANGPT1
TUBA1B
AC087280.2
AC110023.1
MSC
GRIN2A
SOX17
PEX5L
WIPF3
LINC02391
IFIT2
CSF3R
DOCK10
LAMP3
LAMA3
LINC01010
AC107021.1
LINC00923
AP000692.2
KCNIP2-AS1
FAM13A
LINC02237
AC011897.1
PDPN
ADIPOR2
PDE7B
SPRY1
PF4
CADM1
ISLR
DOCK5
AC037198.2
KLRF1
SEMA3E
LINC02550
TC2N
PDGFB
AC111152.2
CST3
NRK
ATP1A2
AL359220.1
AL138881.1
TPD52L1
PPP2R2B
AP003049.2
AC008014.1
GNA14-AS1
CRLS1
MRVI1-AS1
LINC01146
GRAP2
MYL12B
GTSE1
HOMER1
SPAG16
MUSK
PTPN22
LINC00840
IRS2
LINC01392
LINC00996
PRKCQ-AS1
AL358394.3
MME
CH25H
DOCK4
FHOD3
RPL3
SLCO6A1
NWD2
PTCHD4
STK17B
ESAM
SMURF2
ABI3BP
HIST1H4H
CDH11
ELN
AC124254.1
LINC00920
PDGFD
RARRES1
CRADD
SERPINB9
SORBS1
DNAH6
LRG1
TKTL1
IRS1
SCARA5
F10
SPATA9
RPS25
TRDN
CXXC4-AS1
CD81
KLB
LINC01060
AL691403.1
COL24A1
LINC01036
AP001599.1
AC018618.1
LINC02306
SNTG2
KBTBD12
TMEM132C
TENM3
AF130417.1
NTN4
AC007422.2
AC105411.1
C3AR1
TUBB4B
SOX7
LINC02540
UBB
SKA3
MID1
PLCL1
PLXNC1
PPP2R1B
OSGIN1
GLUD1
ENG
PTH2R
AC090709.1
HHLA2
LINC02525
SLC40A1
NPNT
APOBEC3A
KANK3
SYBU
BANK1
PPFIA2
CLEC4E
TUSC3
ELOVL5
PLIN4
HES1
GALNT17
JCAD
MT1F
LINC01515
FADS3
KCNT2
LINC01950
C10orf10
GRK3
ABRA
AP003481.1
RPS27
NRN1
ST8SIA1
ZNF804B
CHST15
CDC42EP4
ECM1
AC243772.2
PPIC
CDKN1C
ARAP2
LRRC9
ITGA11
TMTC2
KLHL13
STEAP2-AS1
IL15
KIF25
LINC01055
IQGAP2
CYBB
PECR
MCTP2
PPARG
ANKH
AC073612.1
C1S
FMO3
AC005224.3
RAB7B
NEXMIF
DMD
ALPK3
TSGA10
EGFLAM
SNCAIP
NPHP3-AS1
ZNF385D-AS1
LILRA4
LINC00942
COL4A1
TNFRSF10D
LST1
CA6
PRDX5
BBOX1
AC004158.1
FBXO43
AL357054.2
PLPPR5
SLC8A1-AS1
S100A13
TCOF1
NECAB1
SLC10A6
LINC01362
AC090833.1
TXNIP
TDO2
AC022893.2
AC025272.1
AL390964.1
CLDN1
FOXF1
SPRR2E
TPM1
BMPER
RIOK2
AC079015.1
POU6F2
CPXM1
PCDH17
FABP5
ITGAE
SELENOP
NTM
MIR646HG
HIF1A-AS2
PLA2G16
PRAM1
VCAN-AS1
PCAT19
RANBP17
AC113137.1
LINC02301
AP005328.1
MMD
FHL1
CHL1
ASRGL1
HJURP
AC007527.1
AC138965.1
AL109910.2
CBARP
CCR4
DEPDC1-AS1
LINC00382
SIGLEC6
Z83818.2
CSRP1
CALCR
IDO1
NTN1
DDX43
OSR2
CAVIN3
STAT4
LINC00534
JAM2
SEMA3D
DDIT4L
IKZF1
ARHGAP20
AC092546.1
PAK3
AC037486.1
KHDRBS3
AL359237.1
ADAM19
BHLHE40
RDH5
VGLL3
RBM20
AL442163.1
AC093607.1
TRAC
EPM2A
PBK
ZPLD1
SMIM25
GNA13
PTGIS
FAM160A1
AC099687.1
GNAI1
NXN
AP001021.1
GPR39
HHIP
ITGA1
ST6GALNAC5
PLCZ1
GALNT15
IQGAP3
FLI1
AC091013.1
CMTM8
PRDX1
KANK4
AC011247.1
FTH1
SLC16A7
DAPK2
EGR3
CRIM1
AR
TWIST2
AC011586.1
AC026523.1
CUX2
PGM2L1
ROBO4
EDA
KCNN3
CXorf21
RASGEF1B
LINC02378
PSME1
CENPK
LMX1A
AL139383.1
LINC00603
UBE2C
AC015819.2
KRT19
ACSS3
NDRG1
C14orf180
AP001005.4
PTGER1
RGS4
RRM2
SIX2
AC105243.1
HACD2
MX1
ENPEP
GBP4
AF111167.1
GDAP1
FMO2
LINC01580
NUAK1
PPP1R16B
DGKB
AC093865.1
TRAF1
AC006148.1
SCN1A
AC079380.1
C6orf141
FLNB
HRH1
UFL1-AS1
STPG2-AS1
NOVA1
SCML4
LINC02432
GLYAT
SLPI
GAS7
SLC25A21
FAM189A2
DNAJA1
ARHGAP18
AF130359.1
KCNK13
SLC18A2
RIMS1
THSD7B
AC091946.1
AC104078.1
BICDL1
LAIR2
NGF
AL391095.2
FABP9
ICAM2
PSMA8
ABCB1
FAM107B
SYCP1
AL138828.1
SCN7A
NNMT
MAP1B
SV2B
LINC01446
AC092264.1
ZFHX4-AS1
NMNAT2
LGR4
TOMM7
AC007100.1
CYP7B1
PRELID2
CAP2
MYO5C
PTPRJ
RTN1
FCAR
RGS22
OXCT1
PDE1A
IGHA1
AC090993.1
Z99289.1
ZFPM2-AS1
SOX6
AL355304.1
PALM2-AKAP2
LINC01846
MT1G
AC000124.1
TCL1A
GRIA1
DDN-AS1
AC012499.1
SFRP2
AC025569.1
AC073072.1
AC008050.1
MSC-AS1
GDF15
FIGN
MT-ATP6
AC004784.1
AC099566.1
OVCH1-AS1
RPS17
TCHH
AC009055.1
COL15A1
LINC02156
AC090371.2
PLIN1
S1PR1
NAMPT
LINC01572
MGLL
AC007743.1
POU2F2
AC092167.1
CLEC2B
AC091906.1
LINC01411
FYB1
SYNJ2
AL133346.1
DACT2
MEOX1
KCNB1
FAM102B
PDLIM1
SLC35F3
TLE1
CRIP1
H2AFY2
MNDA
KCNE1
CD28
AC095056.1
AC103726.2
LRRC3-AS1
CYGB
AC008127.1
LEP
COL6A1
CEACAM1
KCND3
AC026369.2
SEL1L2
SLC7A5
AEBP1
FSCN1
LINC01605
POLN
AL445250.1
OTUD1
NCR1
LY6K
AC015849.1
DCDC1
AC073359.2
SERPING1
MERTK
AL359232.1
PFKFB1
LINC00877
SSUH2
AC090531.1
DGKH
CASQ2
PLPP1
ELMOD3
RNLS
SMAP2
PRLR
RDH10-AS1
DPY19L2
CD2
MARC1
STAC
LRRIQ3
LAMA2
SEMA6D
SLCO2A1
TMEM2
AC098829.1
AC104304.1
RERGL
STAB2
IFI27L2
P2RY12
FGL2
PCBP1
PRDM6
AL122019.1
ASPH
TPTE2
KIAA1958
TEK
SCN2A
CD36
AC009478.1
MT1A
CTSB
AL442647.1
LTBP4
AL109930.1
ACSS2
ATRNL1
PLAC9
AC083923.2
AC007923.4
CD38
APOC1
CNTN1
TXN
EMILIN2
C14orf39
MGC4859
EHD1
PCBP3
LINC01301
ETS1
JPH2
GABRB3
IGSF11
LINC01913
SSTR1
AC090138.1
AL049836.2
AL117338.1
DIRAS2
IL13
ENPP1
VNN3
UBA6-AS1
AL365295.1
PNLIPRP3
SOD3
NETO2
RNF212B
STOM
RPL4
AC244205.1
KCNMB2
HEYL
AC108866.1
AC105430.1
SEMA6B
RPS20
AL390860.1
CD226
VKORC1L1
LEF1-AS1
RUNX3
AC010890.1
RNF152
AC005550.3
LUCAT1
CADM3-AS1
LAPTM4A
CARD11
RUNDC3B
LTA4H
GNA14
ZSCAN31
GREB1L
AC009226.1
PGM5
AC092674.1
CGNL1
GYPA
RND3
CD7
AC008056.1
TESPA1
NPY1R
CREM
HECW2
MAP3K2
TGFB1I1
TUBB1
PSG8
DAB1
NTF3
PTGFR
AC020704.1
LIX1
SCEL
AURKB
GAL
IL10
LVRN
CCDC83
THBD
RELN
LINC00504
DAB2
TUBB
AC066612.2
CLMP
CNN1
CECR2
FILIP1
VWA5B1
CLMN
P3H2
SPON1
AC092378.1
SLC44A5
OPRM1
COL27A1
PART1
ADGRG1
TRPM3
TMEM232
AC068759.1
AL359633.2
AP001922.3
GABRG1
LINC02197
TTLL10-AS1
TUSC8
LDB3
MGAM
TWIST1
MIR31HG
SYNPR-AS1
NCALD
GRM7-AS3
STIL
PCAT1
LY86
CFL1
NOP53
CHSY1
AC018697.1
KITLG
SPAG17
COL18A1
C15orf48
AC008011.2
MMP7
ARC
AC100803.3
KL
PRRX1
BCL2
AC098864.1
CD3G
LINC01619
COBLL1
SUSD5
NHS
NEDD4L
RPL27A
CD40LG
PCOLCE2
AL512422.2
AP000462.1
SLC1A1
NALCN-AS1
LINC02008
C1orf54
TCF4-AS2
ITGAD
AC012613.1
LINC00159
PPP4R4
AC004870.4
LGALS3
AC008591.1
CSGALNACT1
H2AFZ
SELENOW
RHAG
IL1RAPL2
FASN
GCH1
ARHGAP22
JAKMIP2
GPC6-AS1
RPL5
ANTXR1
PRDM16
GCLM
DIO1
HBEGF
KCNMA1-AS1
KCNMB2-AS1
EYA1
UST
AQP4
AC131025.2
MLPH
PKP1
DOCK3
AC117386.2
ESR1
SYK
PC
FGR
AC107072.1
FSHR
MS4A4A
LINC00535
SLFN12L
PARD6G
SV2C
SMAD1
SPSB1
FAM46A
PTPRC
CLIC4
SFTA1P
AC046136.1
LINC00299
ZNF367
SOD2
ID2
TTN
LINC02067
AC092435.1
ALOX15B
GBX1
ZNF80
TNFRSF21
FBLN5
ADGRD1
DDAH1
LINC01088
CNTNAP4
LCP2
MT-ND5
AC034206.1
FGF1
LINC02240
GRIK2
DYNLL1
AC008619.1
KRT18
LINC01901
TBX5
AP003555.1
CDH2
GADD45B
CCR1
LIPJ
NRIP1
AC002429.2
AC079950.1
LINC01603
AL390783.1
LOXL2
GPRIN3
C10orf107
CFAP221
CPPED1
RNF220
RAB20
SATB1-AS1
AL499616.1
CENPE
SLC22A3
CYR61
GABRA3
EFNA5
SEZ6L
AC004704.1
CYP26B1
IFI44L
FRMD6-AS2
FGF12
MRVI1
AL592295.4
MIR2052HG
AC087482.1
PPDPF
PHACTR1
AQP7
PIK3R3
UGCG
CX3CR1
SCN4B
DIO2
ZNF366
TAGLN2
H1F0
CYP1B1
MCF2L2
NFKBID
PDGFRA
OSMR
TNN
LAPTM5
IGKC
IL23R
CDKN3
FAM83D
EEF2
MKX
RERG
CHODL
CDC20
RASGRP3
LINC01435
AC104827.1
AC079760.1
AC016257.1
AC024361.2
AC005042.2
C1orf87
PTCHD3
AC023905.1
AC090948.3
SYT6
PDE3A
LPCAT2
CACNA2D3
OGN
COMP
PNPLA3
MYOM1
RAB11FIP1
COTL1
RPL36AL
CCDC129
SLC39A8
CALCB
ACSM6
TNFRSF19
OSTN
NYAP2
FAM184A
PTGIR
ZNF215
AC107029.2
AP001636.3
LINC00907
ATP1A1
TNFRSF4
RHOU
RNF165
SULF2
SLC35F1
MPZL3
POLR2L
C5orf64
AC004554.2
AL158198.1
LINC02312
KCNQ3
LINC01915
FFAR2
AC093766.1
SIM1
AC005580.1
LINC02416
DPP4
AC027288.3
AC109779.1
LINC01899
GALNT14
AXL
MMP2-AS1
CETP
ALOX5
LINC01725
SLC4A4
AC068992.1
CLECL1
PALMD
NACA
IL15RA
CASC8
COL4A2
COL5A3
AC010967.1
AC026904.4
AL450332.1
LAMA4
AC012485.3
HS3ST5
AC104596.1
EFNB1
ANKFN1
DYNC1I1
ANKRD30B
SPOCK3
IRGM
CEBPB
SCN4A
CRAT37
ZBTB7C
FLRT2
GRIA3
CTSZ
GFOD1
AC073941.1
KIR3DL1
STK17A
IDH1
IFITM2
PPP1R9A
KLRD1
B3GNT5
SGCZ
MTSS1
FAM72B
ODC1
TMEM182
AC090409.1
LINC01510
MDFIC2
MFSD2A
USP27X
SLAMF7
UNC13C
HCN1
DENND2A
AP000311.1
SLC22A25
JAG1
IL12RB2
ALDH1A1
AC110009.1
MXD1
AC021546.1
PRRG4
ZNF831
AC022217.2
DPH6-AS1
DLEU7
CLIC3
BTNL8
AP1S3
DPT
PRMT9
TULP2
KCNJ15
PPARGC1A
FAM84B
BAALC
LYZ
AC021086.1
FIRRE
FAP
PRKCH
GIPR
PIK3CG
DPYSL3
GRIP1
C1orf162
ANKRD45
RGS21
DSP
ABHD5
MT-ND4L
AC100768.2
ANXA1
DTNA
FAM69A
ARHGEF6
CHST11
MATN2
AP005329.2
AC021594.2
TRPM6
AC104123.1
RHOB
AC096564.1
NCF2
LDLRAD4-AS1
MREG
KLF5
NR2F1-AS1
AC119396.1
AC022294.1
AC023043.1
AC023347.1
AC040174.1
AC090592.1
KCNA1
VGLL1
ZBTB46
LINC02149
AL031727.2
KCNK2
ARL5C
HNF4G
STK38L
ACP5
TGFB3
AC092155.1
AC246817.1
CCR7
AC104078.2
LINC02006
LINC01794
PPP1CB
NFASC
LINC02133
LIN7A
LONRF3
DLEU7-AS1
GSTP1
AIM2
FAM198B
LINC02233
MYO16
PILRA
AC007319.1
ATP5D
GPR137C
NOCT
RTN3
PGM1
AC022173.1
AL160191.1
AL589642.1
ANKRD2
CLEC5A
ESPL1
PCDH10
AC105402.3
PYGL
AL356270.1
AC019117.1
GNAI2
STOX2
NOS1AP
PRC1
CHN1
KLHL31
LINC01538
EPB41L4B
HTRA1
SLA
TNFRSF10B
GRAMD1B
AC069023.1
LINC00882
CTSL
C12orf57
GRM5
CACHD1
AFF2
C11orf71
RAMP3
ITIH5
UNC79
HSPA8
LCP1
ADAMTS17
PTPRR
MMRN2
AL137186.1
TMEM200A
GPLD1
GLDN
UBASH3B
ADAMTS12
DLGAP2
NFKB1
AC107067.1
HUNK
ANK3
SIGLEC11
NPTX2
CDKN2A
IKZF3
ITGAL
ZEB1-AS1
EEPD1
LINC01482
ITGA5
AC006581.2
AC020911.2
LRRC8B
AP003063.2
SKAP1-AS1
ZFAT
AICDA
TSHR
P2RX1
LINC01483
AC008662.1
AC073352.2
GPR37
SMPDL3B
XCL1
FGF10-AS1
AC016907.2
GPR132
SH3PXD2B
PKIA
LRRC1
FRMD6-AS1
WNK2
NR4A1
AGPAT4
MRPL51
MARK1
PSD3
CIT
IL18RAP
LINC02426
SLC15A1
FHL2
MYL9
ITGA7
AC114760.2
ALPL
SLC16A2
C2orf88
STPG2
ANKRD29
RANBP3L
TFAP2C
AC004448.4
SERPINF1
AP001043.1
BOC
SIGLEC10
RILPL2
AC092114.1
AC121154.1
CYSLTR1
LOXL1
CROCC2
ZBED3-AS1
LIX1-AS1
RPLP2
MAMLD1
ADCY5
HSP90AB1
NRP2
HOOK2
PFKFB3
AC108062.1
DNAJC6
DAPL1
PEX11A
CP
PPP1R42
COL4A6
LINC02027
CCDC192
TLN2
AC093893.1
ATP13A5
DCX
WISP1
VWC2
VWC2L
NTRK2
AL162464.2
PLK2
FAM227B
PTPRF
RPL26
LINC00670
HRASLS5
MIR193BHG
AP003025.1
IFIT3
MAST4
AC073082.1
AP000446.1
TMPRSS4-AS1
AL356258.1
P2RX7
LINC02082
MYC
RGMB
ADAP2
IGSF23
MAP1LC3B
OLFML3
HIF3A
AL132671.2
MLXIPL
AL445426.1
CACNA2D1
TAGAP
NLRP12
AC063944.1
RALGPS2
TLE4
AC092746.1
RAET1G
AC016229.2
AP002784.1
BOLL
BUB1
KDF1
SPINK6
PRKG2
OLFM2
DEPTOR
AC109471.3
OTUD7B
CNGA1
LMNB1
GFRA2
GGT5
CD109
CASC2
KCNIP2
SOX5
CASS4
AC116353.4
HCST
PROK2
PTPRE
ADD3-AS1
AC006960.2
AC021192.1
AC023866.2
AC027237.3
RASGRF2
ETS2
CADPS2
AC124947.1
AC104151.1
AC004862.1
AC016708.1
RPL39
NDST3
DCDC2C
AC023034.2
AL139020.1
CNFN
FLG2
TNIK
BTF3
AC008448.1
AP002444.1
CHMP4C
LINC01428
CCDC172
FGF18
LRTM1
LINC02345
FGF12-AS1
AL078590.3
TRGC1
FAM72A
SYN1
H1FX
MELK
SYTL2
CYP4B1
MPP6
BMP2
MAP3K19
PIP5K1B
C1QTNF1
AC009975.2
CALR
SUCLG2-AS1
MOGAT1
NSUN7
AC069208.1
MGST1
AC110995.1
IMPG2
P2RY13
GABRA2
CD8A
ADAMTS9-AS2
GABRE
TET1
ACOD1
AC079793.1
PDGFRB
HTR3E
RAP2C-AS1
CFAP47
DOCK2
PGR
LGALS12
LINC01579
CPM
AL365259.1
SLC1A2
MSMO1
TPM4
DUSP14
SYTL3
AL138767.3
TM4SF1-AS1
AL357673.1
HS3ST3B1
ITGA2
MYRIP
PREX2
FGFR2
CLCA2
NGFR
RTN4RL1
AIF1L
CSRNP3
UTS2B
MAPK4
BACE2
AADAC
AC138627.1
AC005208.1
LINC01684
GCNT2
SLCO4C1
CCNA2
PLPP3
SPRY4-AS1
Z83844.2
KIR3DX1
FLJ31356
AC034195.1
EYS
GPR1
LINC01828
CCL19
SELENOM
RET
DMXL2
AL139260.1
CATSPERB
MEF2C-AS1
GJC1
SHROOM3
LGALS3BP
PHYHIPL
AIG1
CD200
ARHGAP6
PACRG
PWRN1
SLC6A9
TSHZ2
CD52
VMO1
LINC02469
AC026786.1
VAV3-AS1
CALB2
RPSA
GRK5
POT1-AS1
TNIP3
NRG2
LINC02360
AC078785.1
DBI
NFATC1
DUSP10
MORC4
FAM189A1
ARMC2
INMT
LIMA1
AC079760.2
GAS6
AC010175.1
ENAH
KLHL32
C6orf10
HSH2D
ADAM23
LRRK2
CA1
KCNAB1-AS2
OR9Q1
SMOC1
AL391807.1
AC011498.4
PLEKHA7
AC006305.1
RAPGEF4
LINC01611
AVPR2
AL357052.1
LCNL1
AC022017.1
AL137220.1
AC007091.1
EFCAB6-AS1
LINC01280
AC100768.1
CASC20
PCSK6
LINC01481
AL118508.1
DLGAP5
AC104248.1
HSDL2
TNFAIP8
SLC9A9
MLF1
AC116666.1
BDKRB1
AC087501.5
FER1L6-AS1
LMO2
SLC22A9
LINC02250
ANOS1
AC107419.1
APBA2
MCOLN2
CCNT2-AS1
SLC26A8
FAM43A
SLC16A14
HS3ST3A1
LINC00334
AP001527.2
HSP90B1
AC019130.1
IL26
AC246817.2
YAP1
AP002026.1
AC019330.1
LINC02438
LILRB5
DYRK3
SPSB4
AP000936.1
CRISP3
ZNF683
AL391704.2
SLC17A3
AC106798.1
AL160272.1
HMCN2
CLIC2
ANXA2
RASSF9
HDGFL2
SLC25A16
CD70
DANT2
LURAP1L-AS1
ARNTL2
GPR158
AC009063.2
GFRA1
C9
ZC3H12B
THSD7A
AC015914.1
BTG2
GPR176
DAPK1
MUC6
LINC02546
MANEAL
NECTIN3-AS1
AP001825.1
LINC02384
ROBO1
MIR3945HG
GPT2
NDUFA1
HMGCLL1
TNFRSF10C
BAALC-AS1
BSPRY
AC005008.2
AC100843.2
LINC01673
ST8SIA4
FZD6
PDZD2
AC087762.1
CD8B
ABCC9
ERV3-1
GJA1
OST4
MAP3K13
AL671511.2
CADM2-AS1
EMP2
NOP10
FOXO3
PLEKHG4
RGS7BP
KCNE4
IRF8
PDHX
AC008403.1
AC023034.1
AC098872.1
AC116348.1
AL592528.1
CRYBB1
KRTAP5-11
LINC01214
LINC01812
RAB39B
TRGV2
MFHAS1
CSDC2
CENPW
UQCRB
HFM1
HLA-E
SEL1L3
SLAMF1
LINC00926
PRELP
MAP1A
PER3
MYCT1
AC090844.2
ACMSD
EPHB1
AL356108.1
SUGCT
CACNB4
ACVRL1
AC025164.2
CCND1
FAAH2
STX11
AC104170.1
OSBPL10
PRNP
AL133417.1
LINC01871
PIK3AP1
DAD1
AC005674.1
AC008972.2
AC009152.1
AC009509.1
AC018814.1
AC073987.1
AC087241.3
AC092807.2
AC100863.1
AC103724.4
AC117377.1
AC126121.2
AC135012.3
AC253536.3
AL079304.1
AL157400.1
AL160262.1
AL357033.4
AL591848.2
AP004243.1
AP006248.4
DMRTA2
ERICH3-AS1
FAM26D
HAGLROS
HIST3H2BB
IL23A
KCNK17
KRT20
LINC01281
LINC01450
LINC01675
LINC02113
LINC02181
LIPF
MZB1
NKPD1
OR4D10
PCDHGA4
PTGES3L-AARSD1
RNASE2
S100A14
Z98200.1
Z98884.2
AC005162.3
CTIF
ARRDC3
IVNS1ABP
ADIPOQ-AS1
FKBP1A
PARD6G-AS1
GBP5
VIPR2
COL23A1
GATA3
RGN
ITPKB
LINC00970
PGD
CAV3
TENM1
PRPS2
ACO1
C8orf37-AS1
OR3A2
TMEM150C
NFIL3
GRID1
ETV1
EPSTI1
RRAS
AC084200.1
AC087164.1
AL583785.1
COLEC10
UCP1
ADAMTS19
HMGB2
C12orf60
AL590867.1
PDE2A
FAM46C
BLNK
EML6
AP002075.1
ABCA8
AC007495.1
PNPLA2
TIMP2
GLYATL1
FIS1
NOVA1-AS1
C12orf56
ALDH2
STEAP1B
AC007513.1
CNTN3
RIMS2
SAT1
PID1
PPM1H
AC003984.1
AC026250.1
AC078889.1
AC093305.1
AL353681.1
MAL2
ANGPT4
NDRG4
MDH1
IGLL5
HSPA1B
DDIT4
AFAP1L1
MIR100HG
ARHGAP25
AC107029.1
MCF2L
LINC01033
AL390036.1
BTLA
NPSR1
AC062032.1
SORT1
CABLES1
AC003092.1
AP005433.1
BMP3
LCN6
LINC00994
MIR4422HG
PLCE1-AS1
PRSS55
ZWINT
PITPNM3
AC093879.1
AC090630.1
AC078962.2
GRM7-AS1
REN
AC090579.1
LINC00884
VAV3
AC091078.1
KCNMB1
ARL4D
KCNMB4
LRP4-AS1
GNAT3
GRN
AC004687.1
CCDC102B
NIPAL1
AL590385.2
BTBD11
DNAH14
OLFML2A
GAREM1
MME-AS1
AC092422.1
UGT2B4
AC096711.2
AC022387.1
ABLIM2
MLKL
AC020558.1
RSPO3
ME1
HIST2H2BF
MMP26
SLC6A1
LAX1
MYO1D
SYT17
GLRX
CTNND2
RPL6
IDO2
SIPA1L1
FAM72D
TNFRSF1B
LRMP
FAM13C
AL591686.2
PKIA-AS1
GOLGA6L7P
EGLN3
PTN
AC007879.1
AC021351.1
CCND2-AS1
RASIP1
CNTN6
PLCB1
COL5A2
FAM19A2
EHD2
WASF3
NT5E
SCGB2B2
HDX
TMEM156
TNS1
KLF10
VKORC1
AL356124.1
TLL2
MAGI2
CDKN1A
GIMAP8
ZSWIM5
MIR3681HG
SERPINB9P1
TMEM51
LINC02398
AP003555.3
MAPT
AC008760.2
AC010655.4
WDR93
EMB
LONRF2
KPNA7
ZNRF3
GRIP2
COPS3
PLA2G4A
TIAM1
AC015878.1
LURAP1L
SNAPC1
AC099792.1
RAB39A
AP001007.2
C7orf69
AC005301.1
CMA1
AF127577.2
MID1IP1
AC010168.1
AC087289.3
LINC01111
PCLAF
DCC
AFAP1L2
PRKD1
CSF1R
ADCY1
AIFM2
NUDT4
NALCN
RPL24
KIAA0040
NRGN
ICA1
AC019131.1
FOXC1
SMIM2-AS1
SPINK5
ADRA1B
SLC38A4
RAB3A
AC024559.1
LINC00702
DCBLD1
AC022021.1
AC069294.1
AL355353.1
BX322562.1
DEFB132
GADL1
GPC5-AS1
TMCO5A
AC005076.1
AC009154.1
AC067747.1
LINC01805
AC009387.1
AC068580.4
NUPR1
EHBP1
AC011139.1
LINC01891
EPB41
TNFSF10
SLC24A4
IFI6
KIF21A
CORO1A
PDXK
HLA-DQA2
AC138123.3
SLC4A10
SLC7A10
LRRN4CL
CXCL17
MYO1F
TCF4
SLAMF6
BEND6
SGMS2
AC074033.2
AC109811.1
TSPAN18
SSTR2
SCN3B
RAI14
ABCB11
CPEB4
PDE10A
RHOBTB3
PCDH9-AS4
AC015712.2
FAM177B
ZFP36L2
NDC80
TTC9
AC109927.1
ITGB8
SLC2A9
AC090518.1
CC2D2B
KIF9-AS1
SPHK1
AC112487.1
HIGD1B
PHEX
CD34
NFAM1
FRMD6
IL10RA
AC007364.1
AC079907.2
AC092832.2
AC108159.1
TNFSF15
AC002480.2
AC007221.2
ADGRL3-AS1
AL592103.1
C1orf140
SCG3
SOAT2
AC244131.2
AC125613.1
LINC01170
LINC01163
ELOVL6
TESMIN
LDHC
ANKS1B
TMEM47
FNBP1L
BLM
LXN
ANKRD7
FLG-AS1
AL357060.2
CLMAT3
PTPRD
LINC01924
ATP10A
RETREG1
SIGLEC1
S100B
ACADL
AMPD3
TSPAN7
YPEL2
DNAJB4
SRPX
AC092944.1
TBX1
ADH4
AP003025.2
CSF2RB
LEKR1
SIPA1L2
PSMA1
CLSPN
ADCY4
AL355102.4
SLC2A2
AC007495.2
AP002991.1
AKAP3
COX6A1
INHBB
AC098679.1
ZNF608
PRKCQ
ACOXL-AS1
DLGAP1-AS4
FGF9
CD300LF
CHRM3-AS2
GC
FAM186A
AL034399.2
LINC02334
AL050403.2
EPHA1-AS1
NDRG2
CASC15
PLPPR4
COX7A1
PLLP
CLEC3B
SLC9A7
NBL1
MLIP
VEGFD
HES4
AC026333.3
JAG2
AL022322.2
TFPI
SERP2
AL121748.1
ABCA9-AS1
AC022540.1
SIRT4
ADD2
PSAP
FREM1
DISC1
FADS1
TOR3A
FGD2
ABCA5
PCDHB4
ANO5
AC004947.1
AC024603.1
AL121992.1
ERVFRD-1
TTC16
AC103409.1
TRGC2
ATP2B1-AS1
ADA2
LY96
C1QTNF7
RPL18A
AKR1C3
GS1-24F4.2
AL355076.2
MPEG1
Z93403.1
MEF2C
GNAL
AP000755.2
CERS3-AS1
HMGN5
AC092567.1
AC004461.2
AC008403.2
AC009041.1
AC012507.2
AC012625.1
AC022710.1
AC023283.1
AC025431.1
AC025580.1
AC026369.3
AC073283.2
AC079943.2
AC083837.1
AC090193.1
AC090774.4
AC092953.2
AC103764.1
AC104590.1
AC107980.1
AC109347.2
AC114489.1
AC125603.3
AC239803.1
ACBD7
AL133372.3
AL136322.1
AL160400.1
AL161421.1
AL162713.1
AL606970.1
AP001469.2
AP003500.1
AP003730.2
ARTN
BANCR
BX323046.1
CCDC160
CCL15-CCL14
CECR3
CHST1
DLX5
DSG1-AS1
F9
FITM1
GLT6D1
GRID1-AS1
HOXC11
IL24
KRTAP10-4
LHFPL1
LINC00494
LINC00867
LINC01479
LINC01822
LINC01936
LINC02366
NME1-NME2
OR52K1
PGM5P4-AS1
RSPH1
SAGE1
SLC4A3
SPTSSB
TTLL8
ULBP2
AL592295.3
AC024084.1
ASTN1
C9orf47
LOXHD1
TIPARP
CRYBG1
FAM159A
ARHGAP26
TRPA1
PODN
AL359710.1
RABAC1
TANC1
ST3GAL6-AS1
CD320
CLIC6
ENTPD3
BAG3
C1orf185
AC106028.4
SCIN
IRAK2
PKIG
LGI4
AL451062.1
GIMAP6
BIN2
GTF2B
AKAP12
EMX2OS
AC068756.1
MAL
RHOXF1-AS1
PTPN3
TMEM204
SLC19A2
ERC2
CHP1
HSPA4L
RYR1
EBF1
LINC02346
GIMAP4
AC099805.1
PKP2
FAT4
SPINK8
DIXDC1
AC010235.1
CYP19A1
LINC01618
AC111188.1
CCDC36
UBC
CD101
SLC12A2
ARHGAP44
CD300LB
AL589935.1
KLHL15
MAGI1
RHOA
VIT
LINC02446
AC116337.3
REM1
ADHFE1
AC020571.1
AC079467.1
AC004817.3
AC093390.1
AC098848.1
AL450311.2
AL513318.2
AP001437.1
LINC01799
LINC02083
FFAR4
RPS27L
SMTN
BHMT2
GLRA1
AC012322.1
AC103702.2
AC092920.1
STUM
HIST2H2BE
FYB2
N4BP3
SLC7A11
FBXO39
SHANK2-AS1
SLC16A6
CAMK2N1
RNF219-AS1
ZNF16
AF130351.1
ACTG2
NAALADL2-AS1
ATP9A
TRIB1
ZC4H2
CDH23
PPIB
ARHGEF28
STAB1
TNFSF9
CR1L
PPA1
NLRP2
ITSN1
MTUS1
CPS1
ABHD12B
COX4I1
MARCKSL1
DAAM1
AC009902.2
SLC16A1
AC015971.1
SOBP
AL590764.1
MIR548A1HG
AL078459.1
AC092142.1
AL022068.1
IFRD1
ADGRL2
HAL
ELL2
AL139237.2
PLEKHB1
ZNF114
AC018521.1
AC128707.1
CLUL1
ZNF117
ACER2
HECA
COX14
AP000919.2
HEG1
AADACL2
TNFSF8
CD6
SLC26A4
HMGA2
AC096558.2
EXOC3L4
DCHS2
AC087286.2
HSD11B1
TPI1
AC112496.1
PAX3
AC068305.3
CSTA
OSBPL6
ACE
AL161751.1
AC012370.2
TRIM29
ATP8B4
AC018647.1
AC007272.1
RAB19
CDC7
GLIS1
TTYH3
LMO1
CPD
LINC01942
AC107032.2
ABCG8
AC073365.1
GSDMB
PRICKLE2
AC009563.1
TENM2
EHHADH
OLFM1
KCNK6
STON2
CCDC170
SPOCK1
NMD3
FAM89A
MIR3936HG
SNHG9
ABCA9
HIST1H4C
EZH2
AL157896.1
KCNA4
GNAZ
GZMK
MIR4300HG
THSD4-AS1
MTHFD1L
RNF157
RNF150
CTTNBP2NL
MRC2
CDC37L1
AC109492.1
NOS3
MKRN3
FAM110D
CHML
LINC00113
GPR156
ST7-AS2
CALN1
AC087855.1
PLS3
AL512638.2
TUBB2A
OSBPL3
PQLC2L
AC126177.4
AC133065.1
EPB41L4A
FXYD6
TTC39C
PRCP
IFITM1
AC016924.1
NEU1
TJP2
PLCG2
AC010255.1
FERMT2
MAP3K20
NWD1
AC008780.1
STK32A
AC008514.1
LINC00271
ASPN
MIR181A1HG
C2CD6
AC025465.1
AC019080.5
AL139147.1
CDK1
IRF6
LINC01387
SLC22A2
LRAT
PADI4
ZNF365
COX6C
AC055758.2
DIO2-AS1
MAGEH1
SULT1A2
CHST4
TMEM74
DMKN
CHST2
SLC43A2
ESR2
WASF3-AS1
CYFIP2
BDNF-AS
SFRP1
CMTM7
ST6GAL1
PLCXD2
SLC9B2
DOK5
AC011625.1
APOL6
MSANTD3-TMEFF1
STK33
MICAL2
EXPH5
IGF2BP2
AC019183.1
LINC02057
POF1B
LINC02198
EGR2
LAMB2
PHLDA1
FASLG
ANGPTL1
MS4A14
TMC7
ZSWIM4
AC099314.1
AC117386.1
AC117944.1
C1orf158
EXO1
GALR1
LILRB1-AS1
LINC01323
MYOZ1
PACRG-AS3
F3
SLC25A25
KCTD16
KIF6
LINC01708
FLT4
ABTB2
CPEB1
AC123912.4
AC012501.1
LZTS1
ZNF582-AS1
SMAD9
SERPINH1
FBP1
AL513283.1
SEMA6A-AS1
TMEM120B
MBOAT2
EYA2
MALRD1
TNFSF13B
HIF1A
EIF5A2
VASH2
CPEB2-AS1
AC010173.1
BCHE
RTL9
AP003063.1
AC008878.3
GMFG
NAA11
MPP7
DUSP7
MAT2A
CXADR
OOEP-AS1
PLA1A
PRDM8
PIK3R5
OSCAR
AC008534.1
AK5
RGS17
AC006042.4
AC010983.1
AC016405.3
AC017048.3
AC243965.1
ACHE
AL049838.1
AL133215.2
AL138899.1
AL354896.1
ANKLE1
AP000275.2
C2orf50
E2F7
EPHX3
EPOP
FIGLA
FRMD7
HABP2
IDH1-AS1
LINC01744
LINC01800
LINC02160
LINC02344
LRRC70
LYPD1
MYCL
NPFFR2
PGC
SACS-AS1
SMIM23
Z84468.1
AC007595.1
AC018695.6
AC020907.3
AC044802.1
AC073508.2
AC099811.2
AC100849.2
AC104260.1
AC147067.2
ACE2
AL391152.1
FTCD
FUT7
LINC00051
LINC01705
MYL1
SYNDIG1
PBLD
ISG15
SCARA3
JARID2
DBN1
AL031280.1
GATA2
VIPR1
PRTFDC1
PLEKHG6
LDLRAD3
PGF
SAMHD1
MX2
APBA1
LRCH1
KCNS3
MEIS1
AL133480.1
DGAT2L6
HIVEP3
ATP8A1
AC068413.1
PXDN
AL355916.3
AC008758.2
AC243654.1
KIAA0825
CABP1
DHRS3
IER2
BCAM
CNTNAP3
GPR160
CDS1
ARHGAP29
CDHR3
LDHA
AC097716.1
RFLNB
AL136298.1
DEC1
ASS1
UBL5
TTPA
SPECC1
LINC02115
SEPT4
AL359922.1
KIAA1324L
XAF1
ZRANB2-AS2
BCKDHB
HLA-DMB
AURKA
SNAP91
ANKRD34C-AS1
HTR1F
SOCS2-AS1
ETV5
BGN
UNC5B
PAQR5
POLQ
AC091948.1
THRB-AS1
SLCO1C1
AK4
SAMMSON
AP1S2
C11orf44
AC138305.1
LINC02405
GPR34
SH2D3C
TESC
RNF217-AS1
LRRC32
LINC01586
NKAPL
CRYM
PTAFR
ARL2
ZNF208
HBG1
B4GALT1
ARHGAP26-AS1
ATF5
AC010255.3
AC090376.1
OVOL3
TSC22D2
MGC32805
GRHL1
RUNX2
AC005586.1
AC010969.1
AC100801.1
AC133961.1
AL158055.1
BRINP2
CBLN1
DRD2
HSD17B2
LINC01796
MIR4500HG
TEX9
CD5
TNFSF12
GALNT16
SLC15A5
AL139294.1
NDUFB10
TMEM70
AL357153.2
APCDD1L-AS1
AL096772.1
PRKG1-AS1
AC010333.2
DUSP19
AL357992.1
AC090204.1
PAWR
NR2F1
ITLN1
AP000282.1
TRAF3IP3
STXBP5-AS1
FOXP2
EXOC1L
LINC00944
LINC00658
C8orf34-AS1
AC097059.1
IL20RA
LINC01484
AL160408.1
AC008496.2
AC009630.1
NDUFB4
SERPINI1
SLC26A7
IFI16
AC018512.1
ECHDC1
MAP1LC3B2
MEI4
AC009139.2
PLEKHA6
FCGR2A
ENAM
VSTM5
AC099062.1
AC140912.1
LYPD6
CD84
EBI3
CPLX2
FAT1
GPR146
MYO3A
GALNT3
EIF4A3
TRPC4
TMEM71
YWHAB
CYP1B1-AS1
BMP7
ACOT2
GDF10
PSG9
SLC38A1
SLC6A8
CETN2
AGPAT5
LINC02004
HDAC2-AS2
AC008592.4
ITM2C
DENND4A
C12orf75
AC005180.2
AC116407.1
AL121672.3
AL139042.1
AOC1
LINC01105
AC005840.5
AC007192.1
AC007365.3
AC137579.2
FAM110C
FAM3B
FP700125.1
HRK
MAGEC3
REP15
SPINT4
TRPM8
LARGE-AS1
PRDM1
ABCA1
CRB1
LINC01990
CEBPD
CCM2L
AC091940.1
OIP5
CNNM2
AC002546.2
PAPPA
AC110760.1
LINC02307
PBX1
ROR1-AS1
CYTH4
M1AP
AL583836.1
ITPR1
DACT1
TRIM9
SLC26A2
TTC38
NEURL1
LINC02202
NDUFB7
RRAS2
FAM213A
LCK
TUSC5
DPH6
FAM222A
CD4
NR6A1
AC078955.1
VEPH1
TMEM161B-AS1
LINC01476
TNFRSF12A
PLIN2
MN1
RFX8
AC004257.1
STYK1
SLIT3
DMGDH
HACD3
AC025576.2
AC131956.2
PKHD1
COX10-AS1
AC068025.2
PPFIA4
YWHAH
AF165147.1
PGR-AS1
AL049869.2
AC010636.2
IQCJ-SCHIP1
AC009271.1
AC087269.1
AC096667.1
AC128685.1
C14orf144
GLIS2-AS1
LINC00824
OPN4
AC007938.2
WNT4
WSCD2
AC060809.1
METTL24
CCDC158
LINC02254
MAP3K5
AC078845.1
DLGAP1-AS5
AC117834.1
AC009686.1
PARPBP
AC005162.1
GNAT2
HIF1A-AS1
SMAD9-IT1
UBE2T
TSPAN2
TXLNB
AC007388.1
EFEMP1
KIAA1549
LILRB2
PRUNE2
AC105001.2
CELF4
CEP152
CDC25C
HERC5
AL139023.1
LINC02477
AC002480.3
AC025946.1
AC110079.2
AL358394.1
AC004973.1
AC010230.1
SLC7A6
ATP6V1C2
VSIG4
SAMD5
GABRP
LINC02328
SYCP2L
RHBDL2
CSMD2
RAC1
WDR83OS
LINC01762
STEAP2
NDFIP2
DIO3OS
ARL4C
ICAM4
TEX48
XCL2
GADD45A
AL596218.1
RCAN3
KRT10
CD209
GALNT6
AL160314.2
PVT1
SH2D1B
AL133415.1
AGBL3
AC006299.1
ITGB4
AC092650.1
MIR34AHG
AL591368.1
SMC5-AS1
LCMT1-AS1
FAM151B
TDRD1
CLEC4G
AC012464.1
ATP5J
KCNN2
PLK4
AL365203.1
CATSPERE
AC007608.3
AC007996.1
AC011773.4
AC034238.1
AC067931.2
AC087752.4
AC090241.2
AC093227.3
AC098936.1
AC121338.1
AC128709.2
ADH7
AL354936.1
AL359636.1
AL445430.2
AL645940.1
AP000640.1
ASB4
BEST2
C20orf166-AS1
CASC6
CDT1
CHRND
CYP4A22
FUT8-AS1
GALNT5
HOXB9
HSPB9
KCNK9
LINC01490
LINC01937
LINC02236
LINC02258
NMU
NRARP
PCDHGB2
SOX15
TAC3
TDGF1
TLR10
TMEM63C
UFSP1
UMODL1
C11orf63
EPHA7
TREM1
AC004594.1
WDR78
AC004917.1
KIAA1211L
FBXO17
IL21
BAX
ITGA10
AC022915.2
PLPPR1
AL121985.1
TRIAP1
AC135050.3
SRSF12
PTGES
DUSP6
LMO3
FXYD5
AL049874.3
CCDC181
FREM2
CCR3
THEMIS2
GALNT12
RNF180
OLMALINC
ZNF19
KLRC4-KLRK1
C3orf67-AS1
BRIP1
TIE1
AL591806.3
AC244517.11
NR1D1
RPS29
IL2RG
CEACAM21
ZNF503-AS1
CFI
WDR11-AS1
C3orf79
HAVCR1
DIRC2
TCEAL8
ELK3
ADAM15
AC092809.2
AL139158.2
LINC02518
AC125618.1
SIRPB2
AP001528.2
AC016876.3
AL139412.1
FCGR1B
AL157413.1
AL353811.1
AP003717.1
CILP2
IGLC2
OVCH2
LINC00506
AC105277.1
MIR4713HG
RASAL2
RETSAT
GIMAP1
CFAP43
RNF175
GNGT1
XKR9
PIR
WNT10B
SOS1
AC105001.1
CASKIN2
LINC00886
KIRREL1
KANK1
HIC1
C9orf92
BTNL3
POU2F3
CSAD
AC103770.1
CFAP54
AC005165.1
PRKCA
LINC02542
ANKRD55
LINC01169
SESN3
MYO3B
HORMAD1
LINC00441
TRIM59
AC096576.2
TXNRD1
AC099063.1
AC099518.3
LAPTM4B
SELL
SLITRK4
RHBDL3
AMMECR1
SLC47A2
CYCS
SLC4A8
ALKBH7
TSPAN12
STOX1
AC104779.1
AC245128.3
AL358333.1
AL512330.1
CMTM2
MAN1B1-AS1
AC010643.1
CYP2C8
ARHGAP28
DUSP5
BZW2
SH3RF3
KCTD1
TMEM135
AP003356.1
GXYLT2
AC114808.1
LINC02105
STX17-AS1
SLC39A12
AP002370.2
LOX
WWC1
HS3ST1
AL807742.1
ZBTB16
DIAPH2-AS1
FMNL2
ADGRG2
MYLK
ACOXL
TBX2
RBKS
AC008522.1
AP001021.2
AC090115.1
LINC00240
BOK
PTPRK
FKBP5
CD3E
ZFP36L1
LINC02185
AC008250.1
AC109462.2
AP001604.1
GLT1D1
SYT12
ANO6
MAFF
IL1RAP
CDC14A
NIPSNAP3B
CCND3
TRIM36
ARL6
MIR503HG
TMEM144
AC021231.1
FOXN2
SEC61G
AL162411.1
AC016746.1
IYD
PROX1-AS1
SLC39A4
RBPMS
GRIK4
CCDC173
SCARB1
CAT
DPYSL2
NUP62CL
TSPAN8
AC020611.2
KLHL6
MAP3K20-AS1
CFAP69
LRGUK
ECSCR
TP53TG5
ANKDD1B
AC023051.1
AL606804.1
COL11A1
ETNK2
AC026458.2
AC092611.1
AP002387.1
FOXS1
LINC01886
SLC4A9
AC005832.4
AL121830.1
CCRL2
LINC01951
STAR
KCNJ6
LINC02407
LRRC53
ATOH8
NEDD9
PTCHD1-AS
SLC22A10
EGR1
UQCRQ
DPEP2
LINC02206
ACSF2
SMARCA1
AC097717.1
LINC00519
CACNA1A
LRRC63
BMP2K
SPAAR
WDR31
GUCY1B3
SAMD13
TSPAN15
CD3D
PRKX
ZNRD1
NFKBIA
CDON
LHX6
AC009041.2
FAM81A
C3orf58
PIM1
FAM214A
CNTN2
MAPRE2
ACLY
LRRC2
B3GALNT2
C12orf40
LIMS1
IL21R
SRC
CD82
CFAP161
RAD23B
AC244021.1
CYP39A1
SGCE
CNTNAP3B
AC005064.1
AL009176.1
CENPM
GRIK1-AS1
ICAM5
SMG7-AS1
UPK1A-AS1
AL355315.1
NR1D2
LINC01798
MYO5B
RCSD1
KIF18A
RNF24
ZNF710
CYP46A1
NEO1
LINC01550
A3GALT2
AL731563.2
CNTN4-AS1
GCSAM
LINC01811
LINC01878
XDH
AL356417.2
AC020718.1
KBTBD8
SLC52A3
AC007161.3
HHIP-AS1
ADAM8
AC007611.1
C4orf19
IRX6
PPP1R3C
LINC02447
AC008033.3
AC011824.2
AC021491.4
AC022537.1
AC053503.2
AC060234.2
AC069200.1
AC069213.1
AC087235.1
AC090458.1
AC104233.2
AC134312.5
AL023583.1
AL031283.2
AL031847.1
AL139125.1
AL590432.1
AP005271.1
BNC1
CT55
GLB1L2
GRPR
HBM
KCNQ1-AS1
LINC00881
LINC01012
LINC01320
LINC01935
LINC02308
RAB17
SIRPG-AS1
SLC26A9
SLC30A2
TBX10
TM6SF2
ZNF793-AS1
AC008035.1
AC010894.2
AC024257.4
AC087636.1
AC092542.1
AC096588.1
AC108488.1
AL354702.2
HTR2A
KCNJ16
LINC00676
NPIPB8
TMPPE
AC007114.2
GADD45GIP1
MAATS1
AC092652.2
WDR63
MICALCL
AC093206.1
SSC5D
IL34
DOCK9
KSR1
UBASH3A
PIK3CD-AS2
PRKAA2
MIR222HG
ANO4
NBAT1
ZNF827
AC011306.1
AC138894.1
JCHAIN
AL109955.1
ST20-AS1
ABI3
RFC3
HADH
WDR17
AL139317.1
LINC01258
LRFN2
DSC1
LINC01606
ITGA3
WNT9A
HLX-AS1
ZBTB46-AS1
ALDOA
LILRB1
MCOLN3
BRCA2
CCL13
FAM169A
TTLL7
ADAM22
VAT1
CTNNBIP1
SAP18
TET3
FGD4
AC092535.3
PAK1
RARB
AC024909.1
C3orf52
GAS2
AC011416.4
AC090572.2
AL353626.1
C21orf91-OT1
CADM2-AS2
LINC01807
MDH1B
MSTN
SH2D1A
SLCO4A1
SFMBT2
ARID5A
ISPD
AC009961.1
AC016909.2
KCNG2
AC004839.1
LAG3
LINC01840
PHLDA2
WASF1
NDN
AC073592.1
KDM4D
AC022360.2
ALDH1L1-AS2
SRPX2
IKZF2
MEP1B
AC010997.3
PEA15
MPPED2
HOXB7
ATP6AP1L
DNM3
FAM126B
AC024257.1
SH3GL2
TDRD5
LGR6
GLIPR2
EAF2
AC009884.1
ABCG1
BCL6
CCNB2
PURG
SYCE1
TNNT3
AL391097.1
AC097460.1
MINDY1
AC078828.1
RAB32
AC022796.1
TLR7
AC078881.1
FAM117B
CALM2
RFX3-AS1
RPS6KA2
CTSA
ACPP
IER5L
NKAIN3
ADGRE3
PFKFB4
DDHD1
PARP14
APCDD1L
GYS2
COX6B1
SPESP1
CDH1
KCNH8
FGD5
C9orf147
SERPINA1
AC079226.2
TMEM131L
UBA2
SEC14L1
FBXL2
PLS3-AS1
CENPH
CPB1
DHDDS
ROMO1
SLC22A15
IGSF21
GOLM1
PROS1
UACA
AC068775.2
AC091979.1
ZIM2
PLSCR1
AC130324.2
CDCA8
LINC01121
AC016885.2
AC092769.1
LINC01788
LINC01791
NTRK1
PCAT4
PRKCG
SULT1C3
TAF1A-AS1
KIF15
FAM180B
PPM1L
SYT2
CCDC196
PLEKHH2
SERPINB1
AC079329.1
HIST3H2A
LINC01600
AC093635.1
FLG
GATA1
GPR19
LINC00407
LINC01215
PTPN5
SLC16A12
AC008415.1
AC091212.1
ADH1C
SH3D19
AJAP1
ANKRD31
FCER1G
EFCAB5
NPAS2
AC005697.1
SLC7A1
AC068722.1
SHC4
AC022126.1
AC138356.3
RNF43
LINC00649
PFDN5
PLEKHA4
DHH
GLRA3
LINC00314
MASP1
SLC6A6
MYO15A
AMPH
FAM60A
CMPK2
TMEM236
PLS1
SLC35F4
AC008147.2
PHKA1-AS1
LINC02389
HRC
LINC02519
PPP1R12B
MRAS
CCDC34
CMYA5
NRP1
AC023796.2
AC025576.1
AC037198.1
AC128689.1
AMBP
FXYD3
LINC02437
OR2A5
RNU6ATAC35P
SLC22A24
SP140
IL20RB-AS1
LILRB4
PGM3
DCLK2
APP
REC114
C2CD2
AL137789.1
TAC1
PTPRO
CFAP70
FCGR2B
BCL2L11
FAM124B
AC134511.1
AL365361.1
AC008074.1
SPOCK2
CNTN4-AS2
APBB1IP
MAGED1
ARL17B
C17orf64
AC006160.1
C4orf3
LINC01933
AC007563.2
AC006504.2
ADGRV1
PDGFC
GRIN2D
SLC13A3
C22orf34
RAPGEF4-AS1
ARL6IP1
PKM
EFHD1
ROR1
SLC38A2
HIP1R
AB015752.1
AL031686.1
FRK
TMPRSS11D
AC018816.1
AC073626.1
SULT1C2
PITPNC1
AC084880.3
LINC01558
SLC9B1
GLRB
C6orf132
BTBD16
AC010735.2
CALM3
NOVA2
AC079209.2
AC139713.2
GCNT1
NEDD8
AC012594.1
ZNF792
BEX2
LINC01640
MGC27382
MOXD1
AC090826.2
AC093523.1
KLF4
COX7C
ATP2A1
CNR1
AC114763.1
ARPC1A
TMEM184C
SRD5A3
AL034417.3
MEFV
MYH13
COX8A
SLC1A7
RAC2
FCRL6
SPTBN4
TRPC3
AC099753.1
AL360091.3
AC004149.1
AC004232.2
AC005757.1
AC005954.2
AC007938.1
AC009812.3
AC012301.1
AC013476.1
AC015660.3
AC021683.2
AC022809.1
AC026992.1
AC079209.1
AC079584.1
AC087386.1
AC089999.3
AC091117.2
AC091488.1
AC092809.4
AC093627.4
AC104232.1
AC104777.2
AC116345.1
AF001550.1
AF111167.2
AL008582.1
AL158064.2
AL356272.1
AL356441.1
AL358335.2
AL358472.3
ALDH1B1
AP003555.2
ASB15
BACH1-IT2
CCKBR
CCNI2
CTSV
DNAJB5-AS1
FAM133A
FOXD2-AS1
GCNT4
HOXC5
IGHEP2
LINC00570
LINC01681
LINC01765
LINC02044
LINC02056
LINC02177
LINC02461
LTK
MEX3A
MIR663AHG
OR1C1
POPDC3
RTN4R
TMSB15B
KPNA2
COQ8A
STX3
TMCC3
SMIM3
COPG2
TRMT112
CAB39L
AL589843.1
PRKCA-AS1
TBX18
C4BPB
CLDN18
TBC1D30
NEXN
SNCG
PLA2G6
SLC12A8
SPEG
LINC01252
UQCR10
PATL2
LINC02341
AC111194.2
AC087321.1
LINC02086
AC008667.1
SERTAD4
AC073316.3
AC092431.1
ATP5H
GDPD1
MKL2
ARHGEF40
LINC02172
TXNDC8
C17orf99
AL355773.1
KCNK1
C4orf36
AC005906.2
CHST8
VDR
PPFIBP1
AC022424.1
GATA2-AS1
HSPB6
PGBD5
OCA2
TPD52
CNKSR2
BACH1
RSPH3
MOV10L1
FRY
AC099520.1
AC139769.2
CD244
DENND5B
CEP126
GPR173
TAX1BP3
ANO1
FREM3
LY6E
PIM3
HGF
