0.06862745098039214
0.06862745098039214
0.08982035928143715
0.03878583473861721
0.12307692307692301
0.043165467625899276
0.1827956989247312
0.043165467625899276
0.060674157303370786
0.025641025641025644
0.06862745098039214
0.08982035928143715
0.013499480789200418
0.07816711590296498
0.08982035928143715
0.03878583473861721
0.060674157303370786
0.03148425787106447
0.010607521697203474
0.05394190871369296
0.06862745098039214
0.03878583473861721
0.023136246786632394
0.01687289088863892
0.08982035928143715
0.060674157303370786
0.05394190871369296
0.018779342723004692
0.05394190871369296
0.060674157303370786
0.043165467625899276
0.03878583473861721
0.025641025641025644
0.060674157303370786
0.06862745098039214
0.060674157303370786
0.05394190871369296
0.043165467625899276
0.020858895705521477
0.03492063492063492
0.020858895705521477
0.060674157303370786
0.060674157303370786
0.03878583473861721
0.05394190871369296
0.04816955684007708
0.023136246786632394
0.03492063492063492
0.043165467625899276
0.04816955684007708
0.08982035928143715
0.07816711590296498
0.012
0.05394190871369296
0.04816955684007708
0.07816711590296498
0.023136246786632394
0.23489932885906029
0.060674157303370786
0.07816711590296498
0.060674157303370786
0.025641025641025644
0.028409090909090908
0.07816711590296498
0.060674157303370786
0.08982035928143715
0.060674157303370786
0.018779342723004692
0.060674157303370786
0.06862745098039214
0.043165467625899276
0.05394190871369296
0.060674157303370786
0.043165467625899276
0.043165467625899276
0.07816711590296498
0.01511879049676026
0.025641025641025644
0.14798206278026915
0.060674157303370786
0.04816955684007708
0.03492063492063492
0.07816711590296498
0.06862745098039214
0.06862745098039214
0.04816955684007708
0.1827956989247312
0.028409090909090908
0.04816955684007708
0.07816711590296498
0.020858895705521477
0.05394190871369296
0.04816955684007708
0.060674157303370786
0.060674157303370786
0.04816955684007708
0.08982035928143715
0.06862745098039214
0.043165467625899276
0.018779342723004692
0.060674157303370786
0.03492063492063492
0.03148425787106447
0.043165467625899276
0.03878583473861721
0.060674157303370786
0.013499480789200418
0.04816955684007708
0.07816711590296498
0.14798206278026915
0.06862745098039214
0.06862745098039214
0.03148425787106447
0.07816711590296498
0.060674157303370786
0.04816955684007708
0.06862745098039214
0.01687289088863892
0.060674157303370786
0.018779342723004692
0.03878583473861721
0.03492063492063492
0.06862745098039214
0.028409090909090908
0.05394190871369296
0.03878583473861721
0.03492063492063492
0.3214285714285709
0.060674157303370786
0.043165467625899276
0.07816711590296498
0.08982035928143715
0.043165467625899276
0.08982035928143715
0.05394190871369296
0.060674157303370786
0.01687289088863892
0.08982035928143715
0.060674157303370786
0.08982035928143715
0.060674157303370786
0.06862745098039214
0.06862745098039214
0.043165467625899276
0.020858895705521477
0.060674157303370786
0.08982035928143715
0.05394190871369296
0.010607521697203474
0.03492063492063492
0.03878583473861721
0.12307692307692301
0.05394190871369296
0.05394190871369296
0.018779342723004692
0.06862745098039214
0.05394190871369296
0.12307692307692301
0.08982035928143715
0.06862745098039214
0.06862745098039214
0.04816955684007708
0.03492063492063492
0.013499480789200418
0.020858895705521477
0.060674157303370786
0.01687289088863892
0.05394190871369296
0.043165467625899276
0.06862745098039214
0.06862745098039214
0.23489932885906029
0.03148425787106447
0.04816955684007708
0.03148425787106447
0.06862745098039214
0.020858895705521477
0.07816711590296498
0.12307692307692301
0.023136246786632394
0.05394190871369296
0.10437710437710437
0.08982035928143715
0.025641025641025644
0.060674157303370786
0.060674157303370786
0.07816711590296498
0.023136246786632394
0.03492063492063492
0.018779342723004692
0.12307692307692301
0.06862745098039214
0.10437710437710437
0.01511879049676026
0.06862745098039214
0.020858895705521477
0.05394190871369296
0.04816955684007708
0.06862745098039214
0.028409090909090908
0.020858895705521477
0.060674157303370786
0.028409090909090908
0.05394190871369296
0.03878583473861721
0.06862745098039214
0.05394190871369296
0.05394190871369296
0.06862745098039214
0.060674157303370786
0.06862745098039214
0.05394190871369296
0.03148425787106447
0.05394190871369296
0.06862745098039214
0.03878583473861721
0.05394190871369296
0.01687289088863892
0.07816711590296498
0.060674157303370786
0.06862745098039214
0.04816955684007708
0.043165467625899276
0.03492063492063492
0.07816711590296498
0.04816955684007708
0.060674157303370786
0.07816711590296498
0.060674157303370786
0.03878583473861721
0.05394190871369296
0.07816711590296498
0.01511879049676026
0.043165467625899276
0.05394190871369296
0.018779342723004692
0.03878583473861721
0.03492063492063492
0.05394190871369296
0.043165467625899276
0.03878583473861721
0.01687289088863892
0.03492063492063492
0.06862745098039214
0.12307692307692301
0.08982035928143715
0.03878583473861721
0.06862745098039214
0.05394190871369296
0.01687289088863892
0.08982035928143715
0.04816955684007708
0.028409090909090908
0.012
0.01511879049676026
0.07816711590296498
0.10437710437710437
0.060674157303370786
0.018779342723004692
0.05394190871369296
0.043165467625899276
0.043165467625899276
0.05394190871369296
0.08982035928143715
0.01687289088863892
0.060674157303370786
0.05394190871369296
0.06862745098039214
0.05394190871369296
0.07816711590296498
0.043165467625899276
0.03492063492063492
0.12307692307692301
0.025641025641025644
0.028409090909090908
0.020858895705521477
0.05394190871369296
0.08982035928143715
0.06862745098039214
0.05394190871369296
0.01687289088863892
0.08982035928143715
0.060674157303370786
0.04816955684007708
0.06862745098039214
0.06862745098039214
0.14798206278026915
0.023136246786632394
0.060674157303370786
0.04816955684007708
0.4933333333333338
0.01687289088863892
0.03492063492063492
0.04816955684007708
0.05394190871369296
0.1827956989247312
0.03492063492063492
0.025641025641025644
0.07816711590296498
0.03878583473861721
0.060674157303370786
0.10437710437710437
0.03878583473861721
0.06862745098039214
0.060674157303370786
0.013499480789200418
0.023136246786632394
0.03148425787106447
0.043165467625899276
0.07816711590296498
0.03492063492063492
0.060674157303370786
0.060674157303370786
0.04816955684007708
0.06862745098039214
0.060674157303370786
0.07816711590296498
0.05394190871369296
0.07816711590296498
0.05394190871369296
0.04816955684007708
0.04816955684007708
0.020858895705521477
0.10437710437710437
0.043165467625899276
0.043165467625899276
0.03148425787106447
0.03148425787106447
0.025641025641025644
0.060674157303370786
0.060674157303370786
0.060674157303370786
0.03878583473861721
0.06862745098039214
0.05394190871369296
0.028409090909090908
0.08982035928143715
0.04816955684007708
0.03878583473861721
0.03878583473861721
0.04816955684007708
0.060674157303370786
0.028409090909090908
0.060674157303370786
0.020858895705521477
0.043165467625899276
0.05394190871369296
0.06862745098039214
0.06862745098039214
0.05394190871369296
0.03492063492063492
0.043165467625899276
0.06862745098039214
0.10437710437710437
0.03878583473861721
0.060674157303370786
0.043165467625899276
0.043165467625899276
0.08982035928143715
0.020858895705521477
0.04816955684007708
0.08982035928143715
0.04816955684007708
0.023136246786632394
0.060674157303370786
0.04816955684007708
0.03148425787106447
0.060674157303370786
0.06862745098039214
0.03492063492063492
0.08982035928143715
0.10437710437710437
0.023136246786632394
0.03878583473861721
0.06862745098039214
0.025641025641025644
0.08982035928143715
0.060674157303370786
0.06862745098039214
0.07816711590296498
0.023136246786632394
0.060674157303370786
0.043165467625899276
0.060674157303370786
0.07816711590296498
0.06862745098039214
0.07816711590296498
0.060674157303370786
0.08982035928143715
0.025641025641025644
0.023136246786632394
0.07816711590296498
0.05394190871369296
0.06862745098039214
0.05394190871369296
0.04816955684007708
0.08982035928143715
0.043165467625899276
0.07816711590296498
0.03148425787106447
0.05394190871369296
0.043165467625899276
0.012
0.01687289088863892
0.043165467625899276
0.3214285714285709
0.05394190871369296
0.06862745098039214
0.03148425787106447
0.025641025641025644
0.05394190871369296
0.08982035928143715
0.012
0.028409090909090908
0.05394190871369296
0.060674157303370786
0.07816711590296498
0.08982035928143715
0.04816955684007708
0.043165467625899276
0.043165467625899276
0.05394190871369296
0.04816955684007708
0.07816711590296498
0.03492063492063492
0.3214285714285709
0.06862745098039214
0.03878583473861721
0.018779342723004692
0.03878583473861721
0.018779342723004692
0.03492063492063492
0.01687289088863892
0.06862745098039214
0.01511879049676026
0.060674157303370786
0.060674157303370786
0.08982035928143715
0.03148425787106447
0.060674157303370786
0.03878583473861721
0.01687289088863892
0.025641025641025644
0.06862745098039214
0.03878583473861721
0.04816955684007708
0.03878583473861721
0.025641025641025644
0.08982035928143715
0.07816711590296498
0.05394190871369296
0.07816711590296498
0.028409090909090908
0.04816955684007708
0.07816711590296498
0.060674157303370786
0.05394190871369296
0.03878583473861721
0.10437710437710437
0.08982035928143715
0.08982035928143715
0.03148425787106447
0.060674157303370786
0.07816711590296498
0.020858895705521477
0.06862745098039214
0.01511879049676026
0.05394190871369296
0.06862745098039214
0.03878583473861721
0.03878583473861721
0.06862745098039214
0.025641025641025644
0.043165467625899276
0.06862745098039214
0.060674157303370786
0.03492063492063492
0.04816955684007708
0.028409090909090908
0.06862745098039214
0.043165467625899276
0.06862745098039214
0.04816955684007708
0.060674157303370786
0.05394190871369296
0.043165467625899276
0.060674157303370786
0.05394190871369296
0.03878583473861721
0.10437710437710437
0.043165467625899276
0.04816955684007708
0.05394190871369296
0.028409090909090908
0.07816711590296498
0.060674157303370786
0.043165467625899276
0.07816711590296498
0.04816955684007708
0.06862745098039214
0.06862745098039214
0.025641025641025644
0.043165467625899276
0.043165467625899276
0.043165467625899276
0.043165467625899276
0.025641025641025644
0.03148425787106447
0.05394190871369296
0.04816955684007708
0.03492063492063492
0.03492063492063492
0.028409090909090908
0.03492063492063492
0.018779342723004692
0.060674157303370786
0.01687289088863892
0.08982035928143715
0.03492063492063492
0.05394190871369296
0.043165467625899276
0.060674157303370786
0.05394190871369296
0.05394190871369296
0.06862745098039214
0.05394190871369296
0.03878583473861721
0.013499480789200418
0.03148425787106447
0.14798206278026915
0.060674157303370786
0.03878583473861721
0.08982035928143715
0.03878583473861721
0.06862745098039214
0.043165467625899276
0.060674157303370786
0.06862745098039214
0.01687289088863892
0.03492063492063492
0.060674157303370786
0.043165467625899276
0.023136246786632394
0.025641025641025644
0.060674157303370786
0.025641025641025644
0.03878583473861721
0.04816955684007708
0.020858895705521477
0.04816955684007708
0.06862745098039214
0.10437710437710437
0.020858895705521477
0.04816955684007708
0.04816955684007708
0.07816711590296498
0.03878583473861721
0.06862745098039214
0.07816711590296498
0.060674157303370786
0.05394190871369296
0.10437710437710437
0.043165467625899276
0.03878583473861721
0.060674157303370786
0.04816955684007708
0.05394190871369296
0.14798206278026915
0.06862745098039214
0.04816955684007708
0.060674157303370786
0.060674157303370786
0.05394190871369296
0.07816711590296498
0.10437710437710437
0.060674157303370786
0.025641025641025644
0.05394190871369296
0.06862745098039214
0.03148425787106447
0.020858895705521477
0.023136246786632394
0.05394190871369296
0.04816955684007708
0.060674157303370786
0.06862745098039214
0.060674157303370786
0.10437710437710437
0.05394190871369296
0.03492063492063492
0.043165467625899276
0.05394190871369296
0.03148425787106447
0.07816711590296498
0.01511879049676026
0.07816711590296498