Hbb-bs
Hba-a1
Hba-a2
Hbb-bt
Slpi
Mageb18
Igfbp5
Prg4
Csmd1
Saa3
St18
Lsamp
Atp6v0d2
Rarres2
Lyz2
Retnla
Reln
Pcdh9
Gm42418
Pcdh11x
Cfd
Gria4
Fmo3
Fn1
Inpp4b
Ctnna2
Myh11
Cdc20b
AC140209.1
Npr3
Gpnmb
Frmd5
C3
Rtl4
Nnat
Crip1
Dgkb
Alox15
Mgp
Apoe
Mest
Nxph1
Nrxn1
Mmrn1
Ctnna3
Eln
Ctsd
Mecom
Ptprb
Spp1
St6galnac5
Zfp804b
Nkain2
Pde4b
Kcnd2
Pecam1
Tmem45b
Il7r
Col8a1
AC165092.1
Frmpd4
Lcn2
Mmp12
Padi4
Cxcl13
Agbl1
Adamts20
Grm3
mt-Nd3
Marco
Rbfox1
Kcnip4
Ccl2
Cytl1
mt-Nd5
Gm12381
Gja1
AC158535.1
Dner
Fth1
Il1rapl2
Lgals3
Ctsb
Kirrel3
Mdga2
Ccl8
Cd163
Ctsl
Hp
F13a1
Fgf14
Lgals1
Adarb2
Sntg1
Col25a1
C7
Il23r
Cilp
Mmp7
Psap
Dkk2
Dach2
F5
mt-Co1
Nrk
Rgs1
Wdfy4
Kcnk2
Selenop
Ptchd4
2010106E10Rik
Gpx3
Wfdc17
Ralyl
Clec9a
Cntn1
Kcnq5
Hs6st3
Arhgap25
St6galnac3
Lyz1
Mki67
Igfbp6
Grin2a
Alcam
mt-Nd6
Mctp1
Gm20619
Cd226
Hhip
Vwf
D5Ertd615e
Trdn
Scd1
mt-Nd1
Pde11a
Cd163l1
Atp1a1
Ighm
Ofcc1
Syndig1
Kctd8
Fgf13
Kcnb2
Cd44
mt-Nd4
Cntn6
Tmem163
Bmx
A530053G22Rik
Cd84
Krt14
Ptprt
Nkain3
Thsd4
Lrp2
Cd209b
Cenpf
Top2a
Tmsb4x
AC124601.2
mt-Cytb
Mrc1
Fxyd3
Mcidas
mt-Nd2
Cyyr1
Eepd1
Wdr49
Vwc2
Themis
Adcy8
Gm13986
Rgs5
Cd74
Gm5150
Vmn2r26
Gk
S100a9
Itgbl1
Shisa9
Fosb
Myh15
Ednrb
Prox1
Clnk
Ifi27l2a
Itm2b
Sorcs1
Slc39a8
Serpine1
Cd5l
Rbpj
Gm38048
Cuzd1
Ncam2
Vegfc
L3mbtl4
Erbb4
Pparg
Gm42397
Grm8
Dock2
Sult1e1
Pkhd1
Tnip3
Dpp6
Spag16
Adgre1
Fat3
Rdh16
Pik3r5
Ccr2
Gabrg3
Pde10a
Iqcm
Cacna1e
Col1a1
Postn
Fgf10
Sgip1
Bank1
Nrxn3
Itga8
Gsn
H2-K1
Fmo2
Dach1
Slc25a21
Pi15
C1qa
Lrrtm3
Card11
RMST-1
Bmp6
Gm42906
Abcb1b
F7
Tll1
C230004F18Rik
Dcn
Klhl14
Prkar2b
Acsbg1
Scd2
Cacna2d3
Dnah12
Lnx1
Gm10735
Tmem232
Ccl7
Gm15987
Cst3
Tmbim6
Ltbp2
Gm20756
Pld5
Trhde
Agbl4
1700007G11Rik
Thbs1
Sorcs2
Cdh13
Plcxd3
Snca
Kel
Adam2
Dnah6
Ctcflos
Slc9a9
Cybb
Ntrk3
Il34
Stk33
Ctnnd2
Pnpla3
Upk3b
Ldb2
Rgs22
Egflam
Pf4
Cmss1
1700011I03Rik
Rcan2
Flt1
Ctla2a
Cpe
Ano5
Atp6v0a4
C1qc
Emcn
Gm17268
Myl7
Grip1
Neil3
Nrg3
Slc12a2
Grik2
Flt4
Rp1
Ank3
Rps21
Sema3e
Ppp2r2b
Fam13a
Dnah11
Myo1f
Neto1
9630002D21Rik
Cyp2e1
Col12a1
H2-Ab1
St8sia4
S100a6
Ankfn1
Spag17
F10
Ccdc162
Adgrl3
Gpr141
Cfap54
Dnah9
Ctsk
Spag6l
Tcerg1l
Nr4a3
3300002A11Rik
Kcnc2
Gabbr2
Kctd16
Lpl
4930525C09Rik
H2-Aa
Wdr95
Dnah3
Gm7173
Igfbp7
Cfap44
Ism1
Sntb1
Adgrl4
Gm21798
Ryr2
Tenm4
Atp1b1
Gria1
Tmem212
Nlgn1
Tbxas1
Lrriq1
Unc13c
Hydin
Ndnf
Gm43914
S100a8
Ccdc30
Acsl1
Bcl11a
Irf4
Aqp1
Fuca1
Nexmif
Cfap61
Lockd
Serpinb2
Dlg2
Cd200r1
Gm29669
Spef2
Cfap43
Lhfpl2
Hs6st2
Fam155a
Dcdc2a
Epcam
Ak9
Cldn11
Pax5
Ccdc170
Myrip
Slc1a3
Snap91
Prkcb
Adgrg2
Vcam1
Kcnj16
Scn3a
Slc4a1
C230072F16Rik
Acvr1c
Lgmn
AC158388.3
Arhgap15
Pdzrn4
Hdac9
Chrm3
Arg1
Tnfsf11
Hsp90ab1
Adam12
Srd5a2
Bbox1
Cox4i1
Zbbx
Gpm6a
Pcdh15
Prm1
Fabp4
Ikzf3
Prom1
Rsad2
Ptprc
Tmem108
Piezo2
Chn2
Gm973
H2-Eb1
Tinag
AC163354.1
Mt1
Lrrc36
Slc9a3
Caln1
Aoah
Art3
Gm30382
Gm12153
Ccdc146
Gabrb1
Bmpr1b
Pip5k1b
Muc16
C1qb
Dnah5
Deup1
Pcx
Tshr
Parm1
Corin
Gm609
Armc4
Ccl6
Fcna
Hmcn1
Ftl1
Cacnb4
Ap1s2
1700012P22Rik
Zdhhc14
Lrrc4c
Jchain
Lep
Gm37381
Chrm2
Dmd
Kif6
Plin4
Aebp1
Greb1
Abcc9
B2m
Dao
Slc26a3
Ntng1
Akap6
Kcnh8
Bsg
mt-Atp6
Spata17
Gbp4
Pde3b
Ttc29
Lef1
Wdr78
Samd12
Pnoc
Ccdc39
Cdh11
Ankef1
Cetn1
Cdhr3
Nrg1
Hunk
Prss56
Brinp2
Ak7
Rspo2
Cenpe
Ctss
Camk4
Camk1d
Pax8
Gm16168
Cidec
Ccser1
Cadm2
Efcab11
Ano3
Kcnk13
March1
Col6a5
Cep126
Rnf43
Etl4
Cftr
Enah
Myo1b
Ppil6
Gm15155
Edil3
Cdc14a
Stap1
Dlgap2
Acpp
Gnal
Mmd
Isg15
Apod
Ccdc180
Pdlim3
Myo1e
Cfap46
Skint3
Gm17749
Adamts16
Unc5cl
Sidt1
Adrb3
Pgm5
Sim1
Egfem1
Col11a1
Gm45846
Grm7
Cd36
Trpm3
Slfn4
Iigp1
Cxcl5
Esrrg
Thbd
Rnf180
Ccdc3
Knl1
Fndc7
Pck1
Ces1d
Gng2
Cfap77
Robo2
Gm12695
4833427G06Rik
Shank2
Timd4
Wnk2
Rgs7
Cadm1
Ghr
Clu
Cfap65
Foxn4
Chchd10
Gata4
Xkr4
2010309G21Rik
Cdk6
Lyve1
Osbpl6
AC111010.1
Rims2
Robo1
Atf3
Dpp10
Itgam
Wdr63
Atp8b4
Hs3st5
Pik3c2g
Wdr17
Cabcoco1
Dnah10
Kcnma1
Igkc
Vat1l
Cntnap3
Hspa5
Skap1
Gm46401
Lmod1
Gm11639
Alas2
Epha3
Dok6
Clec10a
Nav2
Ms4a4b
Adgb
Spock3
Cacnb2
Wnt2
Gpat3
Itga4
Fam19a2
Klra4
Cmah
Sparc
Ctgf
Sema3a
Car3
Klri1
Gbp2b
Nek11
Lin7a
Dnah2
Scube1
Gas1
Nek10
Tmem132b
Cldn5
Mapk10
Tacr1
Igf1
Gm35552
Glis3
Cat
Ptgds
Chil3
Epsti1
Aspm
Cpd
Stmn2
Grid2
Prr16
Msln
Abcg1
Ccdc152
Apba2
Ncr1
Grn
Wwc1
B4galnt2
Hpse2
Cd209f
Gja5
Esr1
Palm2
Apobec1
Rnf128
Gm37184
Chst11
Foxp2
Ccdc148
AL591843.1
Ehd4
Htr7
Tmem132d
Gm765
Spink2
Bgn
Dgat2
Mylk
CT010465.1
Rsph10b
Pou2af1
Gpc3
Adgrb3
4933436I20Rik
Gm6213
Dnaja4
Trim7
Plch1
Tmem164
Slc7a10
Dnah7c
Trabd2b
Ldhc
Tsga10
Ccl9
Cldn2
Crispld1
Itk
Fgf12
Il1rapl1
Lmntd1
Prickle2
Ccdc187
4930556G01Rik
Wdr66
Fmn2
Plin2
Mucl1
Fam47e
Peg3
E2f7
Klra2
Svopl
Fgd5
Cfap69
Gm8739
Fhod3
Erich3
Celsr1
Lhfpl3
Fhad1
4933406I18Rik
C130073E24Rik
A1cf
Crp
Atp1a2
B3galt2
Lrguk
Spock2
Gstm5
Arhgef38
Veph1
Rgcc
2010001K21Rik
Dscaml1
Cd81
Kif27
Abcd2
Vwa3a
Syk
Susd4
Stil
Plet1
Lgals3bp
H2-D1
Slc5a7
1700111N16Rik
Cd83
Igsf5
Msr1
Cnbd1
Btla
Klhl4
Evl
Mro
Ptprf
Retn
Runx1
Nrg2
Trpc4
Samsn1
Galnt14
Syt10
Sdc3
Gm13052
Kif9
Mlph
Myo6
Clmn
Negr1
Plin1
Gm30954
Gm27211
Col14a1
Cfap74
Itgb2
Ms4a4a
Plekha6
Kynu
Lipe
Ddah1
Gm43434
Hsp90b1
Gpc6
Cd38
Syt1
Cxcl2
Ndrg1
Inpp5d
Fras1
Eps8l2
Pcdh17
1700047G03Rik
Gm10754
Pex5l
Fbn1
Hspb9
Opcml
Fbxl13
Rapgef4
Astn2
Pappa
Lca5l
Ermap
Ttc21a
Slc6a20a
Elmod1
Il2ra
Lrrc37a
Ulk4
Ephb1
Enpp2
Gm42722
Lrrc3b
Thrsp
Gm44127
Egr1
Stpg1
Kif15
Stab1
Sntn
Gm12239
Cox8a
Col24a1
G0s2
Klrk1
Ttc23l
Nrg4
Lrrc71
Ccl28
AU021092
Calm1
Kif26b
Laptm5
Adamts19
Atp8b5
Col23a1
Itgax
Ccdc85a
Grik4
Il1rl1
Glul
Gm46323
Gm29538
Sema3g
Gramd1b
Hepacam2
Acta2
Rplp2
Pde7b
Igfbp3
Gpr39
Rasef
Drc3
Tmem150c
Atp11a
Ifitm3
Gprin3
Bglap3
Cd86
Ppp1r36
Galnt18
Igsf11
4930567H12Rik
Lrrc6
Stox1
Tgfb2
Slco1a4
1700029J03Rik
Kcnmb2
Asic2
Dnah7b
Dpy19l2
BB365896
Nell1
Adam23
Gfra2
4933402J10Rik
Dnaic1
Pak3
Kif4
Lgals7
Tnfrsf11b
Gpc5
Cdh2
P3h2
Ctsc
Adamts18
Armc2
Gm20618
Rhag
Emilin2
Cndp1
Dcstamp
Frmpd2
Adgrg1
Rpl8
Gpc4
Cfap70
Lypd6
Gm16201
Lrrc9
Zswim5
9530059O14Rik
Gm30173
Tmem176b
Trank1
Ccdc153
Prdm1
Col4a4
Cntnap4
Gm29266
Flrt2
Mboat2
Asz1
Cnksr2
Dnah7a
Gpx1
Ptprq
B3galt1
Lgals12
Nol4
Lrrc74b
Csnka2ip
Hnf1aos1
Pla2g16
Dbi
Lipa
Gabra3
Fank1
6530403H02Rik
4932443I19Rik
Pdxk
3110043O21Rik
2600014E21Rik
Sorbs2
Jhy
Mafb
Ube2u
Gm45783
Blk
Gm17171
Tmbim4
Hmox1
Il1b
A830018L16Rik
Chrdl1
Aff3
Pkhd1l1
Ntf3
Ptprr
Ighd
Bcar3
Gfpt2
Cfp
Cdo1
Fermt1
Cadps
Gm40646
4930544I03Rik
Mettl7a1
Col4a3
Stac
Fndc1
Fam189a1
Col19a1
Car1
5730522E02Rik
Espn
Diaph3
Cfap206
Ddo
Itga6
Nme5
Cd209d
Pdzk1
Crocc
Mamdc2
Hacd2
Selp
Macc1
Shroom4
Gm16163
AC164436.1
Mlf1
Olfr1259
Csf1r
Sptlc3
1700018A04Rik
Ggt1
Brinp3
Adgre4
Zfp536
Sfrp4
Pcdh19
Ankrd6
Cd200r4
Igfbp4
Synpr
Pappa2
Togaram2
Dcdc2c
Gm35154
Bmper
Catsperz
Scp2
Mgll
Slit2
Fhl2
Crocc2
Maats1
Pax2
Car5b
Hsph1
Slc40a1
Cox8c
Rbakdn
Adra1a
Olfr872
Ephx2
Ttll3
Trdc
Prlr
Epp13
Apba1
Gnai1
Ly6c1
Lama2
Ptafr
Trpc5
Dgkg
Adamtsl3
Iqub
Rgs7bp
Cd247
Gnat3
Gm16083
Nebl
Lilr4b
Chpt1
Tmeff1
Anln
Foxj1
Pla2g7
Ect2l
Erich2
Ntm
Cdh16
Mum1l1
Tbc1d1
Fam46a
Col3a1
Gzma
Gipc2
Nme9
Sncaip
C2
Gm12295
Hrh1
Lpin1
Gm20755
Gm33206
Rnf150
Slc1a5
Atp2a3
Abcg3
Col22a1
Patj
Hsp90aa1
Entpd1
Enkur
Ndufa13
Tat
Dysf
4930557F10Rik
Zfp474
Wdr72
Unc5c
Gm26740
Rorb
Ush2a
Fli1
Eva1a
Il5ra
Gm35041
Vwa3b
Cdkl4
Oxr1
Arpp21
Tox
Crisp2
Myl1
Agtr1a
Apol6
Prss23
Grin1
Cpxm2
Adipoq
Abca8a
Rgs6
Adcy5
Lekr1
Slc35f3
Fry
Trpv2
Fggy
Slc37a2
Actb
Hmga2
Carmn
Rps15
Calcrl
Cds1
Clec4e
Flt3
Gm28905
Bcat1
Rrm2
Gm40293
Spata18
C6
Klra8
Gm7247
Slc47a2
Tlr7
Fam196b
1700028P14Rik
Fndc3c1
Mak
Gabrb3
Med12l
AY512915
Grik3
Xylt1
4930448C13Rik
Erg
Ptchd1
Fam135b
Gna14
Phactr2
Ear2
Gm14064
Gimap3
Cd40lg
Defb19
Ppp3r2
Rbmxl2
Pfkfb1
Shank3
Col4a6
Ccdc150
Cenpu
CT009696.3
1700016L21Rik
Thsd7a
Aoc3
AA467197
Ngf
Sytl5
Rps14
CT009713.8
Pls1
Folh1
Zfp366
Clstn2
Plxna4
9230114K14Rik
Emb
Tmc5
Efhb
Cacna1c
T2
Tm4sf19
Cep290
Rgs17
Ccdc114
Spon1
Arhgef33
Cfap221
Pstpip2
Eng
Ms4a6b
Ly86
Wdr64
Fam149a
Sel1l3
Grem2
Abr
Ddc
Fstl4
Musk
Ctla4
Sfrp2
4933406B17Rik
Nuak1
Gm6209
Tmtc2
Lamp1
Fmod
Tspan3
Sik2
Bckdhb
Clca3a1
AI314278
Sel1l2
Trim2
Gm26907
Pdcd1
Ms4a7
Slc35f1
Edn1
Ccl4
Slc7a9
Hsd17b11
Il1r1
Gm12296
Mettl24
Mgat4c
Stat4
Dynlrb2
Ankrd65
Cdh10
Map3k19
Akr1cl
Ms4a8a
Egfl6
Specc1
D930007P13Rik
Fam214a
Cfh
Meg3
4930544M13Rik
Tc2n
Frk
Tmem132c
Drc7
Fbxo33
Lcp2
Il33
Kcnd3
Daam2
Nt5e
Siglech
Ccdc60
0610040J01Rik
Ly6e
Rerg
Hnf1b
Endog
Cfap52
Syne1
Rplp1
Egfl7
Fmr1
Asb14
Map7
Map3k21
Ngef
Gm10044
EPPK1
4930412F09Rik
Gm38505
AC164161.2
Myo5b
Olfr112
Pou2f2
Trpc6
Fuca2
Lpgat1
Mapk4
Fsip2
Lum
Ripor2
A330093E20Rik
Daw1
Ehf
Dnajb3
Tenm2
Lars2
Rpn1
Plekhg1
Sybu
Pi16
Gm29571
Slc7a2
Cd5
Bcl7a
Arg2
Adamts6
Scml4
Trf
Paqr5
Tll2
Rian
Ikzf1
Samd3
Plekhh1
Mgst1
Adamts5
Gfra1
Smoc1
Sh3gl2
Calr
Sgcd
Armc3
Ednra
Kalrn
Gm32511
Syn2
Gm32828
Dram1
Cdh18
Ckb
Grk4
C1qtnf7
AC165260.6
Dlx6os1
Klra7
Ccl3
Ndst3
Gm32089
Dcc
Btnl9
Ccdc40
Lca5
Ddr1
Iqgap3
Hs3st2
Gatm
Klb
Actg2
Acacb
Enthd1
Ppp1r14c
Slc1a1
Ulbp1
Stc1
Dsp
Gm29506
Txndc2
Mx1
Fgl2
Fam124b
Iglc2
Cd244
Gm33103
Ppm1e
Scn9a
Timp2
Cox6c
Elovl6
Fam227a
Epha7
Gm13481
Col28a1
Plppr4
Kdr
Cntn4
Myb
Rps3
Kifc3
Acer2
Cxcl1
Wfdc8
Kif14
Gm44626
Wdr27
Dusp10
P2rx7
Nhs
Syt2
Cep55
Ckap2l
Myoz2
Gdf10
Hnf4g
Gm44174
Mok
Itih5
Gm35077
Cdh1
Chsy3
Scn5a
Ddt
Slc22a22
Fgf1
D630024D03Rik
Dock10
E330011O21Rik
Tctex1d4
Cda
Wt1
Prkg1
Hipk2
Zmynd12
Cacna1d
Cemip
AC101945.2
Kcnj15
Fyb
Upk1b
Ppp1r1c
4930444F02Rik
Slc22a28
Saxo2
Kcnq3
Lrrc7
Stard8
AC107452.3
Wisp2
Gm281
Itpr2
Cxcl10
Ubash3b
Dpyd
Sord
Rsph4a
Galnt17
Itgal
Aff2
Gm3294
Amot
Fzd6
Hyal5
Gm12159
Mmd2
Sorbs1
Klri2
Ccl5
Ntrk2
Plekha7
Mapk15
Tnfrsf11a
Gm31831
Lhcgr
Mkx
AC160562.1
4833428L15Rik
Farp1
Fcrls
Gda
Ccl24
Gm10714
Adam8
Tmem196
Ivns1abp
Rps5
Map2k6
Tbx2
Cyp7b1
Gypa
Dab1
Cd69
Gstm1
Fam46c
Dchs2
Gm45861
Tmem176a
Garem1
Ces1f
Ubxn11
Elovl7
Ckap2
Ppargc1a
Osbpl3
Rasgrf2
Cfap45
Synm
AC159188.2
Fscn1
Tmem182
Ropn1l
Gm16553
Ncam1
Fgfr4
Agt
Spata4
Adamts1
Mmp16
Lrrc23
Adcy2
Cox7b2
Slc22a23
Pak1
Megf10
Sec62
Rpl23
Dlgap1
Celf4
Mme
1700020G17Rik
Iyd
Gm19950
Klra3
Gm21976
Uox
Adam29
Gm9962
Col15a1
Pltp
Ldhal6b
Slitrk4
Ccdc138
Ms4a1
Fbln1
Lrrn4
Lama4
Nenf
Grid1
Cd24a
Cenpp
Klhl32
Gm29018
Plppr5
Calca
Drd3
Klk13
Ly6c2
Pipox
Rack1
Rapgef5
Slc8a3
Atp2a2
Morn3
Efemp1
Itgb6
Nipal2
Kl
F630028O10Rik
4930513D17Rik
Cp
Rpl38
Megf11
Bbof1
Col1a2
Sema3d
Irf8
Mir142hg
4930578C19Rik
Fut9
Fnbp1l
Aqp9
Gm30835
St6gal1
Il1rn
Ugt8a
Adipor2
Gm45261
Il18rap
P2ry12
Ankrd42
1700011H14Rik
Pde1c
Bmp5
D7Ertd443e
Gm37168
Sphkap
BC051019
Pif1
Ppib
Creg1
Mns1
Ankdd1a
Gata3
Uqcrq
AC121574.1
Cfap53
9330111N05Rik
Gm29683
Gm43821
Bicd1
2610203C20Rik
Sco2
Plvap
Efcab6
Gm13974
B4galnt3
Cdh19
Nos3
Sv2c
1700025F22Rik
Gdf3
Cnnm2
Trpc3
Gm11342
4931406P16Rik
Dgat1
Plxnc1
Gm43154
Enpp6
Dsg2
Sfrp1
Gm26691
Aldh1a7
Slamf6
Ly6a
Cmtm8
Ndufb9
Pkib
Myo5a
Blnk
Gabra4
Mapkbp1
Adamts9
Tm4sf1
Ncf1
Cntn3
Gramd2
Adamtsl1
Dennd2d
Stxbp6
Pfkfb3
Sh3gl3
A330069K06Rik
Ccnjl
March4
Sned1
Sdc4
4933405D12Rik
Ttll6
Col8a2
Ttc6
Znrf3
Cdca2
Gm37273
Tspan12
Ndufa6
Tmem200a
Lepr
Canx
Rims1
Ipcef1
Fcrl5
Sulf1
Cd63
Timp1
Prdm16
Tekt1
Gm20125
Gm17225
Tmem120a
Acta1
AC122379.1
4930426D05Rik
mt-Co3
Ptger3
Pla2g10
Hal
Clic6
Cyp4f18
Drc1
5830418P13Rik
Gm26535
Ahsg
Adra2a
Tmem63c
Efhc1
Tctex1d1
Gkn3
Pls3
Tsnaxip1
Gm7854
Prdm6
Alox12
Pank3
Hnf4a
Ttc25
Mmp19
Adamts12
AC091764.3
4930455G09Rik
Cyp2j13
Tm6sf1
Mpeg1
Fcgrt
Chl1
AC167229.2
Gm6093
Tmem120b
Fam216b
Jam3
Ppa1
Serf1
Arnt2
Gm14280
Lama1
Spint2
Hmgcll1
Kcnk1
Col26a1
Dydc1
C5ar1
4930440I19Rik
Me3
Hormad1
Slc35a3
Grin2b
Osr1
Myh10
Garnl3
1810064F22Rik
Lmo7
Gm15997
Lgr5
4921515E04Rik
Ttc16
Dmrt1
Eef1b2
Tnfsf8
AC153955.2
Rpl4
Ptprz1
Cyp2f2
Cd209a
Ccdc7b
Slc7a8
Ccr5
Sell
Dnal1
AC158596.1
Hmmr
Ppm1h
Gm43614
Ablim3
Cfi
Sh3pxd2a
Pdgfd
Keg1
Iqgap2
Pik3ap1
Gm16702
Nrros
Stk17b
Ksr2
Napsa
Slc6a5
Asph
Rsph14
Cep83
Camta1
Rsph1
Ret
Eya1
Ssr3
Hoga1
Mgl2
Sorbs2os
2210408I21Rik
Casc1
Epha5
Cytip
Tmem229b
1700030N03Rik
Sirpb1b
Mboat1
Cit
Gm16685
Slc22a3
Trp53inp2
Fam184a
Cd209g
Sv2b
Ltbp1
Mt3
Ak8
4930554G24Rik
Arl6ip1
Efnb2
Prkcq
Wfs1
Lyn
Rassf9
Fgr
Gm28710
Slc36a2
CT025617.1
Gm17096
Ly6d
Ptpn20
2610307P16Rik
Rab15
Dad1
Mybpc1
Vwc2l
Slc2a13
Tnf
AY036118
Lrrc51
Dync2h1
Nox4
Osbpl10
Plagl1
Rpgr
Lrg1
Cngb3
Prokr2
A730004F24Rik
Olfr1507
Sorl1
Amph
Mrvi1
Mir670hg
Fzd4
Nfat5
Gm14005
Abcb1a
Fbp1
3110099E03Rik
Gm13544
Ifi213
Zdbf2
Rgs20
Rpgrip1l
Rnf152
Pip4k2a
Fyb2
Tmem119
Adgrv1
9530036M11Rik
Rad51b
Ddit4l
Dclk1
Rfx3
Ano4
Net1
Allc
Dio2
6820408C15Rik
Stpg2
Kndc1
Angpt1
Abcg2
Klhl6
Eno1
Eef2
Lmcd1
Cd300a
Malrd1
Bphl
Plxdc1
Adam22
Synpo2
Nrp2
Gm12023
Svep1
Clec1a
Csmd3
1700088E04Rik
Kcnk5
Laptm4a
Bpgm
4930567K12Rik
9130230L23Rik
Ttc39a
Sox9
Prune2
Gm20754
Gm14066
Nr4a1
Fam81b
Gm5570
Susd5
Pdgfa
Vtcn1
Nos1ap
Vcan
Trim25
Tyrobp
Slc43a2
Rnf149
Hspa4l
4932411K12Rik
Zfand4
Ddrgk1
Stab2
Lcp1
Eya4
Heph
Prkch
Brinp1
Grb14
Calml4
Ccdc181
Ms4a6c
Tmem266
Pik3r6
Fam81a
Dclre1c
Sema6a
C430002N11Rik
Cdh4
Cyr61
Slc41a1
Ccl21a
Gm884
Zfp423
Nrcam
Gm38407
Nkain4
Iqca
Dok5
Sh3rf2
Fzd1
Ly6h
Fabp7
E230016K23Rik
2900079G21Rik
AC140381.1
AC159619.1
CT025610.1
Gm16587
Nsg2
AC153568.1
Gzmk
Fam78b
Sobp
Gm27188
Ptn
Cacna1h
Syt6
Klk10
Tlr8
Thsd7b
Ccdc173
Fcgr2b
Dzank1
Crtam
Cybrd1
Krt19
Pkp2
Zfp831
Slc9c1
Cfap57
Slco2b1
5330413P13Rik
Ano1
Manba
Bdnf
Glp2r
Tusc5
AC158982.1
Ptprk
Tmeff2
Bcl11b
Dab2
Lancl3
Podxl
Mycbpap
Gm5441
Zfyve28
Pcnx2
2610028H24Rik
Tmem37
Npnt
CT025548.2
A330033J07Rik
Abca9
Gm12649
Sorcs3
Slamf7
Ift88
Rnls
Gad1os
Gm45238
Pdia6
1700012B07Rik
1700074P13Rik
5330439M10Rik
Apoa2
Olfr1443
Olfr24
Mapt
Dnaaf3
Ccdc69
Agbl3
Cyb561
Adgrg6
Hpgd
Fam198b
Gas7
Chst3
Akr1c19
Gm4610
Gm10637
Klrc1
Gm10874
Mtus2
Sox4
4930522H14Rik
Plcd4
Slit1
Hexa
Nell2
Ppara
Gm36431
Nckap1l
Mrap
Rasgrp3
Ecm1
Ccdc17
Fbxo36
Kif23
2010016I18Rik
Galnt16
Katnal2
CT025552.1
Clec2g
Htr4
Mpped2
Rab27b
Rbp7
Folr1
Mdk
Plcg2
Ift74
Adap2
Iqcf3
Trp73
Scel
Uqcrh
Myocd
Pdzd2
Plat
Wt1os
Klre1
Gm28729
Mannr
C3ar1
Ctsz
Erc2
Gm20713
Bcl2a1a
D630003M21Rik
Bche
Ptprm
Sctr
Agpat2
Maged1
Sgms2
Pid1
Colec12
Ptk7
5430402P08Rik
Gm17359
Prps2
Cmtm2b
0610005C13Rik
Havcr2
Mfap4
Gm12823
Gm20557
Prm2
Trdv4
1700010B08Rik
Gtf2a1l
Vsig4
Serping1
Iqcd
Irs1
Cd55
Pde6h
Gm5086
Dock8
Ptpn22
Ankle1
Ephb2
Gm44618
Gpr165
Myoz3
4930522O17Rik
Fam71e2
Mrgprx2
4930406D18Rik
AC127581.1
Gm26629
Gm29154
Gm33981
Gp9
Kcna4
Serpina3j
Cd68
Gm4117
Srgap3
Usp43
Gm36814
Arhgef26
Otud7a
Pkp4
Pthlh
Catip
5730419F03Rik
Rnf32
Ren1
Tbx21
Gm867
Slc16a10
Gm15283
Mmrn2
B430010I23Rik
Cpeb2
Gpr176
Hecw2
Gmnc
Mmp28
Pnpla2
Pard6g
4930512J16Rik
Trim37
Cdh3
Vav3
Slc24a3
Celsr2
Twsg1
Slc9a6
Gpd1
Agr3
Gm15564
St8sia6
Pcp4l1
St3gal5
Apcdd1
Retreg1
AC104200.1
Nalcn
Vim
Penk
Acsm3
Dock3
Pax6os1
Nrip1
Nme7
Kif18b
A330015K06Rik
Gm45792
Igfbpl1
1700029M20Rik
Clec4d
Slc29a4
Gm36908
Ppp1r42
Cdcp1
Cass4
Gm31243
Npas2
CT009546.2
Rpl22
Mef2c
Tpx2
Cd300lb
Krt8
Anks1b
Ppargc1b
Dync1i1
Slc6a17
Rap1gap2
AC116724.1
Gm30165
Gm35256
Nr5a1
AC133498.1
Rnase4
Frmpd3
Mcam
Palld
Lrp4
Clspn
Cav1
Rplp0
Matn2
Cyth4
Apbb1ip
Gstm7
Aass
Agbl2
Gm44079
Gm2164
Teddm2
C530008M17Rik
Lrfn2
Tsc22d1
Ankrd45
A830019P07Rik
Map2
Nek5
Unc79
Gm28928
Unc5d
Brca1
Gm34225
Cldn7
Gm9929
Samd5
Ccdc113
Gm454
Arhgap30
Morn1
Gas6
Sntg2
Nin
Gm33056
Apol11b
Ttll8
Ppp1r16b
Gm17135
Por
9330159F19Rik
Klrd1
Rnf17
Adig
Cdh12
Tspan18
Eno4
Gm53
Rpl32
Kcnn3
Kcns3
Fam159a
Sh3rf3
Spns2
Gm26871
Klhl3
Basp1
Fbln5
Xylb
Ankrd33b
Pdzrn3
Kazn
Rnf144a
Plekhg5
Ak5
Ssu2
Cpvl
Gm31887
Serpina3g
Shroom3
Ncald
Cdhr5
Fabp9
Adgrl2
Ccr1
Slc39a12
Cd300e
Csf3r
Ptpro
Ccdc80
Ndc80
Car2
Tcte1
Sparcl1
Apln
Depdc1b
Ndufa1
Cyp26b1
Rasgrf1
Mms22l
Cd79b
Mkrn1
Cdkl3
Smoc2
Gm4951
Has2os
Mcf2l
Mall
C1ra
Dlgap5
AC117608.1
Tagln
Nlrp1b
Pih1h3b
Atp5b
Slc44a4
Caps2
Prom2
Sh3kbp1
Lrriq3
Cavin2
Slc27a1
Aifm2
Unc93b1
Map1b
CN725425
Gm15414
Dnali1
Il18r1
AC154537.1
Gm17276
Adgrg3
Pdgfra
Rspo3
Kctd19
Gpihbp1
Gm5860
Slc18a1
Cmtm4
Sacs
Oat
Spi1
Atp5a1
Slc25a13
Hgf
Kif11
Abcb4
1700112H15Rik
AC124196.1
Gm31363
9530077C05Rik
Cfap99
Chdh
Slc4a8
Tnik
Dclk3
Fnip2
Grik1
Ccdc57
Slc7a11
Ebf2
Lbp
Esrp1
Cdk5r1
Cpne4
Efcab1
Grhl1
Cep128
Tubb4b
F930017D23Rik
Lair1
Cyb5r3
Jam2
Ralgapa2
Sec14l3
Gm26776
Cd180
Gm12811
Zfp827
H19
Glra3
Gas2l3
Pou3f3
4930405D11Rik
Dnah1
Sestd1
Arhgap31
Olfr164
AC239878.2
Ccna1
Acsl3
Cdkl1
Nav3
Mlec
Prdx6b
Dnm3
Hk2
E130308A19Rik
Tmem2
Tmc1
Hpn
Pklr
1700113H08Rik
Ccdc81
1700060O08Rik
Ywhab
Chka
BC016579
Pdia3
Prrg1
Dkkl1
Mfap3l
Depdc1a
Cdh5
Meioc
Umodl1
AU017674
Gm20617
Gm29040
Slc16a2
Smpdl3a
Csrnp3
Klf8
Hmcn2
Plcl2
Tecr
Sgsm1
Ccnb1
Gm12766
Sox11
Riiad1
Sh3bgrl2
Pdpn
Gm19935
Dscam
Gm45470
Gm42962
Aspn
Stox2
Ect2
Nrgn
Vtn
Bnip3
Fsip1
Cd82
Slco2a1
Elovl5
Gm34983
Gm33180
Slc7a5
Chst4
Hook2
Itgb7
E230029C05Rik
Notch3
Reep1
Tnfaip6
Tox3
Prss35
Gm3289
Arx
P4hb
S100a1
Gns
Vwa5b1
AC160635.2
Dcbld1
2010005H15Rik
Palmd
Gm2245
Gm20757
Smarca1
Rgs11
Stk36
Col6a6
Il2rb
Lilra6
Tctn2
Ldb3
Gclc
Tymp
Dhrs9
Spcs2
Gm15958
Ptch2
Zfp608
Gm5427
Ncf2
Fads2
Ppp2r1b
Pbxip1
Crispld2
Aldh1a3
Man1c1
Cfap100
Fbxw25
Rps11
Cadps2
Igfn1
Exoc3l2
0610033M10Rik
1700006A11Rik
1700012C14Rik
1700080O16Rik
1700094M24Rik
2200002J24Rik
4930474N05Rik
4930480K15Rik
4930515L19Rik
4930584F24Rik
9830132P13Rik
AC093022.3
AC155934.1
Cabs1
Calb2
Colec10
Eif2c5
Erich6b
Gk2
Gm10635
Gm11961
Gm12290
Gm14505
Gm15407
Gm16347
Gm17094
Gm17232
Gm26939
Gm29456
Gm33308
Gm3331
Gm36017
Gm37797
Gm44939
Gm45554
Gm45699
Gm8633
Gm9999
Hmx2
Hsd17b3
Kcnv1
Lipi
Lkaaear1
Olfr55
Pdilt
Redrum
Spdye4c
Spem1
Tmco5
Vmn1r42
Vmn2r20
Rassf4
Nucb1
D630045J12Rik
Srgap1
Gm28154
Pros1
Lama5
Fign
Tmem67
Mt2
Dtl
Dzip1l
A430093F15Rik
Npas3
1700001C02Rik
Cxadr
Ms4a6d
Cysltr1
Cpz
Tnpo1
Ndufa4
Stk26
Dmkn
Tm4sf4
Gm14226
Hcn1
Timp3
Kcnmb4
Gm14061
Aqp4
Meox2
Clec4b1
Gm20631
Fbn2
Nat6
Creb5
A530016L24Rik
Itga9
4930452B06Rik
Ccdc141
Slc25a42
AC151836.1
Dlec1
Cd6
Slc27a2
Lama3
AC147241.1
Spata24
AC159809.2
9230110C19Rik
Gpr156
Ap1s3
Cerk
Gm17501
Bach2os
Pmepa1
Sez6l
Pde4c
Adam19
Gtf2f2
Tm9sf3
Emx2
Tspan11
Acox1
Efhd1
AC153370.1
Gm16499
She
Iqck
Marc2
Pdgfc
Greb1l
Srcin1
Sox17
Efhc2
Slc8a1
Cdh6
Mroh9
Gm43388
Rps24
Clec3b
Styxl1
Pawr
Hvcn1
Gpm6b
1700029J07Rik
Hs3st3a1
Ablim2
Serpinb6b
9530036O11Rik
Pabpc2
Myo7b
Lhfp
Kit
Hsf3
Lpin2
Tgfbi
AC110380.1
Aldh1a2
Pih1d2
Clca3a2
Gm33586
Csrp1
Gm15581
P2ry6
Ifi206
Rnf125
Slc35g1
Slc6a19
Lrp10
A430078G23Rik
Cthrc1
1300017J02Rik
Rgs12
Lpar1
Prss54
1700061I17Rik
AC158981.2
Cd8b1
Clec12b
Fam167b
Slc7a14
Cldn10
9630028H03Rik
Npffr2
Actn3
Serpini1
Tkt
Rin3
Slc25a18
Atp6v1c2
Nabp1
Trbc1
Snhg11
Kcnk10
Mdh1b
H2-M2
Igkv14-126
Fbxo16
Traf3ip1
Ttll10
Platr26
Egr2
Il31ra
Dhrs7
6330411D24Rik
4921504E06Rik
Tns1
Adamts15
Erbb3
Pak7
Srgn
Atp1a3
Gm1661
Slc27a6
Aph1c
Kctd12
Epas1
Hrasls
Perp
Gm4876
Stk32c
Cavin1
Galns
Lvrn
Gm38399
Ciita
Atp5e
Ppm1l
Slc30a2
Aox3
Gm30524
Tek
Gm14964
Spag5
Vcl
A830012C17Rik
Degs1
Mcoln3
Susd1
Mlxipl
Arhgap24
Cd4
Plcb1
Dpt
Ttc9
Gm16263
Plscr2
Has2
Nedd4l
Olfm2
Nudt19
Prcp
Stk32a
Plekha5
Myo5c
Stard10
Gucy1b3
Ccp110
Syt17
Mis18bp1
Slc25a12
Meig1
Rad18
Mcub
Pilra
Ergic3
Bco1
Gm45083
Adamts17
Dnajc6
Sirpb1a
Gm37387
Pof1b
CT009713.2
Gm35722
Lcn11
Pclo
Krtcap2
Galnt3
Slc22a17
C4b
4930533P14Rik
4930570D08Rik
4932414N04Rik
AC140368.1
AC153938.2
Gm20642
Gm31045
Gm6329
Fam171a1
Hook1
4931409K22Rik
1700057G04Rik
Tfpi2
Tspan7
Wdpcp
Cap2
2010300C02Rik
Gucy1a2
Cebpa
AC105167.1
Tbc1d30
Selenom
D330045A20Rik
Itga1
Gm13830
Ica1
Gm29724
Abtb2
Sult1d1
Angpt4
Clca2
Mmp3
Glipr1l1
Crb1
Gm10113
Glb1l2
Gm16064
Gm9733
Fxyd2
Arhgef37
Xcr1
Acss1
Serinc3
Efcab5
Emp1
Spn
Cenpa
Atg4a
Rasip1
Txlng
Slc26a7
Osbpl8
Sh2b2
Ifi30
Slc6a6
Tcp11
Fam189a2
Itgad
Lhx6
Rmi2
Gap43
Rps6ka2
St8sia2
Ppfia2
Oscp1
Diras2
Gm4221
Arsj
Itm2a
Fos
Arhgap45
Dact2
A730046J19Rik
Fbxw24
Dclk2
Miga1
Rbm24
Gm28981
Kctd14
Fcgr3
Scnn1a
Tjp2
Kcnn4
Sema3b
Clec12a
Cyp2j11
Rab27a
Ush1c
Il16
Dapk2
Pitpnc1
Ildr2
Prrx1
Myo10
Ctif
Alpl
Gm2a
Myo1h
AC154576.2
Prc1
Nedd9
Gm42303
Emp3
Hck
Mlip
E2f8
Gm16226
AC139845.2
Fcmr
Prnp
Plet1os
Fabp5
Cpa6
Rimbp2
Cd200
Cpne7
Aplp2
Hspb1
Cyp1b1
Wif1
Uckl1os
BC035044
Fam167a
Fam126b
Thbs2
Sox2ot
Cobl
Abca2
Gm45645
Slc9a4
Cttnbp2
Rabl2
Ifngas1
Npc2
Myo1g
Neurl1a
Bcam
Akap12
Rph3al
Rasgrp1
Cyp4b1
Frmd4b
Ldlr
Gm26671
Olfr652
Otogl
Zfp185
Tmem178b
Sema5b
Cldn15
Hoxb6
Cdh9
Bex3
Gm33037
Rps9
Nlrp6
Ndufb7
Ppic
Pdk4
Tex9
Galnt13
Gm21814
Pifo
Gm42836
Rpn2
Ccdc151
Slc37a4
Ccdc34
Slc16a7
5530401A14Rik
Syt12
Gm3772
Ift81
Rab3c
Ccdc88c
Ocln
Apmap
Gm14344
Pik3cd
Lrrc10b
Lpxn
Fblim1
Tmem117
Gm5737
Slc24a2
Scn8a
Frmd3
Nova1
Rims4
Txndc15
Gm45881
Elavl2
Nptx1
Cntnap2
Kif24
Adh1
Them7
Ror2
Mfsd4b1
Gprc5c
Steap4
Gm20646
Atp10a
Gab3
Prr5l
Ccdc96
Ccdc47
Rab20
Vgll3
Rspo1
4930473D10Rik
Wdr31
Aktip
Ankdd1b
Abcc3
Kcnab1
Fam110c
Efcab8
Melk
Gm16223
Cd1d1
Lat2
Shc3
Ccdc13
Magi2
Hibch
1700016K19Rik
Gm34549
Lrrc74a
Trbc2
Soat1
Tbc1d9
St6galnac2
Cd93
Sh2d4b
Tmprss2
Brip1
Ninj1
Kiz
Ttc26
Pon3
Pcsk1
Rexo5
Cd22
Kif2c
2310002F09Rik
Cables1
Tmem59
Myo3b
Rhoh
Rasd1
Lgr6
Slc16a1
Usp29
Mfsd12
Sectm1b
Cd37
AC167013.6
Maml3
Scn3b
9530068E07Rik
Gm5127
Irs2
E2f2
Pamr1
Tspan33
Atp2b2
Terb1
Nxpe2
Fhl5
Col27a1
Gm20532
Elof1
Scube2
Myom1
Trpm8
Fam184b
Tmod1
Pdzk1ip1
1700051A21Rik
1700129C05Rik
2410137M14Rik
4930444E06Rik
4933414I15Rik
4933436I01Rik
4933438B17Rik
A930003A15Rik
AC112142.1
AC124746.1
AC153150.1
AC153974.1
Alox8
BC055402
Ccdc184
Ccr3
Cpxcr1
D930028M14Rik
Dppa3
Gm13799
Gm1553
Gm27198
Gm29323
Gm30132
Gm597
Gsdma3
Klf14
Olfr48
Olfr873
Rergl
Slc22a19
Spz1
Txndc8
Sdk2
Mroh2a
Carmil1
Phyhipl
Adap2os
Cadm3
Romo1
Synpo
Chn1
Rab31
Msi2
Ncapg
AC107645.1
Gldn
Gm44992
AC154612.1
Gp1bb
Prtg
Krt20
Pantr1
Sox7
Gm21188
Cd52
Gm16070
Sall1
Nceh1
Isl1
Treml4
Ubash3a
Tmtc1
Gxylt2
Poln
Dnajc3
Hint1
4930447C04Rik
5033421B08Rik
Abo
Kcnt2
Gm14764
Oasl2
Plxnb2
4930444P10Rik
AC114585.2
Ifrd1
Shisa6
Tmed9
Macrod2
1700028M03Rik
1810007D17Rik
4930519H02Rik
4930528H21Rik
4931419H13Rik
4933405E24Rik
4933406K04Rik
5830411N06Rik
9830107B12Rik
AC125149.3
AC241621.2
Acp7
Btnl10
Ccr7
Chst13
Cpa5
Cplx4
Cyp11b1
Defb26
Gfra3
Gm14223
Gm16508
Gm21269
Gm26526
Gm26846
Gm28294
Gm30097
Gm31786
Gm34096
Gm34297
Gm36074
Gm45303
Gm9495
Gzmb
Hoxa11os
Klra1
Lrrc26
Ly6k
Lypd2
Lypd4
Olfr60
Olfr718-ps1
Prm3
Spdye4a
Tecrl
Tmprss11b
Tnp1
Tyr
Tfrc
Rasa4
Cyba
Krt7
Prex2
Col16a1
Itgav
Epha4
Ets1
Gm30414
Slc15a5
Wnt8b
Gm31135
Rps8
Gpr155
Gkap1
Grtp1
Tppp3
Ttll9
Rasl12
Nsdhl
Srpx
Fat1
Fam180a
Hoxb3
Fbxo32
Atp8a2
Cecr2
Adra1b
Rab3ip
Dkk3
AC123658.1
Gm13415
Gm15723
Pdcl2
Gm45607
Mark1
Dbil5
Mylk4
1700003P14Rik
Antxrl
Casr
Susd3
Strbp
Lrrtm1
Mal2
Pik3c2a
Mfap5
Kcnk12
Plxnb1
Sort1
Reck
Aadac
Lhx1
Usp2
Mpp7
Arvcf
Slc44a3
Hey2
Rpl26
Glis1
Rundc3b
Selplg
Gm10475
Slc15a2
Etnk2
Plac8
Fst
Mccc2
Plcxd2
Fat4
Lman2
Vil1
Tnc
2810407A14Rik
Cd19
Fam83d
Smco2
Gbp5
Sult1c2
Syne2
Dixdc1
Bend7
Sfmbt2
Rps3a1
Tmem158
Cotl1
Tgoln1
Slc6a9
Rabac1
Ccnd1
Lypd6b
Dlg5
Ms4a14
Gm43507
Frmd4a
3100003L05Rik
Hdc
Ank2
Pon1
Esco2
Ube2c
Intu
Dthd1
Nos2
Tecta
Tmem255a
Serpinb8
Surf4
Ccl22
Epb41l4b
Lctl
Tango6
Capsl
Cpm
Prkg2
9330154J02Rik
Pcsk6
1700006J14Rik
Pde3a
Dnah8
Gm14582
S1pr1
Trem2
Rcsd1
Rab36
Lrrk2
Proc
Gm39323
Gm28055
Strip2
Spa17
4933402J07Rik
4930425L21Rik
Pcdh7
Scube3
Gng12
Ank
Ccdc18
Klrb1f
P2ry14
Gem
Ccm2l
Bub1
Gm43016
Bnc1
Rgs3
Gm13479
Wscd2
Rbfox3
AC159282.1
E330013P04Rik
Fam183b
Gm17750
Slc13a3
Adamts3
Kif26a
Btc
Fbxw15
AC154838.3
Gcsam
Phldb2
Cdc20
Tox2
Fam107b
Rarb
6030407O03Rik
Gm28863
Cd53
Mbnl3
B130024G19Rik
Gm12511
Rab8b
Slc28a3
Adam11
Glyat
Calml3
Tenm3
Pacsin1
Efcab12
Cckbr
Slc10a6
Col6a3
Gm28727
Amhr2
B3gnt5
Gm26522
Slc2a3
Apold1
Cyp2d9
Pld4
Camk2b
Ifit1
Kbtbd11
Exd1
Cyp2j8
1700094M23Rik
Gm28548
Slc9a7
Gm42716
Rragb
Tpd52
Chst1
Ttll11
Sh3yl1
Ugdh
Has1
Adssl1
Id1
Frem2
Mb21d2
Il10ra
Fcer1g
Acot11
Nid2
Ccna2
Fam213a
4430402I18Rik
Ttc12
5430403G16Rik
Gm36660
Unc45b
Gm830
Tmco1
Ffar4
Gucy1a3
A830008E24Rik
Igf1r
Mgst3
Atp5g3
Muc13
Gm45524
Ttc34
Dgkh
Naip1
Casc4
AC152946.1
Iqsec3
Clec4a1
Tceal9
Adgrf5
Rpl41
Gck
Srsf10
Plbd1
Napepld
Rec8
Gm36840
Igf2bp1
Tnni1
1700025F24Rik
Agtr1b
Fpr1
Hcrtr2
Igfbp2
Gys1
Wnt4
Cyp2ab1
Itm2c
Cox6a1
Gm45716
Arhgef28
Sla
Cspp1
4930524B15Rik
Dmrtb1
1700015C15Rik
Slc17a1
Scnn1b
C1s1
Efcab2
AC168059.1
Mthfd1l
Gm11099
Optn
Mcee
Rfx4
Armc9
Tubb5
Fermt3
Npl
4930526L06Rik
Gm34466
Gramd1c
Bst1
Slc16a12
Gbp2
Eef2k
Rgs18
Dnah14
Gm29521
2810408I11Rik
Gm32926
Gm29502
2810004N23Rik
Cnpy2
Cnr2
C030034L19Rik
Tbc1d8
Abca4
4930593A02Rik
Gm16351
Prr18
Rogdi
Zfp703
4931428L18Rik
Eda2r
Lrrc34
Nrtn
Ankub1
Il1rl2
Phf19
Slc2a1
Asb4
Plpp3
Alkal2
Fads1
Lyrm1
Gpr160
E230014E18Rik
Tbata
Klf2
Arl4c
Hexb
Gclm
Nxn
Gfod1
Cux2
Ptch1
4930543E12Rik
Srebf2
Tmem56
Epb41l4a
Tmem151a
Gpr137c
Egr3
Slc6a15
Gm5627
Iqch
Xkr6
Rps6ka6
Trim30c
Rnf144b
Aim2
Prkcsh
Timp4
Cd248
AC192088.3
Notum
Nfam1
Ltbp4
Nbl1
Aqp5
Ifi207
Gm14249
Tfec
Gm13817
Med16
Dnm3os
Cstb
Cerkl
Itgae
St14
Hpgds
Kng2
Styk1
Zeb2
Klf12
Zim1
Barx2
Osbpl11
Epb41l3
Mgat3
Plpp1
Epb41
Syt9
Ankrd66
Fam20a
Dnaic2
Ces1b
BC035947
Acer3
Fap
Ccdc189
Elmo1
Plcz1
Mmp2
Odf3b
4930455D15Rik
Clmp
Pknox2
Fam169b
Tacc2
Gdap1l1
Cd48
5930430L01Rik
Cdkn3
Gm14963
Siglecg
4930568G15Rik
Olfr733
Hs3st1
Ell2
Fam84a
Gabre
Rad54b
Cacng4
1500015O10Rik
Hoxb9
Psmb4
Fam60a
Gm38562
Ms4a4c
Tmc4
Csrp2
AC158531.1
Tesk2
Nyap2
Gpt2
Gm10138
Ndufa2
Nsl1
Tmem258
Kcnh3
Fbln7
Uqcr11
Gm12576
Fgf9
Map3k7cl
Ginm1
AC154431.1
Msmo1
1700010I02Rik
Acsbg2
Pdcd1lg2
1700112M02Rik
Tmem97
Gm45030
Adgrg5
Bmp7
Isg20
Tpte
Snrk
AC133654.1
Dock11
Slc14a1
Adhfe1
Gfod2
L3mbtl3
Mir155hg
Rai2
4921518K17Rik
Vegfa
Slf1
Zfp385b
Slc25a15
March10
Mc2r
Bmp4
Folr2
Abhd12
Cfap126
Morc4
AC125041.1
Cacna1b
Gm20319
Sfxn2
Rbbp8
Kcnk3
1700017N19Rik
1700025M24Rik
1700030C12Rik
1700041M05Rik
1700066B17Rik
4930441H08Rik
4931429L15Rik
6030466F02Rik
AC126253.1
AC153365.1
AC154575.1
AC163280.1
AC168977.1
Atp8b3
C330024D21Rik
Cav3
Cst6
Cyp4f39
Dlk2
E330021D16Rik
Ern2
Esm1
Foxd1
Frrs1l
Gm10031
Gm11840
Gm11998
Gm16322
Gm28075
Gm29054
Gm32281
Gm36495
Gm37623
Gm45278
Gm45330
Gm94
Mc1r
Mfsd4b2
Mup4
Npy6r
Nutm1
Olfr113
Olfr180
Orm1
Otos
P4ha3
Retnlg
Serpina3f
Serpinb12
Serpinb1c
Slc22a16
Trgv2
Trim38
Trim80
Vmn2r82
Vmn2r96
Gm42705
4932415D10Rik
Sod3
Slco1c1
Pla1a
Gm26901
Rab7b
Arhgap39
Kif20b
Runx3
Anxa8
Iqcg
Aldh2
Gm12860
Gm30624
Htr2a
Bean1
Slc17a7
Svs5
Tmem51
Arhgap27
Fgf7
Reps2
Pgf
Nrp1
Cetn4
Ccdc191
Clec4a3
Cd300lg
Tie1
4922502D21Rik
4930533N22Rik
AC113031.6
Cfhr1
Fbxw19
Gdnf
H2al2a
Kcns2
Mael
Myhas
Ugt3a1
Vmn2r107
4930412C18Rik
Nusap1
1700013F07Rik
1700028E10Rik
Spsb4
Stk10
Nkd1
Gm15336
4930471E19Rik
Tpd52l1
Slamf8
Cdk1
Fam169a
Gm8439
Krt18
Mcc
Mfap2
Crtac1
Cenpv
Ifi209
Ankrd37
Gata2
Olfm1
Cd28
A830019L24Rik
Cd300c
Gm14461
Klra9
Prph
Slc10a2
Wap
Gm20661
Bard1
9130017K11Rik
Smdt1
Tespa1
Gm43948
Gm43666
Nmnat2
Gm20110
Spaar
Slc29a3
Aox1
Ubc
Gm26854
Ctsh
Slc25a37
5330417C22Rik
Ikzf2
Plk2
Ifi44
Jph1
Eldr
Cutal
Alox5ap
Elk3
Frzb
Ebf1
2900026A02Rik
Clec4a2
Atp8b1
AC158518.1
G630018N14Rik
Tspan8
Rgs9
Cachd1
Llgl2
Stk32b
Kcnb1
Sgo1
Lncbate1
Sycp3
Sytl4
H3f3b
Cbr2
Gcnt1
Cyp4f15
Btk
4930438E09Rik
Me1
Egfros
Lmln
Gm15860
Ddhd1
Gabrb2
Pirb
Enpp1
Cd151
Haao
Saraf
Unc13b
Itgb8
Tg
Rpl35a
Gria3
B430319H21Rik
Zranb3
Fam166b
Rpl14
Myct1
Myh14
Tmem154
Mcf2
Lman1
Wnt5b
Cndp2
Galntl6
Gm35618
Matn4
Dusp18
Tex11
Ptpn7
Slc9b2
Ddx4
Slc7a13
1810011H11Rik
Gm39149
Heatr4
Myom2
Rrh
4930477G07Rik
Slc35f4
Aire
Ifi27l2b
Morn2
Atp5j
Hmgcs1
BB557941
4930502A04Rik
Ubxn10
Ube2cbp
Noct
Kcnmb1
Gm20629
Lrrc69
Pgr
Wdr35
Phf6
Sult5a1
A230001M10Rik
Fxyd6
Gm15261
Mob3b
Ndufb10
Pfdn5
Sertad2
Ikzf4
Gngt2
Sh3rf1
AC123619.2
1110019D14Rik
Bend6
Gm14636
Fkbp2
Kank4
Prob1
Hspa12b
Clec18a
Agmo
Blcap
Cfap161
Gm36595
Pimreg
Tbx5
BC051142
Pcolce
Hdx
Mgam
Lgi2
Opn3
Spata48
4930587E11Rik
Nrap
Lrp5
Cenph
Lonrf3
Cenpi
Aig1
Apex2
Tex15
Eif3f
Marcks
Hlf
Nr2f1
Alox5
Map7d2
Gm29112
Pde4dip
Pde4d
Scn7a
Enpp3
B020031H02Rik
6430531B16Rik
Dmrt2
Cntnap5a
Gsg1l
Acnat1
Colgalt2
Hk3
Gm6994
Neu1
Ltc4s
Gm1992
Ndufa3
Nlrp3
Gm15347
Slc6a8
Tsc22d3
Arhgap22
Siglec1
Gm11149
Gm19301
Atp2b4
4930545L23Rik
Cfap73
Glrb
A230072E10Rik
Clstn1
Ttn
Aif1
P2ry10
Snap25
Lurap1l
Slc25a41
Adtrp
Gm31108
Jag1
Rnf24
Slfn9
Gm8251
Gm30211
Efcab7
Epb41l5
Aga
Phactr4
Cdc6
AC155255.1
Lrrc43
Ndufc1
Gm30613
Tomm22
Nphp1
Ank1
Cx3cl1
Slc12a7
Cd200r2
Echdc2
Sec61a1
Cox5a
Ccdc157
Slc16a11
Acot5
Incenp
Fam105a
Ssr1
Ucp3
Gm10687
Lmx1a
Sh3tc2
Lrrc63
Gm13266
Nts
2410004P03Rik
Jakmip1
Hnf4aos
Grem1
Ptgis
Btg4
Zfhx4
E130006D01Rik
4930563M21Rik
Dtna
Acad11
Cd2
Gpr132
Gm12022
Rimklb
Ebf3
Gabarap
D330037F02Rik
Nfatc2
Smpd3
Tec
D130043K22Rik
Pxdn
Unc5b
Ormdl3
Maob
Nrep
Rab11fip3
Nov
Sema4a
Kcnj8
Gimap8
Mroh5
Rgl1
Gm26889
Osr2
Tjp3
Racgap1
AC122382.2
Dmc1
Wdr60
Gm12609
Mtcl1
Plag1
Tulp3
Rgsl1
Etv1
Slc11a2
Gm13470
Sgk1
Gm34081
Pacrg
Slc28a2
Gja4
Nek1
Car8
Lpar3
Gm35572
Igf1os
Platr16
Ndufb11
Cryl1
Gm42791
1200007C13Rik
AC160863.4
Esr2
Gdap1
Smpx
AC115760.1
Acrv1
Clec1b
Tmem89
Frmd6
Ifitm2
Limch1
Cmklr1
Grhl2
Errfi1
Ranbp3l
Foxred2
Rtn1
Nipal3
Gm26887
Pde8b
Baiap2l2
Scara5
Slc23a1
Gimap4
Tcrg-C4
Cox7a2
Syn1
Myot
Ppp2r5a
Lifr
Ankrd28
Slfn1
Tmigd3
Hes1
Pepd
Hgsnat
Spata13
Slc38a11
Rftn1
Pla2g2d
Hsd11b1
Cnih3
Gm46124
Arhgef15
Micall2
D830036C21Rik
Gm28376
Pcdh1
1700012B09Rik
Bcas3
Ptms
Ccrl2
Scn1a
Smim24
AC114585.1
Cox6b1
Plaur
Fxyd1
Dgki
Pag1
Gm36388
Dtx1
Ccdc7a
9230112D13Rik
Gm15917
Gm17197
Klk14
Pbx4
Mpp6
Dse
Slc16a14
Nrip3
Gm6999
Bdkrb2
Atp13a4
Miga2
Tcirg1
Rfx2
AC131747.2
9530052E02Rik
Clrn3
6030443J06Rik
Prex1
Slc38a5
Slc6a20b
1700007K13Rik
Pbk
AC159619.3
Gm40331
Rragd
Mroh7
Bspry
Cd200r3
Prrg4
Phf11a
Ccdc178
Myo15b
2700069I18Rik
Abhd5
Col5a3
Spta1
Slc5a3
Ndufs7
Ccnf
Coro2a
2610301B20Rik
Rorc
Ano9
Tinagl1
Slc4a4
Ttc39c
Gm40438
Sox13
Gm8369
Cyp2j9
2810403D21Rik
AC160029.2
Serpine2
Lrp2bp
Hpse
Efr3b
Gm20647
Slc6a4
Ephx1
Wdr93
Slc17a6
Itga2
Sec14l4
Acot6
1700008K24Rik
1700018F24Rik
Gm12911
Gng11
Gm10373
Abat
1700108F19Rik
2310015D24Rik
4833412C05Rik
4930431F12Rik
A730098A19Rik
A930014E10Rik
AC093022.1
AC122834.1
AC123735.1
AC154368.1
AC160124.1
AU018091
Aldoart1
CT009556.2
Cst13
Dbh
Fbxw13
Gm12596
Gm14100
Gm16578
Gm27242
Gm29895
Gm40770
Gm42196
Gp6
Hsd17b13
Klrb1c
Lect2
Nat8f2
Nctc1
Nr1h5
Olfr111
Olfr115
Olfr239
Olfr657
Olfr730
Scgb1a1
Scn11a
Sult2a7
Sycp1
Tcrg-C1
Tmem114
Tmem215
Wfdc6a
Epyc
B230217J21Rik
Tbx3os1
Pkia
Afap1l1
Fbxl2
Ccdc65
Fbxl7
Jazf1
Gm34885
Cad
B930092H01Rik
Casp7
AC159002.2
Gm28638
Gm26902
Tex45
Tal2
Prag1
Arf5
Slc25a4
Plek
Fsd2
Lrrc56
Nox1
Lamc2
Prkcz
Akap7
Rhbdl3
Kctd1
Prkd1
Hpca
Padi2
Phkg1
Ppp1r1b
Gm15577
Slc19a1
Mei4
Gm15228
Dytn
Tpm1
Selenok
Mapk6
Gjb3
Bcap31
Hs3st4
N4bp2
Hopx
H2-Q6
Vstm5
Pde9a
Cpn1
Psrc1
Ctsa
Hyal1
Capn6
Gm44696
4933416E03Rik
Il20rb
Nudt4
A330040F15Rik
Fbln2
Aldob
Cfap58
Mfge8
Jph2
Ltb4r1
Sycp2
B630019A10Rik
Kcnh1
Nipsnap1
9330175M20Rik
Tmem132a
Hcfc1r1
Sh3bgrl3
Ifi202b
Wdr34
Gm13629
Selenos
Vmn1r4
AC132833.1
AC139845.1
Tmem100
Gm26555
Irx2
Serpina3n
Mefv
Vsnl1
Bmp3
Egln3
Esrrb
Ramp1
Trp53cor1
S1pr3
Pcolce2
Abca14
Steap2
Gm2694
Cdkn1a
Csf2rb
Eef1a1
Itga5
Tcf7
Lingo1
Il15
Rbm47
Stbd1
Cubn
Tnfaip2
Gdf15
Fstl1
Gli1
Rhpn2
Gm33843
1700030F04Rik
A830035A12Rik
Ankrd31
Bcas1os2
Eef1akmt4
Plg
Agrn
Gm7457
Cacna2d1
2010110K18Rik
Cd8a
Gm13565
Gm15398
Hoxd10
P2rx1
Pcdha1
Serpini2
Xkr9
Gm11861
Gnb3
Sgo2a
Emid1
Gm32569
Impad1
Fam129a
Ackr4
Bmp2k
Slc34a2
Tmem45a
Rgs2
Ssr4
Tmed3
Gm13111
Bscl2
Depdc7
Tspo
Tmem147
Htra1
Il15ra
Mttp
Col4a1
Dpf3
Gm10685
Sppl2b
Gm36569
Ctcfl
Ntn1
Tmem213
Arhgap42
Npffr1
Col6a1
Ppat
Gpam
Gm31816
Hacd4
1700024B18Rik
4930549C15Rik
Ermp1
Ezr
Ntn4
Chst8
Pgap1
AC153506.3
2610027K06Rik
Adora1
1700112D23Rik
Grk3
4933417O13Rik
Eif3i
B4galt6
Tnfrsf21
Gm20658
Kcnq1
Stx7
Neto2
Ffar2
Abca8b
Dact1
Wfdc15b
Olr1
Chil5
Twist2
Tmc7
Arl15
Kcnip1
AC160863.3
4921539H07Rik
Kif21a
Ier3
Pkn3
Tpk1
Bin2
Cbfa2t3
Bhlhb9
Clec14a
Zfp704
Bcl2l1
4631405K08Rik
Stum
Stau2
1700042O10Rik
Ift57
Sowahc
Afap1l2
Lrrc8c
Crybg1
B530045E10Rik
Sema5a
Slc2a12
Dcst1
Mogat1
Thnsl2
Tspoap1
Mid1ip1
Zfp618
Pla2g4e
BC006965
Fmo1
2700089I24Rik
4933427D06Rik
Zmat4
C330027C09Rik
Azin2
Tnfsf10
A530058N18Rik
Nup210
Fam92b
Jph4
AC122346.1
Slc1a2
Themis2
Rubcnl
D3Ertd751e
K230010J24Rik
Aldh8a1
Gm44175
Npy1r
Alms1
Car10
Nmbr
Tmem26
F830016B08Rik
Oxtr
Gm12709
Cav2
Crabp1
Tbx15
Scoc
Mpzl1
Dpysl3
Ptgs2
CT009754.1
Ndufb5
Srrm3
Pik3c2b
4732419C18Rik
Kbtbd12
Bbs9
Tiam1
AC158633.2
Stra6l
Chrna2
Nuf2
Naga
Pde5a
Fgd3
Dpep1
Batf3
Kank3
Gm46224
Sec14l5
Fa2h
Gm1715
Ifi208
Parpbp
Gm9750
Rap1gap
Tmed4
Mgmt
Ildr1
Gnao1
Gm31305
Oacyl
Ttc8
Enpp5
Gm10440
Gimap6
Shroom2
Panx1
Pabpc6
Pbp2
Gm24474
Gnaz
Jade3
Otoa
Ddost
Ccdc158
Cdk15
Pcyt1b
Cyp2j7
Gm12064
Tdrd5
AC125328.1
Rasgef1b
Tspan2
Mctp2
C9
C330002G04Rik
Nudt17
Nwd2
Vmn2r2
H2-DMb2
Gm39348
Tlr13
Cep41
Zfand5
F8
Cntn5
Ifit3
Sypl
Asb2
Mal
Sytl2
Hsd17b4
AU019990
Lrrc1
Gch1
Gm16759
Gm40645
Dnaaf1
Gm30978
Rab39
Spata7
Mpzl2
Maf
Chaf1a
Cygb
Inhba
Enpep
Defb30
Cebpb
Rell1
9330182L06Rik
Cd164
Cox7b
M6pr
Samd13
AC160061.1
Serpinh1
Gm15270
Acat3
Cyp19a1
Agxt2
Ifitm10
Txndc5
Hormad2
H2-DMb1
Tmcc2
A930033M14Rik
AC154227.2
D030045P18Rik
Isx
Rgs16
Trim72
1700001P01Rik
Gm11264
Lrr1
Kcnip3
Lhfpl4
Selenof
Mcoln2
Cdkl2
Lrmp
Lrtm1
Lgi1
Gm2087
Gm29681
Gm40055
2310016D23Rik
4930455B14Rik
4930470O06Rik
4930500M09Rik
4930524O08Rik
4931431B13Rik
5330426L24Rik
A230098N10Rik
A930024N18Rik
AC098728.1
AC156794.1
AC158798.1
C430049E01Rik
CT010456.3
CT025624.1
Cox8b
D630023F18Rik
Galr3
Gdf2
Gm15523
Gm34973
Gm3510
Gm37214
Grpr
Hypm
Izumo1
Mlana
Mobp
Nefl
Olfr46
Platr28
Slc6a14
Svs6
Tbx20
Tgm6
Tnfrsf13c
Trim52
Zdhhc11
AV064505
Efcc1
Gm13483
Gm40614
Bambi
Il17rb
Rer1
Slfn3
Dpysl5
Lamc3
Ndufc2
1810046K07Rik
AI504432
Ihh
Lhx1os
Iqcb1
Gm15891
Gpr174
Spc25
Tubb2a
Wdhd1
Nudc
Sema3c
Wnk4
Ndufa5
Shisa5
Arhgap26
Lilrb4a
Odf2l
Bpi
AC124585.1
Hsf2bp
A230057D06Rik
9130204K15Rik
Gm26801
Papln
Faah
Sgpp2
Anapc15
Tbc1d32
Pgrmc1
Sept3
Gm553
Pdgfrl
Nxf3
Steap1
Emc10
Tmem238
Prelp
Parp8
Ushbp1
Csgalnact1
Stmnd1
Fgd2
Ttll7
Mrln
Tnfaip8l3
Ogn
Plekhh2
Tmem9
Ndufa7
Krt222
Ppp2r2c
Eps8l3
Fasn
Txn1
AC160931.1
Dhx40
Wdr90
D630033O11Rik
Acox2
Man2b1
D430042O09Rik
AC154627.2
Vegfd
Fmo5
Plekhb1
2310001H17Rik
Lzts3
Fcgr4
Ino80dos
Tuba1a
Lrrc39
Lrrc8b
Sdf4
Ppp1r1a
Crb2
Gm26700
Masp1
S1pr5
Clic5
Rbpjl
Hspb7
Gm6634
Olfr658
Zg16
Smim5
Prdx5
Gm6249
Myl9
Atp13a5
Ercc6l
Gm13938
Shcbp1
Myo16
Slc22a1
Syngr2
Gm40841
AC162181.1
Ecm2
Khdrbs3
Gm32507
Pdgfrb
Bag2
CT025639.2
Dglucy
Mroh8
Als2
Rhbdl2
Rps2
Pbx3
Fam20c
4930598N05Rik
AI481877
Gm6569
Gm44507
Halr1
Lemd1
Pfn4
Spef1
Dalrd3
Cd33
BC065397
Zmiz1os1
Abi3
Cd9
Gm32200
Il1r2
Rab3b
Slc39a4
Mtss1
Gm13814
Slc38a1
Ccdc68
Cyp4v3
Slco5a1
Sugct
Aprt
Gm10848
Cdca8
Bcl2
Akap14
Gm4258
Cnr1
Asb11
Arap3
Ggt5
Pdgfb
Rab11fip4
Tmem107
Pik3cb
Slc14a2
Prss8
Paics
Casz1
Slc23a4
Ncmap
Awat2
Caly
Gm17590
1700018B24Rik
Ppbp
Gm36640
Gm12866
Suclg1
Myo3a
AC133948.1
AC122397.1
Nnmt
Gsta3
Ttll5
Tex14
Bad
Myo7a
Rnf122
D6Ertd474e
Car4
Ceacam16
Galm
Gm5617
Fam234b
Hspa2
Slain1
Satb2
Gadd45g
Btbd11
C130060K24Rik
Sigirr
E330020D12Rik
Cdc14b
Gbe1
Gng4
Ros1
Dusp5
1700120O09Rik
H2-DMa
Fbxo45
Ift80
Rpl34
AW551984
Chrna5
Mrgprg
Gm42567
Irak2
B230118H07Rik
Hoxb4
2210011K15Rik
3830403N18Rik
Gm42555
Olfr986
Chst10
Spint1
Acyp1
Prima1
Gm15675
4930488L21Rik
Gm13269
Slc17a8
E230016M11Rik
Ptp4a1
Olfr56
Cideb
Tmem28
Gprc5d
Mogat2
1700030J22Rik
Prkcd
Dhfr
P2rx6
Gm10125
Mettl26
AC154264.2
Gas2
Ccnd2
Gna15
C1qtnf4
Kcng3
Id2
Atp5d
Plxnd1
Gpr27
Cyp51
Grm4
Ogdhl
Plxna2
Tmem14c
Pou6f1
Pole
Fads3
Hsd17b12
Cxcl12
Ldlrad3
Bicc1
Sim2
Gm13936
Duox2
Icam2
Cpxm1
Gm36945
Rdh11
2410015M20Rik
Rnf26
Plcb2
Syt14
Fgd4
Fgfr3
Catsperb
Nfasc
Mfhas1
Ndufs2
F3
Fam84b
Sdk1
Zp3r
Ctdspl
Junb
H2-Q7
Cyp2d10
Ccdc175
Gal3st2c
Gm45096
Il9r
Mxd3
Myt1
Nrn1
Patl2
AC159267.1
Gm16087
Mgarp
Ccne1
Gldc
Tmem144
Erlin2
BC034090
Tcte2
Txk
Tns3
Myrf
Ift172
Rasgrp4
Gm11837
H2-T23
Cd109
Galc
Ifi214
Pde1a
Tmx4
Klhl23
Kmo
Trim9
Gde1
Prelid2
Sec11c
Klhdc7a
Gm20429
Jag2
Pank1
Siah3
Sept11
Sclt1
Idh2
B4galt5
Macrod2os1
Serpinf1
Rps20
4930401C15Rik
AC124555.1
AC159462.2
Car6
Gm11376
Gm26807
Gm33838
Scrg1
1700095J07Rik
AC124687.3
Gm38303
Gm9934
Rnase1
Slc36a3
A930009A15Rik
AC156790.4
AC165245.1
Baat
Btbd18
Cd177
Ces2e
Gm14266
Gm16024
Gm26619
Gm37896
Gm39302
Gm42601
Gm43913
Klk8
Klrb1b
Mpped1
Nkg7
Nlrp12
Olfr558
Slmapos2
Vmn2r78
Gm9947
Rflnb
Aldoa
1700027J07Rik
Clip4
Iah1
1110032A03Rik
Gm29536
BC039771
