Cfd
Reln
Lyz2
Retnla
Frmd5
Mageb18
2010106E10Rik
Scd1
Fn1
Hbb-bs
Nrxn1
Rtl4
mt-Nd3
Adamts20
Mecom
Csmd1
Apoe
Saa3
Frmpd4
Agbl1
Fgf14
Inpp4b
Kcnk2
Lsamp
Prg4
Hba-a2
Slpi
mt-Nd5
Gm42418
Fgf13
C7
Hba-a1
mt-Nd6
Kcnip4
Lyz1
Ptprb
Mmrn1
Hbb-bt
Igfbp5
Pcdh9
Hp
Nnat
Erbb4
Dpp6
Dnah12
mt-Nd2
Spag16
Ctnna3
Fmo3
mt-Nd1
Col8a1
1700007G11Rik
mt-Co1
mt-Nd4
St6galnac3
AY036118
Agbl4
Mest
RMST-1
Nrxn3
Rgs22
Alox15
Kcnq5
Pecam1
Kctd8
Cfap54
mt-Cytb
C230004F18Rik
Dnah11
Tmem232
Rp1
Ccdc162
Atp6v0d2
Dnah9
C1qa
Eln
3300002A11Rik
AC140209.1
Hydin
Ankfn1
Dnah6
Cd5l
Lrriq1
Ccdc30
Cfap44
Nxph1
Pde4b
Mmp12
Tmem212
Kirrel3
Wdr95
Cfap43
Stk33
Gsn
St6galnac5
Cfap61
Adcy8
AC165092.1
C230072F16Rik
Spef2
Ccdc170
Dach2
Ak9
Pde11a
Lrrc36
Gria4
Vegfc
Crip1
Wfdc17
Pkhd1
Atp1a1
Cenpf
Myh11
Gria1
Pf4
Cyyr1
Nkain2
Il1rapl2
Gm7173
Gk
F5
Sult1e1
Spag6l
Dmd
Ldb2
Zbbx
Grik2
Rgs5
Kcnd2
Laptm5
Fat3
C1qc
Tmsb4x
Tmem45b
Top2a
C3
Scn3a
Zfp804b
Npr3
Cacna1e
Bbox1
Nkain3
Flt1
Unc13c
Cd163l1
Padi4
F13a1
Abcc9
Pcdh11x
Slc25a21
Fmr1
Cybb
Kcnc2
Cilp
Cdhr3
Sntg1
Chrm3
Ccdc146
Gpx3
Ccr2
Ank3
Ctnna2
Spata17
Itgam
Gm609
Ak7
Armc4
Ptprt
Tmem163
Ttc29
Dkk2
Grip1
Dach1
Spag17
Aspm
Clnk
Dgkb
Dnah3
Cdc14a
Gm20619
Cdh13
Gm973
Igfbp6
4833427G06Rik
Wdr78
Gm13986
Thbs1
Cacnb2
Wdfy4
Ptchd4
Dcdc2a
Ccser1
Gm12381
Ppil6
Dnah5
Cadm1
Mki67
Skap1
1700012P22Rik
Vwf
Dnah10
Il23r
Esrrg
Gm37381
Ccdc180
Mdga2
Astn2
Vwa3a
Ctnnd2
Ifi27l2a
Cd44
Prc1
Gm12695
S100a6
Acsbg1
Ccdc3
Kcnma1
Gm42906
Adgrl4
Kif6
Rims2
Ccl2
Cep126
Tmem132b
Nrg1
Dnah2
Mctp1
Cfap65
Fndc7
Rarres2
Cd226
Ednrb
Igfbp3
Samd12
D5Ertd615e
Shank2
Tpx2
Wdr63
Nek11
Cfap77
L3mbtl4
Grm3
Lrrtm3
Lnx1
Ncam2
Vwc2
Gm38048
Cfap46
Ccdc187
Mapk10
Kcnh8
Ccdc148
Unc5cl
Wdr66
Rdh16
St18
Shisa9
Bank1
Gpnmb
C1qb
Ccdc39
2010001K21Rik
Pax5
Enah
Ccl6
Gm42722
Flt4
Etl4
Igsf5
Fam47e
Prom1
Adgre1
Cd163
Nek10
Grm8
Neto1
Wdr49
Col6a5
Prox1
Pi15
Ckap2
Gja1
Grik4
Cfap69
Ano5
Igfbp4
Bmx
Ppp2r2b
Robo2
Gabrg3
Gabrb1
Cadm2
Rbfox1
Igkc
Lockd
Plcxd3
Rsph10b
Rbpj
Serpine1
Neil3
Actb
Tsga10
Trdn
Cenpe
Gnal
Kif9
1700011I03Rik
Selenop
Cfap74
Sntn
Sdc3
Vsig4
Snca
Pappa
Adgb
Dcn
Elmod1
Ntrk3
Cd74
Fcna
Sorcs2
Adarb2
9630002D21Rik
Syt10
Cxcl13
Atp8b5
Mrc1
Tnip3
Rnf128
Galnt18
Trim7
Pex5l
Scd2
Plch1
Lrg1
Ulk4
Gfra1
Fmn2
Sorcs1
Prickle2
Upk3b
Pcdh15
Dock2
1700111N16Rik
Erich3
Cmss1
Csmd3
Apba2
Ism1
Fhad1
Itgbl1
Emcn
Cuzd1
Fbxl13
Palm2
Stox1
Grin2a
Hs6st3
Cacna2d3
Gprin3
Wwc1
Lca5l
Ap1s2
Cd24a
Ofcc1
Iigp1
Gja5
Drc3
Stpg1
Pld5
4930544I03Rik
Aqp1
Chn2
Dnah7b
Mt1
Nav2
Fmo2
Lrp2
H2-Aa
Gm16201
Ttc21a
Ccl8
Bcl11a
Dnah7c
Camk1d
Glis3
Mgp
Cfap70
Acpp
Pip5k1b
Dnaic1
Armc2
Lrrc71
Lyve1
Ralyl
Col25a1
Dscaml1
Lrrc6
Alas2
Ikzf3
Greb1
Thbd
Thsd7a
Fgf10
Klhl4
Blk
Nlgn1
H2-Eb1
Hdac9
Lrguk
Fank1
Egr1
1700018A04Rik
Arhgap15
Foxj1
Gm20125
Osbpl6
Adamts16
Epha7
Klhl14
Zfp474
Nexmif
Kif27
Frmpd2
Bmpr1b
Pax8
Fth1
Cldn2
Gm12153
Diaph3
Sorbs2
Slc9a3
Cabcoco1
Gas1
Wnk2
Clstn2
Hmmr
Ctsd
AL591843.1
Gpx1
Arhgef38
Gm45846
Susd4
Tmem108
Kif4
Ppp1r36
Rnf180
Nme5
Ddo
Timd4
Grem2
Ccdc153
Ly6c1
Efhb
Ms4a1
H2-Ab1
Trhde
Cytl1
Klra8
Slc26a3
Lrrc9
Sgip1
Slc39a8
Galnt14
Msr1
Alcam
Cfap206
Slc9a9
Endog
Gpm6a
Togaram2
Arhgef33
Selp
Adam12
Tll1
Gm15987
Cd200r1
4930567H12Rik
Fasn
Dnah7a
Corin
Maats1
Gfpt2
B3galt1
Kcnj16
Clu
Pi16
Il34
Ube2u
Rgs6
Vwa3b
Sema3e
Nol4
Gpc6
Lrrc4c
Acta2
Col14a1
Jhy
Serpinb2
Hhip
Ctss
Knl1
Acsl1
Crocc
Ttll3
B2m
Lekr1
T2
Gm35041
Lgals7
Lars2
1700028P14Rik
Cdkl4
Dlgap5
Samd5
Ndst3
Tmc5
Cldn5
Enkur
Ankrd65
Pparg
A530053G22Rik
Dner
Hmcn1
Slc12a2
Prm2
Kif26b
Abca8a
Ect2l
Atp11a
Cpe
Hspa5
A830018L16Rik
AC160562.1
Mlf1
Cd209b
Hsp90aa1
Spata18
Rgs7
Cdh10
Kif15
Ptprc
Kif23
Camk4
Gm29538
Myrip
Clec9a
Fbn1
Crocc2
Dlg2
Slc7a2
Dok6
4932443I19Rik
Ryr2
Efcab11
Gm12296
Iqub
H2-K1
Dgkg
Angpt1
Tmem164
Ccdc60
Gm43914
Tnfrsf11b
Ntm
5730522E02Rik
Egflam
Emp1
Nme9
Eepd1
Pde10a
Gm29669
Postn
Cds1
Cavin1
Trpm3
Pdxk
Gm3294
Ccl28
Piezo2
She
Emilin2
Mx1
Arhgap25
Ppm1e
Spock3
Lrrc74b
Lgals1
Mettl24
Epha3
Aff2
Scn5a
Kynu
Mafb
Tbxas1
Fam149a
Pdzrn4
mt-Atp6
Krt14
Cadps
Fras1
Card11
Ankrd6
Fam189a1
2210408I21Rik
Hs3st5
Serpinb1a
Nabp1
Spc25
Aebp1
Gm29266
Gna14
Mapk15
Muc16
Srd5a2
Aoah
Itk
Gm20755
Gm46323
Kctd16
Mylk
Tc2n
Gas6
Ctsb
Slit2
Btla
Pgm5
Uox
Trpc5
Sobp
Cfap52
Scn9a
Adamts19
Rnls
Strbp
Cfap221
Rsad2
Gpat3
Prkar2b
Cdk6
Irf4
Smpdl3a
Ms4a4b
Skint3
Atp6v0a4
Ccdc150
Gm21976
Gm16083
Timp2
Dpt
Rfx3
March4
Cftr
Tnc
Rspo2
Ect2
Lhfpl3
Gdf10
Gpc5
Sned1
Rplp1
Cdh5
Edil3
Sfrp4
Ckb
Dnaja4
Ubash3b
Map3k19
Col8a2
Cfp
Il7r
Fam227a
C2
Grn
Rnf43
Scube1
Dao
Aldh1a3
Itga6
Lca5
Cdh11
Ddah1
Plekha6
Parm1
Gm17225
Gm13481
Sema3g
Thbs2
Opcml
Lum
Prss23
Svep1
Il1rapl1
Cpa3
Vim
Kcnj15
Gm12295
Slc2a13
Ccdc40
5830411N06Rik
Adgrl3
Adgrg2
Cep55
Armc3
Clec10a
C6
Dpy19l2
Msln
6530403H02Rik
Thrsp
4833428L15Rik
Kif11
Itm2b
Epp13
Gm16168
Gabra3
Dynlrb2
A330093E20Rik
B4galnt2
Lef1
Ltbp1
Stac
Angpt4
Deup1
Ttc25
Il1rl1
Ube2c
Rspo3
Celsr1
Hpse2
Cd38
Gatm
Lrrc3b
Hnf1aos1
Adra2a
Plvap
Kif18b
Megf10
Syne1
Fndc1
Dthd1
Fabp4
Gm44127
Gm44174
Cpne4
Morn3
Nptx1
Veph1
Mannr
Tctex1d4
Wnt2
Lrrc23
Maob
Gm40646
Itga8
CT010465.1
Vmn2r26
Gm10714
Gm10044
Tmem150c
Cdk1
F10
Hsp90ab1
Chchd10
Ctcflos
Notch3
Asb14
Acsm3
Dsp
8430408G22Rik
Tinag
Fgf12
Gm14280
Ptpn20
Peg3
Specc1
Pkhd1l1
Myo1b
Ccdc114
Col1a1
Grk4
Apln
Lmntd1
Fgf1
Prdm6
Atp8b4
4933436I20Rik
Flrt2
Alox5ap
Stmn2
Egfl7
Ssr3
Sntb1
Egfem1
Clec3b
Cenpp
Wdr27
Rsph14
Laptm4a
Scml4
P3h2
Osbpl3
Lpl
Lhfpl2
Tox
Dclk1
Sim1
Hs6st2
Abcb1b
Gpc3
Osr1
Ano3
Bbof1
Gpr39
Cacna1d
Erich2
Cavin2
Nrg4
Gm29521
Fam155a
Cox4i1
Drc7
Rassf9
Garem1
Slc1a1
Fermt1
Epsti1
Robo1
4932411K12Rik
Chsy3
Dbi
Fhod3
Abtb2
Mak
Kcnmb2
Dnal1
Nav3
Gramd1b
Gm33056
Chrm2
Sybu
E330013P04Rik
Fli1
Cacnb4
Pla2g16
Fam198b
March1
Entpd1
Stab1
Kalrn
Cntn1
Birc5
Cdc20b
Adam2
Lrrc51
Gm12811
Gm30211
Trabd2b
Olfr1033
Syt1
Pcdh19
Pacrg
Syt2
5330413P13Rik
Adam22
Ttc16
Adamts5
S100a9
Ndnf
Slc6a20a
Klri1
Mok
Myb
Kcnn3
Zmynd12
Rgs7bp
Ccl5
Kcnd3
Rapgef4
Fut9
Pde7b
Nipal2
Pif1
Slc6a17
Mkx
Depdc1a
Pik3c2g
Fam216b
Dgat2
Gimap3
Rgs17
Akap6
Slc9a6
Ehhadh
Bicd1
A330033J07Rik
Calm1
Magi2
Dysf
Syk
Ak8
Ptn
AC114585.2
Rbp7
Dydc1
Ccl9
Adamts18
Stra6
Marco
Lmcd1
1700047G03Rik
Plin4
Sptlc3
Wnt8b
Cacna1c
Nrk
Adgrv1
Tekt1
Drc1
Calcrl
Wdr17
Cd209f
Cenpa
Cxcl2
Pde6h
Cdo1
Daw1
4933406B17Rik
Gm33206
Tsnaxip1
Trank1
Gm31522
Ppp1r14c
AC158535.1
Pbk
Sfrp2
Gm8739
Cmtm8
Col26a1
Sirpb1c
Spp1
Fstl4
Slc9c1
Kcnq3
Saxo2
Sh3gl3
Lmod1
Fbln1
B3galt2
Nrg2
Slc35f3
Tmem132d
Gm35154
AC164161.2
Cep83
Bmper
Il2ra
Sema3a
Ccdc138
Jam3
Mt2
Ppargc1a
Cd36
Tek
Nox4
Ptprk
Parpbp
Tal1
Hsp90b1
Art3
Cd83
Tm4sf1
Hpgd
Adamtsl1
Xkr4
Epcam
Myo1f
Itgb2
Itga4
Col4a3
Zswim5
BC051019
Fpr1
Aff3
Fgd5
B4galnt3
Folr1
Casc1
Chpt1
Prdm16
Ehf
Agtr1b
Dsg2
Runx1
Gm20618
1700011H14Rik
9230114K14Rik
Cyp2e1
Mns1
H2-D1
Mlph
Fmod
Pax2
Rsph4a
Mis18bp1
Sco2
Sec14l3
Sema5b
Tubb5
Btnl9
Esr1
Gm21798
Galnt17
Ccdc85a
Ctsc
Rpl38
Amph
Lgmn
Erg
Hsph1
Hmga2
Hs3st4
Ncam1
Asic2
Sidt1
Gipc2
Gm14005
Apol11b
Fhl2
Fbxo36
Mmp7
Pck1
Nrcam
Penk
Pilra
Prr16
Plekhg1
Acacb
Trf
Fam81b
Dock8
Ift88
Rps14
Efcab6
Pnpla3
Rapgef5
Hunk
Ubxn11
0610040J01Rik
Gm765
D630024D03Rik
Inmt
Gm28905
Cfap53
Gramd2
Rps5
Eva1a
Apba1
Fzd6
Map3k21
Rnf125
Sema3d
Rxfp2
Ndc80
Kndc1
Gpm6b
Zfp366
Trim2
Clmn
Shroom4
Cd247
Ccdc81
Hepacam2
St8sia4
Rnase4
Crp
Ankef1
Ppp1r42
Espn
2610307P16Rik
Gm30173
Bgn
Efhc1
Shank3
Gm28729
Cst3
Ftl1
Nt5e
Col28a1
Srcin1
C1qtnf7
Ttll6
Bmp6
Gpr141
Efemp1
Gm36827
Zfand4
Prkcb
Mcidas
Stpg2
Lrrn4
AC163354.1
Ddc
Thsd4
Gnai1
Gpc4
Pou2af1
Clspn
1810046K07Rik
Csrnp3
Retn
Cfap45
Cfap57
Tmtc2
Hpca
Cd84
1700020G17Rik
Gabrb3
Rasgrf2
Car2
Bcar3
Svopl
Vcan
Spon2
Teddm2
Gm17359
Map2
Hnf4g
Serpina3b
Acaca
Mlip
Ank1
Col4a4
Creb5
Rpgr
Dnali1
Rims1
Pih1h3b
Kctd12
Cndp1
Fbxl2
Ctsl
mt-Co3
Ppp1r16b
Col3a1
Olfr655
Trim37
Sncaip
Plet1
Klhl32
Cntn6
Vwc2l
Ccr5
Ifngas1
Creg1
Patj
Myo6
Wnt4
Frk
Gap43
Gm17276
Wfdc8
Kcnk13
Ephb1
Sh3gl2
Npas3
Eno4
Spock2
Cyb561
Bcat1
Cpxm2
Rsph1
Igsf11
Sema6a
Cd86
Iglc2
Slfn4
Ccnb1
AC121574.1
Inpp5d
Cyp2f2
Tgfb2
Dync2h1
Sacs
Unc5c
Tshr
Cnksr2
Oat
Jade3
Gfra2
Clic6
Lyn
Pcp4l1
Gm36431
Cdh1
Ifitm3
Nhs
Ckap2l
Cdkl3
Eya1
Foxp2
Rnf152
Abr
Slit1
Kcnab1
Wt1
Pdlim3
4933406I18Rik
Vat1l
Ptprn2
Rpgrip1l
Abcd2
Xcr1
AC147241.1
Kcnk1
Gm35552
Tbc1d1
Ankrd45
D030045P18Rik
Pimreg
Prr11
Pcx
Stox2
Rian
Mkrn1
Cpd
AC105167.1
A1cf
Slc7a10
Ankrd42
Ttc39a
Cdh2
Plxna4
Trim59
Lama2
Eps8l2
Abcg3
Slc4a8
Fam159a
Slc22a23
Plxdc1
Acvr1c
Agbl3
Ccnjl
Sulf1
Plekhh1
Gm595
Prkg1
Gm4221
Mycbpap
Nebl
Zdhhc14
4930447C04Rik
Trbc2
Fbxw25
Mpp1
Elovl7
Sorbs2os
AC153370.1
Cd209d
AC154576.2
Serpinh1
Cidec
9530059O14Rik
Rps21
Il18rap
Clec4d
Ppfia2
Cdkn2d
Mtus2
Knstrn
Hmcn2
Nyap2
Agbl2
Cit
Cryab
Sgsm1
Rnf32
Usp43
Rfx2
Lhcgr
1700030F04Rik
Mamdc2
Tyrobp
Podnl1
Igf1
Gm27211
Paqr5
Morn1
Trp73
Atp2a2
Gm13091
Adcy5
Ankdd1b
AC159188.2
1700088E04Rik
Gm26740
Chrdl1
Ift74
6820408C15Rik
Fam81a
Rflnb
Enpp2
9530077C05Rik
Ksr2
Cfap100
Ptafr
Ncapg
C1ra
Sel1l3
Pnoc
Adam23
Psap
Cxcl10
Dzank1
Slfn9
Car5b
Cerkl
Mboat2
Pak3
Slc35f1
Nrp1
Med12l
Sctr
Smoc1
Chka
Wdr72
Celf4
Plcd4
2610028H24Rik
Fyb
Tenm4
Catip
Upk1b
Rpl8
B430010I23Rik
Spint2
Phactr2
Pltp
Tkt
Sptb
5530401A14Rik
Sgms2
Ehd4
Sh3rf3
Gabra4
Nkain4
Fcrls
9530052E02Rik
Oxr1
AC124601.2
Cdc25c
Prss56
Megf11
Gpam
Cdca2
Cyp4f15
Dnah14
Gclc
Krt19
Dchs2
Dram1
Efcab1
Fnbp1l
Rps24
AC160635.2
Kcnmb4
Itgax
Tm4sf4
Fam184a
Syn3
Dapk2
Atpif1
Iglc1
Mmp3
Cdh12
Slc15a1
Irf8
D330045A20Rik
Adgre4
Tmeff2
Slc22a22
Ephx2
Tcte1
Ednra
Cotl1
Plpp3
Lgr5
Id1
Has2os
Gm9929
Rack1
Adgrg1
Sntg2
Gm26861
Ikzf1
Lpgat1
Timp4
Slc6a7
Lmo7
Gm29683
Nek5
Kl
Adrb3
Gm30835
Podxl
Lcn2
Gm42397
Tbx2
Adipoq
Caps2
Il5ra
Flt3
Fam46a
Slc25a18
Nusap1
Nova1
AC151836.1
Cdca3
Bsg
Fsip1
Timp3
Gm27188
Gch1
Ano1
Gm13052
Cd244
Cda
Nxpe2
Ppm1h
Adgrg3
Shisa6
Pls1
Hacd2
Il2rb
Pik3r5
Rgcc
Atp1b1
Rplp2
Itgb6
Npnt
Tmem266
Znrf2
Mdh1b
Prnp
Eya4
Tmbim6
Crispld1
Rmi2
Bcl7a
Nrip3
Pak1
Ripor2
Vwa5b1
Dnm3
Tagln
Fap
Gm5860
Ptchd1
Ptprf
Exoc3l2
Slc25a12
Negr1
Klra2
Mboat1
Prdx2
Hnf1b
Klhl3
Agr3
Ptprz1
Tox2
Map7
Gm16163
Twsg1
Fam126b
Fbxw24
1700113H08Rik
Gm33103
Bcl11b
Mapk4
4930452B06Rik
Ces1d
Fam83d
Gm45783
Tubb4b
Fam183b
Ablim3
Il18r1
Ptprq
Pde3b
Gm45030
Lpar1
Cep290
Gstm5
Fzd1
Myct1
Gm37273
Cfap99
Naip1
Abcb4
Nrros
Matn2
3110043O21Rik
E130308A19Rik
Ushbp1
Mgll
Pfkfb3
Tctex1d1
AC122379.1
Kif14
Gng2
Iqck
Lama5
Aig1
Myom1
Pla2g7
Ngef
Gm26691
Ighm
Meg3
Mbnl3
Aox3
4931406P16Rik
Rerg
Cd300lg
Shroom3
Ccdc57
Mark1
Cap2
Trdc
Adra1a
Fignl1
Cd81
Gmnc
Dzip1l
Lamp1
Krt8
Ly6e
Esrp1
Nbl1
Ltb
9530036O11Rik
Lcp2
C1s1
Tll2
EPPK1
Pdgfra
Tbx21
Gm13974
Gata3
Ccdc113
Nfe2
Ifit1
Gpihbp1
Adcy2
Gm20646
Fgr
Ptk7
St6gal1
Ccdc152
Dtl
Cadps2
Adam29
D7Ertd443e
Klra4
Klrc2
Nsg2
Igfbp2
Pfkfb1
Cxcr5
Ska1
Ttll8
Slc16a10
Cd52
Lep
E2f2
Gm8439
Racgap1
Ppa1
Col1a2
Gm32828
H2afx
Plekhg5
Tmeff1
Spns2
Grb14
Pls3
Sorl1
Myl1
Olfr1507
Olfr60
Vcam1
Xkr9
Eef1b2
2010309G21Rik
Slc7a9
Synm
Tmem120b
Prlr
Stil
1700001C02Rik
Grm4
Iqca
Camta1
Gm867
Gm13830
Pcdh17
Ccdc17
Ntrk2
Rasgrf1
BC035044
Sox9
Ankrd66
Fam214a
Snap25
Egr3
Col24a1
Adamtsl3
Il33
Ptgis
Npy1r
Col6a6
Unc79
Rph3al
Kit
Adamts17
E230016K23Rik
Mmd
Samd3
Bub1
Gm32507
Nin
Aqp9
Sytl5
Scn3b
Gm36908
Ccnb2
Gm11861
Themis
Brinp3
Mme
Erc2
Gm43055
Kiz
Hnf4a
Plin1
Fbxw15
Atp5g3
AI314278
Pstpip2
Spon1
Cdh9
C4b
Gda
Tspan12
Slamf7
Samsn1
Hrh1
Pkp4
Rab15
Asb4
Tagln2
Mrgprx2
Efhd1
Smarca1
Steap4
G0s2
Rnf17
Tymp
Lrrn1
Jchain
Gm29865
Ninj2
CT009546.2
Plekha7
Ttk
Kcnb2
Egfl6
Hmbs
Cldn11
Treml4
Tslrn1
Gm16104
Tnfrsf8
Gata4
Ocln
Gabarapl1
Fgl2
Dnah1
Myo5b
Atp1a2
Tenm3
Col15a1
AC117608.1
Ccdc181
Lipe
Garnl3
Col4a6
Tuba4a
Lgals3
Tspan18
Fyb2
9330111N05Rik
Palmd
Plagl1
Fam167a
Ddr1
Iqcd
Rnf150
Dlgap1
Hecw2
Tmem229b
Epb41l4a
Ctse
Lgals12
Tspo2
Pdzk1
Gm17171
Gm28548
Pdpn
Gfi1b
Slc35g1
Ildr2
Myo1h
Tcerg1l
A830012C17Rik
Cckbr
Ift81
F7
Cdh6
Ccdc173
Pdgfa
Folh1
Gm5150
Ltbp2
Slc22a3
Tmod1
Cdkn3
Sdk2
Gm5627
Sdc4
Ttc26
Hspa4l
Rpl4
Rcan2
Il9r
Spata24
Grid1
Fabp7
Nell2
Mapt
Cyp51
Pkib
Bdnf
Ngf
Fam57b
Neto2
Zfp385b
Bnip3
Adgrf5
Macrod2
Nr4a3
Car3
Cytip
Gm32592
Gm45356
Mcemp1
Arl6ip1
Iqgap2
Tnik
Galnt3
Srsf10
Lgr4
Gm16702
Spta1
Limch1
Rgs1
Fam184b
Ccdc69
Ggt1
Gm19950
Fxyd3
Ly6d
Icam4
Ets1
Bmp5
Gm5149
Neurod2
Sgcg
Sox4
Kif24
Ecm1
4930426D05Rik
Olfr1259
Plk1
Cdca8
F630028O10Rik
Fstl1
Iyd
D6Ertd474e
Mmrn2
Armc9
Hgf
Agt
Dgat1
Lrriq3
Epyc
E230029C05Rik
Synpr
Camk2b
Fcgr2b
Gas2l3
Fam169b
Ptpn22
Cspp1
Csrp2
Gm19585
Gm9962
Unc93a
Ccdc151
Syn2
4930578C19Rik
9230110C19Rik
Zfp608
Fam129a
Neurl1a
Adamts3
Klra7
Hipk2
Gm19935
Nxf3
Ccna2
Gm4876
Cyba
Pcnx2
Gm17750
Ttll9
Adgrb3
Rpl23
Kifc3
Hist1h1d
Slc25a37
Mmd2
4430402I18Rik
Isg20
Srgap3
Cnga3
Phyhipl
Fzd4
Sult1d1
Hist1h4h
Ly6h
Grhl1
Lpin1
Cacna1h
Adamts15
Gm32926
Gucy1a3
AC114585.1
Zfp831
A630033H20Rik
St3gal5
Cntn4
Cat
Col27a1
Als2cr12
Cyp2j13
Hist1h1e
Mpp6
Ppp1r1b
Ly86
Gm37168
Wdpcp
Apol6
C3ar1
Eef2
Kif2c
Stard8
Cd55
Gtf2f2
5430401H09Rik
Dnajc6
Ivns1abp
Klra1
Aqp4
Stat4
Mfap3l
Pah
Gm38407
Cyb5r3
AC123619.2
Nuak1
Sectm1b
Slc6a5
Cpa6
Eef2k
Ccdc13
Wt1os
Dpp10
Fry
Cyp7b1
Lin7a
4933402J07Rik
Ak5
Gm15564
Ppp1r1c
Lvrn
Ly6a
Hdc
Gm4117
Sh3pxd2a
Gm5737
Gm7854
Gm12022
Mal2
Pdzd2
Atp6v1c2
Serpinb6b
Them7
Slc27a1
Htr7
Zfp827
A430078G23Rik
Urod
Gm26776
Cdkn1a
Cnmd
Nos1ap
Riiad1
A830019P07Rik
Lama1
Rps9
Cables1
Cebpb
Ctgf
1810064F22Rik
Sorcs3
Anks1b
Jam2
4930405D11Rik
Zyg11a
Grm7
Asph
Slc5a7
Caln1
Trim55
AC158388.3
Tspan33
2600014E21Rik
Slc43a2
Ipcef1
Smoc2
Adamts9
Lama3
Col23a1
Pdia3
Gm20756
Carmn
Mpeg1
Pik3r6
Amot
Cxadr
Srgn
Dclk3
Cachd1
Nfat5
Mroh2a
Cysltr1
Pih1d2
Fosb
Ppp2r1b
Kcnk5
Rps3
Cfap126
Fign
St8sia6
Egfr
Tppp3
Apobec1
BB365896
Gabre
Greb1l
Gm15398
Ubd
Map1b
Slc1a5
Slc1a3
Rorb
Slc16a2
Sgo2a
Lancl3
Col6a3
Gm30382
Cdk5r1
Errfi1
Sez6l
AC134860.2
Efcab5
Trpc3
Iqgap3
Mef2c
Gm15283
Nalcn
Dock10
Ncf2
Slco2a1
Lhfp
Rnf144a
Pde3a
Sftpc
Hsf3
Tex15
Prkcq
Gm16263
Gm34983
Elovl6
Csf1r
Meox2
Klb
Daam2
Pklr
Zfp423
Dazl
Slitrk5
Tapbp
Mmp16
Ttc9
Tcp11
Blnk
Celsr2
Ret
Klf2
Rpl35a
Fbln2
Vegfa
Stk26
Olah
Arg2
Abcg1
Dmkn
Cdh4
AC158518.1
Icam2
Gm15155
Tox3
Add2
Cdkl1
Cyp2d26
Gbp5
Cox8a
Rasgrp3
Cpm
Map2k6
Stk36
Iqch
Ntf3
Igf1os
Slc36a2
Syt6
Syt17
Aoc3
AI661453
Kdr
Rps15
Car1
D630003M21Rik
AC158981.2
Rspo1
Ube2q2
Lcp1
1700016K19Rik
Aldh1a2
Meig1
Ttc34
Rbm24
Gm1661
Ppm1l
Plcg2
Styxl1
Tctn2
Farp1
Pou2f2
Katnal2
Gpr176
4930428N03Rik
Rasip1
Btc
H1f0
Prkch
Calr
Plxnc1
Col12a1
Colec12
Gas7
Isl1
Ezr
Gabbr2
Cd5
Csf3r
Grin2b
Gm26907
Mfap4
Hfm1
A430093F15Rik
Gm45587
Nrp2
AI504432
B3gnt5
Cd200r3
4931409K22Rik
Lrp2bp
Cldn15
Cnbd1
Foxl1
Galr2
Guca2b
Plppr5
Zswim2
Slc16a1
Frmd4a
Dpysl3
Trim10
Fam46c
Cyp2d9
Troap
Il12a
Kcnk10
Hrasls
Cldn7
Nov
Atp2b2
Prom2
Me3
Fbp1
Kcns3
Dusp18
Pclo
Ciita
Rgs12
Synpo2
Col19a1
9530036M11Rik
Gm10735
Gm36736
Ttll10
Slc30a2
9130230L23Rik
Por
Gabrq
Adipor2
Ifi213
Fam13a
Tmem215
Bckdhb
Rpl22
Hist1h1b
Dlec1
Cux2
Kazn
Cyth4
St8sia2
Pank3
Col6a1
Nup62cl
Sox17
Gm7967
Gm17135
Ranbp3l
Xylt1
Myo1d
Adamts6
Adam8
Cd93
Rab27b
Gm13102
Gpt2
Gm16685
Mpped2
Hexb
Gm29571
Wdr31
Sparcl1
Mat1a
Lrrc34
Dnaaf3
Bphl
Ebf2
Tjp2
AC159809.2
Lctl
Ccdc88c
Tango6
Sik2
Cfap161
Sh3rf2
Epha4
Dync1i1
Gm40841
Apbb1ip
Hoxb9
Gata1
Gm11998
Aldh1a7
Ankrd33b
Gm45881
Capsl
Cd200
Gm12353
Gpd1
Pde4c
Nrap
Jakmip1
Tusc5
Tmem117
Tm6sf1
Mir142hg
Plcz1
Gm15958
Fasl
Gng13
Tmsb15b1
Slc24a3
CT009696.3
Cybrd1
Tmigd3
Trp53inp2
Vav3
CT030646.1
5830418P13Rik
Elk3
Klf8
2010300C02Rik
Acad11
Rgs9
Hibch
Cmtm4
Cacna1i
Npffr2
Cd300ld
Gm45083
Trpv2
Gm53
Cfap58
Ccl4
Gfod1
Tsc22d3
Dock3
Il16
Efhc2
Kif22
Fbn2
Myo1e
Spata13
Fhl5
Mpp7
Adamts12
Cyp2j11
Lncbate1
Tbc1d9
Glul
Slco1a4
Foxp3
4933413J09Rik
Tspan8
Retreg1
Dtna
Uckl1os
Ccdc80
Colgalt2
Sh3bgrl2
Rpn1
Hist3h2ba
Slc4a1
Gm14964
Gbp4
Tmtc1
1700010J16Rik
C530043A13Rik
Gm43434
Gm44618
Gm45488
Hist1h3e
Krt76
Lta
Rgs16
Susd5
Tmem72
Ttc23l
Msi2
Gm17749
Tmem119
Fam135b
Fcrl5
Gm12694
Mrgprb1
Mbd1
Ddit4l
Ndrg1
Depdc1b
Dab1
Irs1
Rabl2
Cdh3
Chn1
Sv2b
Gm28727
Keg1
Ntng1
Slc12a7
Ptprm
Smyd1
Sh2d4b
Pipox
Prtg
Kcnh3
Gm4951
5430402P08Rik
4933406J09Rik
Musk
Olr1
Eda2r
Eef1a1
Gimap4
Hist1h2bc
Nek1
Cdcp1
Cd101
Kif20b
Anxa8
Gm26829
Kcnk12
E2f7
Gm29724
Palld
Elavl2
Arhgap39
6430531B16Rik
Mettl11b
Kbtbd11
Dcbld1
Slc17a6
Myo10
Gm12866
Lrrc69
Acot6
Itih5
Nmb
Ank2
Slc27a6
Ugt8a
Pik3ap1
Tspan7
Got1l1
Gm38399
Cox6c
A730046J19Rik
Adap2
Ctsz
Myo5c
Bst1
Raver2
Cep128
4930593A02Rik
Hs3st2
Ebf3
Nat6
4930555F03Rik
Blvrb
Selplg
Bex3
Abca4
Gm2a
Kcnn4
Gm3289
Gm30613
Cnnm2
Ndufb9
Clca3a1
Tesc
Pip4k2a
Cav1
Slf1
Emp3
CT010456.3
Gm3985
Slco1b2
Snhg7os
Zfp469
Gm20713
Ush1c
Prex2
Ntn1
Tmbim4
Pard6g
Tmem120a
Fam189a2
Rgs9bp
Gm20743
Adhfe1
Pla1a
Fbxo45
Cyp4f17
Cobl
Gm20661
Sh3bgrl3
D630045J12Rik
Nenf
Tmem132c
Osbpl10
Ano4
E130006D01Rik
Chst9
Rasgrp1
Cfap73
Hoga1
Folr2
AC158982.1
Odf3b
Bad
Clec1a
Cib4
Smc1b
Serpini1
Glis1
Arnt2
BC016579
Kank3
Dgkh
Ncf1
Spa17
Tsc22d1
Klrd1
Pawr
Rexo5
Efcab2
S100a10
Slc6a9
Cyp19a1
1700056E22Rik
Gpr156
Pdgfd
Mgat4a
Gm35572
Plcxd2
AC133498.1
Fads2
Plxnb2
AC107452.3
Slc16a12
Ccr1
Prob1
Jph1
Klf12
Galnt16
Serpinf1
Rgs3
Cd151
Itgal
Tenm2
Plpp1
Ppara
Eng
Pnpla2
F3
Tgfbi
9330159F19Rik
Slc6a4
Brinp1
Dpep1
Gm26542
Nxn
Ms4a6b
Itga1
Prps2
Adamts1
Rnf165
Slc25a13
Arhgef26
Lrp5
Zim1
Il31ra
Atp2a3
Cd248
Emb
Lilra6
AC158633.2
Cnpy1
Pappa2
Scara5
Pcolce2
Rnf144b
Asb12
Myrfl
Gm26535
AC131029.2
Olfm3
Jag2
Fcgr3
1700025G04Rik
Cd53
Abcg2
Soga3
Lck
Sult5a1
Dok5
Lrrc1
Pitpnc1
Gm26671
Bche
Cysltr2
Ndufa2
Atg4a
Ldlr
AC165260.6
Foxn4
Gm10113
Gm13465
Gm29456
Gm45721
Gm9733
Gm20757
Rgs11
Cthrc1
Aktip
Rhd
Ramp1
Gm28981
Chst11
Ttll11
Ube2cbp
Snhg11
Cpne7
Slc2a5
Crtac1
Ttn
2900026A02Rik
Ces1f
Gm30165
Cdh7
E230014E18Rik
Gm3696
Gm39383
Unc93b1
Chrna7
Dock11
Adgrl2
Arpp21
Pclaf
Cd180
Pifo
Dennd4a
Klhl31
Gjb3
Prr5l
Fgfr4
Pou3f3
Pcyt1b
Parp8
Slfn3
Gm26555
Dmrt1
Ccl24
Slc27a2
Gm33037
Traf3ip1
Lrrc43
Gm43666
Gm31108
Fxyd5
Prox1os
Slc6a14
Tmem255a
Grhl2
Tmem182
Trpm2
Cd96
Gm45861
Fbln7
Tgm2
Prps1
Ephb2
Itga9
Pdk4
Gucy1a2
Ms4a7
Adam19
Sfmbt2
Dmc1
Surf4
Mgat4c
Kifc1
Sytl2
Spaar
Gm29570
Lrfn2
Degs1
Fam84b
Chst1
Nrtn
Clec4b1
1810011H11Rik
Itgb7
Wdr60
Intu
Poln
Serpine2
Fbln5
Fgf9
Mmp28
Gm15270
Hcn4
M1ap
Npffr1
Lypd6b
Lbp
Kcnt2
Tnfrsf21
Cbln1
Crybg2
Gm15404
Gm33728
Gm33782
Klk14
Upp1
AC164612.1
Gm44866
Gck
Tex9
Jazf1
Sfrp1
Plcl2
Fam171a1
Ms4a4a
Apod
Barx2
CT025548.2
Ptms
Slc7a11
Ubc
Pbx3
Tmem67
Tspan11
Clic5
Fcgrt
Ccdc141
6330411D24Rik
Gria3
Frmd6
Ptpro
Bmp3
2610028E06Rik
Txlng
Glrx5
Gpr27
Ptprj
Cmah
Spdl1
Apcdd1
Adra1b
Unc13b
Plcb1
1700072O05Rik
1810006J02Rik
4933412O06Rik
5330426L24Rik
9930022D16Rik
A530099J19Rik
A830011K09Rik
AC118639.2
AC165245.1
Akr1c18
Arhgap15os
Cd3d
Cdhr1
Chrna9
D130052B06Rik
E330021D16Rik
Fam71e2
Fcer1a
Fmr1nb
Gm10619
Gm11730
Gm16075
Gm16194
Gm17232
Gm17409
Gm17509
Gm20642
Gm26761
Gm29318
Gm29825
Gm30097
Gm30400
Gm32089
Gm32850
Gm3331
Gm34368
Gm34653
Gm3764
Gm44588
Gm45895
Gm9918
Gpr33
Gzma
Hist1h4j
Hist2h2bb
Inhbc
Kcna6
Kcnv1
Klrb1b
Olfr175-ps1
Olfr557
Olfr736
Olfr787
Pcdhb9
Pip5kl1
Prss29
Shd
Slc22a13
Ssmem1
Stk31
Tnni2
Gm46401
Fam78b
Col4a5
Adra2c
4930444P10Rik
Acsm2
Gm13387
Gm14862
Gm33926
Gm42800
Spatc1
Tgm5
Iqcf3
Sort1
Slc8a1
Gldn
Prrx1
Heph
Pantr1
Cd34
Grid2
Anln
Rin3
Chst3
Rab27a
Stab2
Apex2
Abca8b
Shcbp1
Rbbp8
Abcb10
Ldb3
Ccnd1
Efcab12
Gm29506
Ypel5
D930007P13Rik
Stk32a
Anxa13
Ccm2l
Sgo1
Slc44a5
Arhgap24
Itm2c
Melk
Mcub
Fbxo33
Ms4a8a
Slc22a17
Mcf2l
Uqcr10
Cbfa2t3
1110019D14Rik
Alox12
Acer2
Plac8
Ralgapa2
Crmp1
Csnka2ip
Lexm
Gabra2
Gm44993
Sgcd
Grm1
Srpx
Hipk1
A230072E10Rik
5033428I22Rik
Noct
Gprc5c
Zmiz1os1
Lsp1
Khdrbs3
Rab36
Gm5427
Igfbp7
Col5a3
Nr4a1
Umod
Nes
Nlrp9b
Mgst1
Tspoap1
Srgap1
Snap91
Sparc
Mgst3
Coro2a
Cd209g
Pigr
Gucy1b3
Col6a2
Ptch2
Nedd4l
Slc44a4
Myo7b
Slc35a3
Gm16271
Rasd1
Arhgef15
Cstb
Spag5
Cdon
Col11a1
Stxbp6
Phldb2
Cacng4
1700029J03Rik
Megf6
AC154264.2
Vgll3
Syt9
Htr2a
Stxbp5l
Reep1
Tmem151a
Gm1110
Gm14061
Padi1
Vmn2r18
Ncr1
Rps3a1
Fgf7
Ffar4
B020031H02Rik
Vegfd
Cd22
Olfr1341
Dnase1l3
Gimap8
Phkg1
Rassf4
Acer3
Ccdc18
Scel
Gad1os
Id3
Nos3
AC122346.1
Evl
Mfsd4b1
Gm42791
Akap12
Stmnd1
Gm38832
Znrf3
Fuca1
Marcks
Ccdc191
Klhl2
4930488L21Rik
Uqcrh
Slc9a7
Galns
Gm31816
Ndufa4
Ifrd1
Klhl6
Sapcd2
Efnb2
5430403G16Rik
CT025639.2
Smc2
Lilr4b
Rgs20
Gm38411
Tuba1b
Gm11508
Arap3
A530016L24Rik
Sh3bgrl
Ccp110
Elof1
Rad51b
1700013F07Rik
Basp1
Itpr2
Tlr7
Canx
Ccdc189
Rhag
Dab2
Fbxo16
Tcf7
Dgki
Lrrc8c
Ap1s3
Stk32b
Slc22a1
Agpat2
Kctd1
Ncald
Xylb
Strip2
Cd109
Bbs9
Ninj1
Gm37184
Elmo1
Cyp2ab1
5033421B08Rik
Gm21814
Exd1
Tbc1d30
Ptgdr
Ccl7
Hmgcll1
Ltc4s
Oasl2
Cd63
Kcnmb1
Serping1
Jaml
Fyn
Nova2
Hs3st3a1
Plekha5
Cttnbp2
Gm28403
Prkag3
Ccdc157
Ramp3
Fggy
Stk17b
Rhoj
Clec2g
A930006I01Rik
Ankrd53
CT030637.1
Fam71f1
Gdf3
Klra9
Krt23
Psg21
Sh2d1a
Uap1
Ar
BE692007
Slc6a6
Npc2
Dclre1c
Gm9750
Fst
Calca
Thrb
Trp63
Sdk1
Wdr35
Ubxn10
Tfpi2
Sirpb1b
Arg1
Syt14
Enc1
Cryl1
Batf3
Rogdi
Ttc12
Adtrp
Efcc1
C5ar1
Ntn4
Gimap5
Rimbp2
Klrg1
Cav2
Zdbf2
Aacs
P2ry12
Apol8
Awat2
Cd19
Mcam
Ercc6l
Gm45645
Speer2
Gm20753
Tcte2
Gm34821
Zp3r
1700126H18Rik
1810013D15Rik
Fam19a4
Gtse1
Pglyrp2
Defb47
Olfr1392
1700112D23Rik
Slc10a6
Mroh3
Fuca2
Cox6a1
Pbx4
Serinc3
Psmb4
Kcnk3
Pdcd1lg2
1700007K13Rik
4930544M13Rik
Lamc2
Gstm1
Usp29
Crip2
Gm28055
Gm43821
Iqcg
Ror1
Epb41l3
Havcr2
Aspn
Napsa
AC158596.1
Zfhx4
Scp2
Stard10
Styk1
2610203C20Rik
Ifit3
Gm5086
Hlf
Gm38562
Agpat4
Fam60a
Insc
Brip1
Rundc3b
Gramd1c
Ackr3
Clip4
Pik3cd
Dkk3
Syn1
Sox13
Rplp0
Arvcf
Gm45792
A830008E24Rik
4930557J02Rik
Dio2
Garem2
Gm30676
Gm36529
Olfr373
Acox1
Dnm3os
Serp1
Nid2
Aass
Bnc1
1700029J07Rik
Gm10440
Cd300lb
Gm24474
Gm6213
Htr4
Myo16
Fam166b
Atp8b1
Mmp19
Rbp2
Cebpa
S100a4
Map7d2
Bach2os
Slamf8
Ankrd1
Trpc6
Gm31243
Slc26a7
Sox11
Lhx1os
Mgl2
Lair1
2410018L13Rik
Lama4
BC049715
Cdc25b
Napepld
Lmln
Fmnl3
AC164436.1
Tpte
Anxa3
Scarb1
Marc1
Fads1
Lrrc10b
Dytn
Chst4
Cdh16
Tmprss2
Nell1
Ddr2
Tuba1a
Adh1
Dpp4
Nlrp6
Hs3st1
Cfh
Epas1
Trem2
Dnaic2
Crispld2
Plppr4
Gm44626
Uchl1os
Rps6ka6
Nlrp1b
Gbe1
Slamf6
Sox18
Tcf19
Mms22l
Ccdc158
Hells
Ift80
Prag1
Gm33586
Nid1
2610203C22Rik
Acot5
Calml4
Cryaa
9130017K11Rik
Itga2
Gcnt2
Prrg1
Pkd1l2
Hpgds
Sall1
Cdc20
4930511M06Rik
Ptgs2
Slc8a3
Mrap
P2ry6
Sox7
Plek
Rims3
Edaradd
Gm29282
Tmc1
Ghr
Clmp
Aurka
Tekt3
Pde1a
Nrip1
Slc14a1
Micall2
Gm20629
Casc4
Oacyl
Arsj
Kcnb1
4930455D15Rik
Cd209a
Rhpn2
Ermap
Fam83b
Smpd3
Ogn
Gm13814
Rap1gap2
Sqle
Tnfrsf11a
Gm29502
1700030N03Rik
Scnn1b
Mapkbp1
Kcne3
Mreg
Slc39a12
H3f3b
AC160863.3
S1pr1
Pamr1
D130043K22Rik
Bcl2a1d
Slc26a9
Bpifb5
Ccl12
Fbxo43
Cyp4b1
Manba
Echdc1
Gm33843
Fbxl7
Lrrc39
Tuba1c
Nedd9
Spi1
Slc16a9
Gm42716
Rpl14
2010016I18Rik
Cntnap2
Slc7a13
Efr3b
Tmem178b
Scube3
Map3k7cl
Glb1l2
4930445N18Rik
Slc35f4
Isx
Slc18a1
Alad
Trpc4
Vtcn1
0610005C13Rik
4930441H08Rik
9330182O14Rik
A330048O09Rik
A830092H15Rik
AC102435.1
AC153938.2
Actc1
Adam34
Apoa2
CT025579.3
Col9a1
D030025P21Rik
Gipc3
Gm11339
Gm11840
Gm12911
Gm16079
Gm20751
Gm40608
Gm40655
Klra3
Lkaaear1
Mrgprb2
Nipal4
Nkx2-3
Nxf2
Paupar
Prss32
Redrum
Rgr
Rhox8
Slfn14
Slurp1
Smtnl1
Vmn1r84
Yipf7
Rrm2
Rab11fip4
Atp10a
C330002G04Rik
Tnfaip6
Tiam2
Scn8a
Dpyd
Pik3r1
1700028E10Rik
Gm15892
Col4a1
Usp2
Agmo
Hoxb3
AC160029.2
Dusp10
C330027C09Rik
Egfros
Oscp1
Tpd52l1
Afap1l2
Arl4c
Sgk1
Ccdc36
Cd4
Clca2
Gm14249
Mylpf
Atp13a4
Hmgb2
Ltbp4
Plat
Slc40a1
Fat4
AC159282.1
1700012B09Rik
Cd37
Bdkrb2
Opn3
Cnr1
Slc1a2
Lpcat2
4930412C18Rik
Gm14569
Ndufa13
Rasa4
Lrrc8b
Mfap5
Pmepa1
Scnn1a
Sim2
Bmp2k
Slc17a8
Dydc2
Clec4a2
Gm5127
Sept6
Uqcrq
Emc10
B430319H21Rik
Tpd52
Gbp2b
Pkp2
Klhl29
Cadm3
Arhgap44
Ccdc171
Rab3ip
Foxq1
Tpm1
Tespa1
Jph4
Zfp710
Rps6ka3
Enpp3
Anxa1
Car8
BC039771
Lpar3
Hnrnpab
Hormad2
Rnf182
Rwdd3
Zfp36l1
Gxylt2
2810407A14Rik
Lgi2
Gm15723
Nrep
Fmnl2
Hist1h3f
4930455G09Rik
Ahnak
1500015L24Rik
1700022A22Rik
1810008I18Rik
2410152P15Rik
4930483J18Rik
4930584F24Rik
4930598N05Rik
9830107B12Rik
A830031A19Rik
AC022682.2
AC098728.1
AC111010.1
AC124555.1
AC131029.1
AC159205.5
Asz1
Barx1
CT009713.8
Calcb
Cd177
Cebpe
Clgn
Ctxn2
Cxcl5
Cyp2b13
Gm10030
Gm10645
Gm11583
Gm12962
Gm13446
Gm14597
Gm15999
Gm16064
Gm1720
Gm266
Gm26688
Gm29459
Gm32688
Gm42949
Gm4668
Hoxc10
Hpdl
Irx3os
Krt28
Lamp5
Lhfpl1
Myoz3
Npy6r
Olfr164
Olfr433
Olfr78
P4ha3
Retnlg
Sgk2
Spata20
Sult2a5
Tcp11x2
Tgm3
Tmprss12
Trappc3l
Trim58
Ror2
Egr2
3100003L05Rik
Prr18
Rab3b
Spry2
A530058N18Rik
Mybl1
Glyat
Olfm2
Kel
Pde1c
Gm15675
2810403D21Rik
Phka2
Wipf3
Mirg
Bmp4
D430042O09Rik
Bend7
Hexa
9330154J02Rik
Rhoh
Cald1
Pkia
Ywhab
Chst8
BC035947
Etv1
Fermt3
Slc44a3
Enpp1
Gja4
AC122769.3
Gm36041
Akr1cl
6030468B19Rik
Aldh1l2
Gm454
Shc3
Man1c1
Sorbs1
Pdzrn3
Sh2b2
Pbxip1
Arhgef37
Atp5a1
Tbx1
Ston2
Gm15943
Nudt19
Casz1
Mefv
Sult1b1
Gm43388
Tubb2a
Slc34a2
Mapk6
Lhfpl4
Cd9
Fam20c
AC192088.3
Manf
2610301B20Rik
Spata48
Eps8l3
Runx1t1
Gdap1l1
Slc24a4
Hal
Gm45238
Ccdc96
Igfn1
Arhgap6
Sh3tc2
Alox5
Lmo2
4933432K03Rik
Gm11906
Thy1
AC124450.1
Fndc3c1
Gm16838
Gm31592
Lhx4
Pdcd1
Ccdc65
Odf2l
Slc9a2
Gm20110
Tmem107
Gm36640
Mthfd1l
Gngt2
Samd13
Dnaaf1
AC159264.1
Col13a1
Elavl3
Iqsec3
Gm1043
Gm15348
Syt15
Lurap1l
Gm13470
Rragd
Ndufb7
Ildr1
Gm33111
Hmgcs2
Dtx1
Aadac
Enpep
Rtn1
Fndc5
Rpn2
Vldlr
Pla2g5
E330011O21Rik
Flnb
Aim2
Hmgcs1
Jph2
Ccnf
Uhrf1
Ank
Mlxipl
Ifi207
Pag1
Plekhh2
A230057D06Rik
Npas2
Pla2g4a
Gm2164
Gsg1l
Lmx1a
Cp
Atp2b4
Arhgdig
Cetn4
Slitrk4
Cpeb2
Pde5a
Dusp4
Pde9a
Crybg1
F11
Gm30414
AC133654.1
A330015K06Rik
Fgfr1op
Prelp
Bub1b
Aire
Hck
Cks1b
2310008N11Rik
Tbc1d8
Kctd14
Myot
Trim30c
Mc2r
Jag1
Unc5b
Ffar2
Stac2
Ptx3
Gm26870
Slc9b1
Abhd5
Tab3
Pdgfb
Tnfrsf19
Tln2
6030469F06Rik
Masp1
Ptprr
Ticrr
Lypd6
Myo3b
4921504E06Rik
Mgam
Hsd17b12
AC163661.1
Zc3h12b
Ica1
Fam71d
Ndufa11
Tmem45a
Rec8
Slc38a11
Prkcz
Pon3
CT025642.3
Cdrt4
Opn1mw
Cox7b2
Gfi1
Gm44284
Lilra5
Gm15997
Pdia6
Sept11
Serpina3j
Emid1
Dact1
Tbc1d32
Zfpm1
Bpgm
Tbx15
Gm14055
Plk4
Ppib
Tmem267
B130024G19Rik
Chdh
Cldn10
Proc
Aifm2
Gldc
Rabac1
Ptger3
Pde8b
Akr1c19
Mcoln3
Lrmp
Cd6
Gm6634
Hsf2bp
Tbc1d4
Tmem192
Galnt13
Sla
Pcdh7
6030407O03Rik
Tmem51
Gys1
Erlin2
Cox6b1
Kif18a
Slc25a26
Anxa2
Rimklb
Lgals3bp
Calm3
Clic1
Col18a1
1300017J02Rik
Adam3
F930017D23Rik
Ralgps2
Fam92b
Tigd4
AC130823.1
Runx2
Epb42
Mrln
Scn7a
Dmtn
Acot12
Mnd1
Lrrc17
Nrg3
Arhgap30
Adh6b
AC127597.1
Zc3h12d
Mmp9
Ankrd29
Chl1
Gm17473
CT025552.1
BB557941
Fbp2
Lrig1
Mertk
Nupr1
Chchd2
Cd33
Ids
Dixdc1
AC162181.1
Irs2
Cass4
St6galnac2
Gm960
Acnat1
Cr2
Lamc3
Loxl2
Gm30873
Alms1
Cyp1b1
Zbtb7c
Fcer1g
Nckap1l
4930459C07Rik
Clec4e
Gm45538
AC114002.1
Scg3
Cd1d1
Susd1
Qrfp
Rps6ka2
Hk2
Fabp12
Prkg2
G630018N14Rik
Rad51ap1
Unc5d
Acss3
AC154257.1
Pla2g2d
Rbp1
Caly
Arhgap11a
Ggt5
Azin2
Satb2
Gpr160
Lrp4
Tmem44
Prcp
Gfod2
Ovol2
Gm12023
Prickle1
Plbd1
Lbh
4933405D12Rik
Fam180a
Gm4841
Cyp26b1
Erbb3
Cxcl12
A730056A06Rik
Rpl32
Gm16070
Gm31698
Hrasls5
Gbp2
Glp2r
Antxr1
Slc2a3
Cdh22
Slc23a1
Fmo1
Myrf
Ndufaf2
Mmp2
Csf2rb2
Abca14
Dnajb9
Krt7
Abca9
Pacsin1
Upp2
Ahcyl2
Cmklr1
Pdzd4
Sestd1
Ifi206
Matn4
Itpkb
Galnt6
Net1
Gm17268
Otud7a
St8sia1
1700024G13Rik
Bend6
Ms4a6c
Klhl13
Tulp3
Adgrd1
Spsb4
Pcdh1
Ptch1
Alx1
Dclk2
Mmp15
Stoml3
Gm11944
Atp5d
Nr1h4
Tacc2
Efcab7
AC140375.1
AC156025.1
Tmprss7
Itga11
Acsl3
Cd300a
Il1rl2
D430041D05Rik
Ptgfr
Etnk2
Gm45397
Ptpn18
Ankdd1a
Gm14344
Dhrs7
4930428D20Rik
4930563M21Rik
4933425D22Rik
5033403H07Rik
6430710C18Rik
Cd69
Coch
Cyp2d10
Mrgprg
Olfr536
S1pr4
Spata21
Spo11
Wisp3
Wnt6
Cecr2
Otof
Arx
Cd200r4
F8
Cdhr5
Ptpn13
Ddx4
Pla2g4e
Meltf
Wisp2
Satb1
Gm12576
Slc15a2
Tie1
Tmed5
Arhgef39
Fbxw13
Fer1l5
Gm39149
Gm5441
Rgs4
Gm42723
Mylk4
Slc47a2
Dtnb
Gm10373
Inhba
H2-DMb1
Il15ra
Cldn1
Slc13a5
Ska3
Agtr1a
Reps2
E130114P18Rik
Stk32c
Topaz1
Slc9a4
Slc16a3
Psd3
Mt3
Pdgfc
1700030J22Rik
Ndufa1
Chp1
Dact2
Nphp1
Vasn
Pqlc1
Mmp14
Ace
Acrv1
Banf2
Csf2
Foxa3
Hist1h2bp
Fam186a
Gm21917
Ulbp1
6030443J06Rik
Jund
Eif4g2
Arhgap45
Uqcr11
Arhgap31
Id4
P2rx7
P4hb
Gab3
Gem
Mrvi1
Sugct
Sertad2
Trim9
Adig
Ifitm10
Zranb3
Trp53cor1
Gpr137c
Gm43507
March3
C130073E24Rik
Zap70
H2-DMa
AC124752.1
AC131747.2
Gm13936
Gm30655
Kcnf1
Olfm4
Kcnn2
Adora2a
Gm43154
Gm14963
Tspan3
Tesk2
Sncg
Slc23a4
Sh3rf1
Tmem147
Fam227b
Dcst1
Pdgfrl
Siglecg
Terb1
Gli1
Ttc6
Mfsd5
Aldoa
Zfand6
S1pr3
Olfm1
Itga7
Dennd2d
Nr1i2
Chrna2
Slc25a15
Stra6l
Fam83a
Romo1
Ndufb10
Atp1a3
Snrk
Ric3
Syt12
1110051M20Rik
Galk2
Tmem160
Slc43a3
2310002F09Rik
Dad1
Vamp8
Sema3c
1500012K07Rik
1700028M03Rik
4930565D16Rik
4933425L06Rik
9630013K17Rik
AA467197
AC100590.1
AC102139.1
AC122459.2
AC134468.1
AC155252.1
AU017674
Artn
Bhlhe22
Car6
Ch25h
Cldn6
Crlf1
Cyp4f14
Dusp27
Foxa1
Gdap1
Gimap1os
Gm11444
Gm12409
Gm12506
Gm14565
Gm14902
Gm15104
Gm15416
Gm15853
Gm16063
Gm20617
Gm26614
Gm29113
Gm32443
Gm33035
Gm33280
Gm34096
Gm36235
Gm40576
Gm44780
Gm44787
Gm6569
Gria2
Hsd17b13
Mgat4d
Mpped1
Myo1a
Odf1
Olfr1258
Olfr558
Pdzd9
Pkdrej
Plg
Rdh16f1
Serpina3f
Serpinb12
Slc25a54
St8sia5
Stc1
Syt8
Thbs4
Tmem171
Gm42567
Gm830
Csf1
Myo7a
Mcc
Ttpa
Bbs7
Shroom2
Upf3b
Neurl3
Msmo1
Lsmem1
Lrrc56
Selenok
Gm26901
5730559C18Rik
Gm44734
Nmnat2
Rgsl1
Slc9a3r1
A330040F15Rik
Nup210l
Spock1
Slc16a7
Selenof
Adgrg6
Serinc2
Tmc4
Kcng1
Wfdc15b
E2f8
Gm34081
Olfml2b
Hook1
Mat2a
Dok2
Fam111a
Mctp2
Slc25a1
Tmem56
1700123O12Rik
Nr5a2
4930419G24Rik
Gm34225
Pdp1
Rgs2
Nkd1
Hepacam
Gm44079
Epb41l4b
Stxbp4
Hist1h1c
Inhbb
Zfp462
Pknox2
B4galt6
Fhdc1
Tnxb
Gm13963
Cyp4f18
Ccl11
Cdkn2a
Klf5
Ctif
Tmem176b
D430036J16Rik
Kank4
Mtcl1
Adgrf4
4930505A04Rik
Ablim2
Gm12648
Rims4
Tfcp2l1
A230077H06Rik
Carmil1
Mllt3
Gm30954
Themis2
Prune2
Car4
Acot11
Pdgfrb
1600014C10Rik
Efcab10
Hmox1
Cd80
Cd79b
Synpo
Akap7
Proser2
Hook2
Pcsk6
Sipa1l2
Gm6209
Rps8
Eif3f
Rpl26
Prss12
Selenom
Tmc7
Ap4e1
Ces1b
Trpm8
Slc25a42
Prex1
Wscd2
Morn5
Frem3
Gipr
Gm37134
Muc13
Onecut2
Slc2a6
1700003I16Rik
AC159267.1
Gm14812
Gm32591
Gm44596
Nfam1
Hip1
Glipr1
Tmem64
Dyrk3
Spred2
Oasl1
Ms4a14
Aox1
Plxnb1
BC006965
Psrc1
Dusp15
Gm40331
Lhx6
2610316D01Rik
AC123858.1
Krt18
Pcsk5
Cerk
Btbd11
4930512J16Rik
Mlec
Crabp1
Rai2
AC158531.1
Rps11
Rab20
Ranbp17
Nceh1
Slc16a14
Rev3l
Kcna2
Eva1c
Gcnt1
9630001P10Rik
Stk10
Slc6a20b
Agxt2
AU019990
Klrk1
Lpar4
Gm28888
Mum1l1
Cpeb4
Zbed5
Itgav
Miga1
Atp5e
Tmed3
Nudt4
Itgb8
Fam213a
2610206C17Rik
Cpn1
Hdx
AC110380.1
AC155255.1
Npas4
Gm10369
Gm15908
Gsg1
Ifi27l2b
Pla2g12b
Tnfsf8
Tubal3
B630019A10Rik
Il21r
Msh5
Nup210
Mid1ip1
Atp10b
5330439A09Rik
Gm13391
Gm6249
Tmem132cos
Unc45b
Bcl2l13
Cox7a2
Plag1
St14
Pde4d
Slc37a2
Olfml2a
Setbp1
Slc9b2
Fbxo47
Kif26a
Spint1
Lox
2410004P03Rik
Wdr34
Fgf18
Gm26760
Ckap4
Btk
Cdkl2
Gm36569
Bcl2
Gnao1
N4bp2
Fam107b
Gm16188
Mfsd13b
Pros1
Fanci
Grem1
Fsd1l
Maml3
Ppp2r2c
B230118H07Rik
Phactr3
Tiam1
Chaf1a
Mfng
AC154537.1
Gm28050
C9
Hnf4aos
Kif1a
Fam105a
Acsm5
Igfbp1
Cnr2
Tmprss4
Cxcr6
Clic4
Steap3
Bcl6b
Slco3a1
Fxyd2
Dpf3
Pir
Atad2
Apmap
Arrdc3
Hivep3
Msi1
Marveld2
mt-Co2
Agrn
Sfxn2
Gm16759
Thsd7b
Junb
Slco5a1
Wdr93
Acox2
Gm30978
Tmem196
Dusp1
Myo1g
Tex26
Gm10125
Dlx4os
Grap2
Bard1
Csgalnact1
Fbxo21
Slc22a4
Gm11342
Spag8
D930032P07Rik
4930447N08Rik
Ube2t
Rbp4
5830428M24Rik
AC154683.1
Btnl10
Scube2
Fancd2os
Gm26939
Gm30228
Hist1h3b
5930430L01Rik
BC030867
Lhx1
Serpina3c
Kcnip1
Hint1
1700026J12Rik
Chil6
Atp2b3
Gm10634
Gm39228
AC123658.1
Aplp2
Rnf149
Prrg4
Epb41
Prr29
Wwp1
Vgll4
Gstm7
Aldob
Slco2b1
Nr2f1
Hsd17b4
Caprin2
Pld4
Ddost
Meox1
Pfn1
Thegl
Gm20647
Il10ra
Ckmt2
Gm13075
Gm31045
Gm32633
Tmem169
9430069I07Rik
Gm28638
Optc
Pax9
Cyr61
Gm28154
Ifi30
Ccbe1
Prkcd
Gm13483
Mogat1
H2-Q10
Sh2d1b1
Wisp1
Abhd3
Rarb
Mmel1
Gm35911
Grk3
Tpmt
1700034E13Rik
C2cd3
Ctxn1
Tfrc
Gpc1
Vsnl1
Frmd4b
Sclt1
Vit
Nlrp1a
Hspa2
Slc4a10
Neb
Nfe2l3
Timm13
Pkd2l2
Gm10138
Gm11077
Slc7a8
Bicdl1
Spef1
Pgpep1l
Gm5444
1700052H01Rik
C430049B03Rik
Gm13479
Dnajc3
Baiap2l1
Enpp5
Gm28863
Rab11fip1
Igdcc3
Txn1
Blcap
Enpp6
Slc2a12
Gns
Sell
4933427D06Rik
Gm45064
Themis3
Hephl1
Mroh7
Lonrf3
Sh3yl1
4921504A21Rik
Serpinb8
Emx2
Mgst2
Avpr1a
Gm30524
Gm44767
Slc25a4
4931440J10Rik
Fam171b
Mb21d2
Hvcn1
Nav1
Camk2a
Aspa
Gng4
Gabarap
Gli3
Ikzf4
Osbpl11
Ppp4r4
Usp35
Kcnq1
Gm13710
Myh14
Actn3
Trim14
Dusp14
Tnfaip2
Rcn1
Gjb5
Krtcap2
Slc5a8
Chst2
AC124196.1
Ankle1
Atp1b4
Enthd1
Gm15457
Gm15891
Mpz
Pla2g10
Prf1
Slc22a28
1110002E22Rik
4833407H14Rik
4930546K05Rik
4933428P19Rik
5330416C01Rik
5430421F17Rik
AC107711.3
AC122293.1
AC155243.1
AC168056.4
Bglap3
Clca3a2
Clcnka
Epop
FAM237A
Frrs1l
Galntl5
Gm10681
Gm11468
Gm11494
Gm12784
Gm13330
Gm13782
Gm13869
Gm15479
Gm15520
Gm16322
Gm16758
Gm29018
Gm29418
Gm36634
Gm525
Gucy2g
Hist1h2bb
Hist1h4a
Il13ra2
Ina
Klrb1c
Klri2
Krtdap
Lipn
Ms4a2
Mucl2
Nat8
Nefm
Npbwr1
Onecut3
S100a8
Scgb1c1
Slc45a2
Snx22
Trac
Wdr64
Wfdc10
Zdhhc22
Asic5
Gm11685
Gm29088
Gm39075
Spem1
Zfp185
Epb41l5
Sec14l4
Sh2d4a
Srl
Phgdh
Scin
Cadm4
Anks4b
Gypa
Gm553
Ell2
Gdpd1
Sgpp1
Has2
Ankrd37
B230217J21Rik
Nhsl1
Plcl1
4931428L18Rik
Gm15169
Pkd2l1
Spc24
Pkn3
Frem2
Arhgdia
Rcsd1
Alg14
Nanog
Xist
F730016J06Rik
Tacc1
Srebf2
Vnn1
Habp2
Ptprv
Gm45062
Cbr2
Perp
Rpl41
Mrc2
Sh3kbp1
Phtf1
Gm20400
Apoc1
Gm16553
Pxdn
Hacd4
Gas2
Pde7a
Epha5
Slc13a2
Gpr132
Esam
Ndufb5
AC154838.3
Gm37068
Gm14377
Elf3
Hs3st3b1
9230112J17Rik
Rragb
Gm15581
Rnf24
Clec12a
9530068E07Rik
Cfap20
Polq
Trpm6
Igf1r
A830082K12Rik
Eda
Gm37083
Cyp2j7
Sema4f
Cemip
D930030I03Rik
Vstm2a
Fgd2
Cdhr4
Slc1a4
Mamld1
Ccdc121
Cacna2d1
Gm13832
Gm42951
Gm14226
Oprm1
Malrd1
Nckap5
Tinagl1
Gm43458
Diras2
Gm10685
Tmem2
Tomm7
Lsr
Nek2
Rasl12
Ccdc78
Spata7
Rasa3
Slc5a6
Gm12236
Pdzk1ip1
Creg2
Stard4
Sytl4
Myocd
Slfn5
Cd300lf
Cdc14b
4930558C23Rik
Gm37359
Gm36231
Zfp711
Gclm
Gnaz
Lztfl1
Stom
Ky
Wasf1
Zfp704
Itgae
Myo3a
D830036C21Rik
Slc35e3
Chst7
Steap2
Fhl1
Naaladl2
Piwil2
Cd48
Gm8113
Hsd11b1
Col5a2
Phf11b
Gnpat
Pidd1
Alx4
4732465J04Rik
Mab21l3
Abhd15
Smad9
Adora3
Bspry
Asb11
Spink10
Slc18b1
Lrrc58
Aldh1l1
Hes1
Gm12610
5430427O19Rik
Lmo4
Rab9b
Nuak2
Cd209c
Fam241a
Vil1
Iqcb1
Smad7
Robo4
Cxcl9
Gm9899
Spdya
Fam169a
Gm32200
Il1bos
Lifr
Mettl15
Sntb2
Gm1604a
Ttc8
C530008M17Rik
Sema4a
Bcl2l1
Slc4a11
CT009754.1
Olfr734
Syt7
Ets2
Galm
Wnt5b
Slc37a4
Plec
Klhl33
Tbx18
Foxs1
Tmem37
Sycp3
Lrrc18
Bst2
1700047M11Rik
B3galt5
Cpb1
F830045P16Rik
Gcsam
Hcn1
AC125041.1
Dnaaf5
Pirb
Slc7a15
Gm20594
Tlr8
Dct
Cntn5
Emilin1
Scara3
Plxdc2
Gm15731
Ifit1bl1
Tmem135
Nxpe4
Morc4
Btg4
Pgr
AC154687.2
Dennd2c
Ahnak2
Acss1
Rad54b
Sema4d
Dbf4
Gm10687
Inca1
AI467606
Nsun7
Plin5
Ispd
Mindy4
P2ry10
Spcs1
Zfp618
Plxna2
Gm16432
Plet1os
1110004E09Rik
Neurl2
Gm12796
Lrig3
Rab31
Mtmr7
Pdlim4
Fam161b
Fam20a
CT030182.3
Chaf1b
Cenpi
Mgat3
Ints6l
Aqp11
Mzb1
Homer2
Crb2
Fam131c
1700061N14Rik
Gm36287
C1s2
Gm26809
Gm43177
Nat8f7
AC159886.2
Hoxa9
Cep41
Id2
Hnrnpa0
Fblim1
Trit1
Ndufa3
Gm20532
Hsd17b11
B4galt5
1700110K17Rik
Sh2d3c
Adamts14
Dnah8
Hoxb6
Frmd3
Gm40645
Dazap2
Slc16a6
Nme7
Gm26510
1700027J07Rik
Clec4a3
Dscam
Ptp4a1
Ryr1
C4bp
Larp1b
Tmem109
Smkr-ps
Platr26
Cyp4v3
Trib2
Bpifc
Rbm46os
Slc13a2os
Syt13
Tacr1
Tcf15
St3gal4
Hist1h2be
Cuedc1
Cct7
Dglucy
Phf6
AC122397.1
Btbd16
D330037F02Rik
Eldr
Heyl
Eno1
Psmb8
Emc6
Gimap6
Apobec3
Gm13415
Capn13
Elovl2
Pnpla7
Ifi205
Pbld1
Optn
Slc6a13
Phf8
Bok
Rgs18
4931403E22Rik
Ahi1
4930522L14Rik
Neu3
Eppin
Mro
Wdr19
Gm28068
Cdh19
Epor
Gm7271
Cenpv
Ppp2r5a
Zwilch
Pcolce
Ppl
Fzd3
Arhgef28
Ddx60
Tgoln1
Gm45159
Nox1
Hat1
Rdh12
Loxl1
Dnajc12
Me1
9630013D21Rik
F2rl1
Afap1l1
Pgf
Ecm2
Pole
Slc14a2
Prelid3a
Gm43579
Slc30a3
Llgl2
Tmem14c
Smdt1
Glipr2
Furin
Clrn3
Baiap2l2
Cx3cl1
Slc38a1
Eml6
Fibin
Mfsd4b5
Tbc1d10c
Mucl1
Gm14634
Boll
Foxred2
Spsb1
Ahr
Espl1
BC051142
Clec4a1
Ngb
AC159635.2
D730003K21Rik
Slc35f2
Chad
Ms4a4c
Ctla2a
Gm30624
Tdrd9
Ncs1
Acvr1
Lrp10
Tgfb1
Ttc39d
Gng11
Abca2
Th
Samd4
Klkb1
Wdr38
Iscu
Lrrc31
AC104200.1
Dna2
Lyrm1
Cyp2s1
Abcb1a
Stbd1
Islr
Twist2
Man2b1
Itpr1
K230010J24Rik
1810020O05Rik
AC164441.1
Gm35696
Maf
Sec14l5
Vnn3
Wdhd1
1700060O08Rik
2310030A07Rik
5330434G04Rik
AC134414.1
AC144938.1
AC160550.2
Actg2
Areg
Atcayos
CT030238.4
CT030684.3
Ccdc177
Cpb2
Cpvl
Dmrt3
Dnajb3
Entpd3
Fam50b
Gm10655
Gm10787
Gm12462
Gm12828
Gm12974
Gm14461
Gm15232
Gm16291
Gm26554
Gm2762
Gm29055
Gm34078
Gm34719
Gm36368
Gm39185
