Mmp12
Nrxn1
Myh1
Mybpc1
Gpnmb
Rgs5
Agbl1
Mgp
Tmsb4x
Csmd1
Aqp1
Gpihbp1
Iigp1
C7
Gria4
Mylk4
Hp
Slit2
Mageb18
Actn2
Fgf12
Cldn5
Rbfox1
Fgf14
Ctsd
Acta1
Tnnc2
Trdn
Dgkb
Ctsl
Hbb-bs
Kirrel3
Cytl1
Cdh5
Gnal
Lrg1
Cfd
Hba-a1
Gng11
Dnajc6
Col1a1
Retnla
Tnni2
Hbb-bt
Ncam1
Ifi27l2a
Myh11
Hba-a2
Pdlim3
Saa3
Scd1
Pcdh11x
Acta2
Fabp5
Rbm20
Rsad2
mt-Cytb
Adipoq
Gramd1c
Ank3
Tnc
Mylpf
Prune2
AC140209.1
mt-Nd1
Hs3st5
mt-Nd2
Myh4
Itgad
Ctnna3
Vwc2l
AC165092.1
Acss2
Ckm
Gm12381
Cacna1e
Trim63
Fat3
Psap
Rbp7
mt-Nd3
Ifitm3
St6galnac3
mt-Nd4
F630040K05Rik
Sparc
Dach1
Mfge8
Erbb4
Gm38048
Sorcs1
Hs6st2
Tpm1
Nctc1
Hmga2
Mecom
Tph2
Atp6v0d2
Sntg1
Pcdh17
Nebl
Ctla2a
Neb
Ptprb
Cacnb2
Postn
Pex5l
Grm7
Sox1ot
Tnnt3
Dmd
Gprin3
Adgrl3
Wdr17
Prr33
Gm42418
Fth1
Il23r
Nxph1
Col8a1
Skap1
Cst3
Ablim3
Stac
Dkk2
Igfbp7
Frmd5
Sorbs2
Ctsk
AC124601.2
Nkain2
9530059O14Rik
Slc35f1
Nrap
Gbp5
Terb2
Cd81
Pvalb
Ampd1
Xirp2
Zranb3
S100a6
4931431B13Rik
Kdr
Nnat
Ftl1
Mlip
Thbs1
Flt1
Btnl9
Cd93
Adgrl4
Adgrf5
Lgals3
Disp2
Epha3
Gsn
Col12a1
Ccl2
Ryr1
Gm16685
Cadm1
Rgs1
Itgax
Atp2a1
Myot
Gm33103
Pcolce2
Prnp
Cd74
Cxcl9
Cyp7b1
Gm40910
Kcnq5
Nhs
Trf
Ntng1
Bst2
Cdh13
Gpr39
Col3a1
Igfbp5
Pecam1
Tnfaip6
Sox2ot
Vwf
Eln
Lin7a
H2-Aa
Gm26730
mt-Nd5
Cyba
Ctss
Kcnn2
Gm12002
Sema3e
Ctsb
Gm19299
Mt1
Me1
St18
Cd226
Lmod2
Bmx
Asic2
Mt2
Ccl4
Apln
Lars2
Pcdh9
Cd300lg
Chst11
Cd63
Apoe
Mypn
Bgn
Mest
Kcnc2
Hmgcs2
Ctsz
Actb
Klra4
4930534H03Rik
Ksr2
Slc5a7
Cyyr1
Il1rn
B2m
Maats1
Syt2
Ttn
Asb2
1700047G03Rik
Clu
Trem2
Scnn1a
Myo1h
Thrsp
Rps3
Ptx3
BC018473
Wdr95
Sparcl1
Lrrc3b
Nek10
Cox4i1
Gabbr2
Gm13490
mt-Co1
Phkg1
Spp1
Gm20532
Dbi
Samd12
Reln
Fabp4
Grid1
Col19a1
Tm4sf1
Rps5
Arhgap25
Lctl
Rps14
Car4
Col1a2
Slc8a3
Dcn
Gm4951
Fam155a
8430408G22Rik
Tmem132b
Cd163
Etl4
Asb5
Tpm2
F13a1
Cngb3
Mmp3
Cxcl12
H2-Ab1
Cadm2
Lsamp
Cap2
Cxcl2
Rpl38
H2-Eb1
Myh15
AC163354.1
Dclk1
Lyz2
Gm17268
Pde11a
Crip1
Ano1
Mx1
Lipa
St6galnac5
Cd163l1
Olfr1441
AC158535.1
Gzma
Musk
Olr1
Myo1e
Mamdc2
H2-K1
Tenm2
Abra
Gabrb1
Cd209b
Plcxd3
Tmem267
Gpc5
Wfs1
Pygm
Cyp2e1
Pde4dip
Hpgd
Rpl8
Mdga2
Ifit3
Esrrg
Obscn
2310040G24Rik
H2-D1
Efr3b
S1pr1
Bmp6
Diaph3
Ednrb
Tnip3
Fgf13
Flnc
Mmrn1
Themis
Il7r
Eno3
Ccl8
Trpc3
Ano4
Parm1
Cpne5
Sult1e1
Cdh19
Sidt1
Myo18b
Rps11
Fbxo32
Steap4
Stambpl1
1200007C13Rik
Shisa6
Gm26766
Ccbe1
Kctd16
Adamts1
Xkr4
Tll1
Actn3
Pax5
Trpc4
Kcnma1
Tmem233
Top2a
F7
Sez6l
Gm36266
Maoa
Ldb3
Aldoa
Mylk2
Mpz
Rflnb
Ntm
Nyap2
Fmo2
Igkc
Hs6st3
Lum
Fmr1
Art1
Creg1
Abcc9
Pi16
Mmp19
Ldb2
Nox4
Lef1
Brinp3
Thbs2
Fasn
1700082M22Rik
Podxl
F830016B08Rik
Cdkl4
Ly6e
Gm35239
Fhl2
Ddit4l
Calm1
Clec18a
Hephl1
Fam198b
Filip1l
Pax6os1
Gm16351
Ppp2r2b
Gm36640
Tspan13
Ptchd4
Asb18
C6
Cnksr2
Lyz1
Cacna1c
Prkg1
Capn9
Myoc
Sh3bgrl3
Mybpc2
Gabrg3
Col28a1
Prps1
Actg2
Grn
Clstn2
C1qa
Rapgef5
B3galt1
Sept4
Gm7967
Emcn
Mki67
Chrne
Ppp1r3a
Opcml
Ccl5
Selenop
Ephb1
Egfem1
Gabra2
Myh2
Gm44174
Jph2
Aplnr
Neil3
Scube2
Tspan7
Tcap
Vwc2
Ly6c1
Prg4
Lgals3bp
Tcerg1l
Egfl7
Car3
Zdbf2
C3
Acaca
Cd68
Nlgn1
Crip2
Fcna
Gm26594
Fam13a
Tmsb10
Map3k7cl
Col22a1
Gm14636
Gpm6a
Brinp1
Zfp804b
Atp1b4
Rplp0
Cxcl14
Cd86
Galnt17
Trhde
Pgm3
Ltbp4
Cxcl1
AW112010
Unc5c
Rgs6
Alpk2
Ankrd2
Fbn1
Kcng3
Itk
Kbtbd12
Rbp4
Gfpt2
Dpp4
Ifi30
Rhpn2
Rgs7bp
Peg10
Pgf
Klra8
Colq
Rgs7
1700110K17Rik
Slc18a1
Gm42906
Vcl
Rpl32
Lhx8
AC164161.2
Mark1
Gpx1
Foxp2
Map2
Pawr
Agpat2
Gm11149
Pkhd1l1
Serpinf1
Akap6
Bank1
Gm17501
Zfp385b
Rpl23
Trp53i11
Insig1
Lncbate1
Scd2
Lyve1
Adgre4
9530026P05Rik
Cck
AC124196.1
Gabrr2
Myocd
Prrx1
Cenpu
Cenpf
Hcrtr2
Frem1
AC117608.1
Fn1
Pgm5
Itgbl1
Lnx1
Htr7
Selp
Lockd
Piezo2
C1qtnf9
Cybb
Rorb
Serpinh1
Slc4a10
Atf3
Slc38a4
Fam19a4
Meg3
Lrtm1
Bco1
Aldh1a7
Shank3
Asb14
Rnf128
Ets2
Slc2a13
Rplp2
Lrfn5
Cd84
Atcayos
Gpr141
Pck1
Phka1
Tacr1
Chrm3
Il12b
Gm26740
Gm31522
Ifi44
Tmem108
2600014E21Rik
Knl1
Vat1l
Gja1
Gm12153
Adam8
RMST-1
Col24a1
Slc25a1
Gm20456
Kif27
Bcl11a
Rhbdl3
Trp63
Cmss1
Ckmt2
Cd44
Lrrc4c
Rplp1
Svep1
Tyrobp
Gm28376
Adrb3
Retn
Chrm2
Efcab11
Cyr61
Slc25a4
Itgb6
F10
Kif23
mt-Nd6
Sorbs2os
Ikzf3
Ncam2
Pgam2
Cpa3
Dcstamp
Igfbp3
Hspa5
Ptger3
Robo4
Pld5
Myh7b
Ano5
Ccdc85a
Jph1
Klhl31
Fbn2
Calr
Tnfaip2
Myo1b
Card11
Mb
Gpc3
Nell1
Kit
A830018L16Rik
Nos1ap
Spock3
Thsd4
Dok6
2310020H05Rik
Sned1
Esam
Rarres2
Tox
Kif11
Itgb2
Ccl7
Cenpe
Hs3st4
Mylk
Pak3
Isg15
1700011I03Rik
Btla
Gss
Sox18
Adam2
Ky
Gm17749
Notch3
8030451A03Rik
Gm15124
Myo1f
Kcnj8
5730419F03Rik
Nav2
Hmcn1
Mcf2l
Gas1
Nabp1
Kcnh7
Gabra3
Iglc2
Klra2
Nes
Wisp2
Acly
Rps21
Wdfy4
Cadps
Aadac
Fgd5
Sgip1
Snhg11
Rasip1
Nceh1
Gm16163
Ccr2
Ankub1
Gpc4
Kif15
Gcnt2
Gpd1
Ryr2
AC134329.1
Kif26b
Laptm5
Rtl4
Kcnj15
Bmpr1b
Rad51ap2
Hemgn
Robo1
Eng
Col14a1
6330411D24Rik
Gpr50
Dusp10
Prom1
Grb14
Ctla4
Cdo1
4930435C17Rik
Kank3
Fndc1
C1qc
Rbpj
Mrc1
Grem2
Lrrn1
Hmcn2
Scel
Ly6d
Peg3
1700012P22Rik
Gm6209
Gm32511
H2-M9
Gm30003
Plekhh2
Syt12
C1qb
Timp3
Tagln2
Acsbg1
Tuba1a
Tenm3
Gata3
Smoc1
Aspm
Ntn4
Prtg
Serpine1
Smoc2
Myct1
B3galt2
Pax7
Igtp
AY036118
Ehhadh
4930554G24Rik
Synm
Snca
C77080
Gm11464
1700095J07Rik
Grm8
Shroom3
Adam23
Gm29683
Ttll7
Chpt1
Emp3
Cachd1
Thsd7b
Shisa9
Nr4a3
Pf4
Slco2a1
Gm15286
Slc1a1
Inpp4b
Trpc6
Lrrtm3
Adamts16
Ptprk
Nrcam
Serpina3n
Mctp1
Myo5b
Sncaip
Gk
2310016D03Rik
Cfh
Oxtr
Gja5
Pld3
Rpl14
Gm29669
D5Ertd615e
Rnf17
Ppp1r14c
Synpr
Rbm24
Mrvi1
Heph
Prc1
Mfsd12
Erg
Ubash3b
Erbb3
Zfp366
Ism1
5033421B08Rik
Efnb2
Lmo7
Fgr
Asb15
9630002D21Rik
Tie1
Kcnd3
Plvap
Tmem117
Prdx6
Fscn1
Gm15726
Sfrp2
P3h2
Nexn
Rai2
Prkcb
Fosl1
Gm33037
Cavin1
Cxcl10
Tagln
AC148334.1
Lamp1
Id3
Klhl40
Slc37a2
Dock2
Fstl4
Ripor2
Ror1
Agtr1b
Lpl
Evl
Mreg
Sema6a
Pla2g4e
Hhip
Fgf1
Gm20465
Aff2
Fras1
Chn2
Plau
Cilp
Atp8b4
Dlg2
Btc
Ccdc152
Slc7a11
Oasl1
Tmeff2
Mlf1
Fam50b
Hsd11b1
Ptchd1
Klrk1
Gm29585
Nkx6-3
Cyp4b1
Cacna1d
Prdm6
Myhas
AC154640.3
Prox1
Slc1a3
Lvrn
Sema3g
Daam2
Kcnip4
2810474O19Rik
Synpo2
Erc2
Dhx40
Creb5
Gm13601
Lgmn
Itga8
Tph1
Rpl35a
Armc4
Cd79b
Dmgdh
Tacc2
Fgf10
Elovl6
Cd200r1
Unc79
Stap1
Ptgfr
Gdf3
BC024386
Epha7
Cd52
Gpc6
Dach2
Hdac9
Bub1b
S100a13
Entpd1
Ccdc3
Gm20757
Pdzrn4
Gria3
Rspo3
Gucy1a3
Ntrk3
Gm4841
Ndnf
Gm6277
Dpp6
Myoz1
Ushbp1
Angptl4
Nr1h4
Bcl6b
Vgll3
Pank3
Casz1
Rian
Ccl6
Tubb5
Kcnt2
Wfdc17
Pkp4
Wdr93
Gm44026
Gpat3
Gpm6b
Angpt1
Orm1
Gm28187
Eepd1
BC039771
Galnt18
Uqcr11
Cdh2
Pdgfb
Clcn1
Rhoh
Errfi1
Efemp1
Olfr60
Gfra1
Rab27b
Osbpl6
Slc9a3r2
Gm15155
AC125539.2
Ppm1l
Ces1d
Fosb
Arxes2
Blnk
Cfl1
A530053G22Rik
Dync1i1
Mid1
Psrc1
Gbp7
Trp53cor1
Tmem45b
Blk
Tcf15
P2rx1
Gm36827
Stat4
Plxna4
Sulf1
Atp5e
Slc6a6
Unc13c
Gnai1
Sorl1
Pdgfrb
Amdhd1
F3
Klhl38
Aspn
Grik2
Tmem163
Cmya5
1700028E10Rik
Kctd12b
Cdh4
Stmn2
Dchs2
Tspan11
Crim1
Pde7a
Apold1
Nrxn3
4933436I20Rik
Rps15
Frmd3
Rrm2
Nova1
Degs1
Gm42601
Ndufa4l2
Ppib
Lyzl6
Cd247
Poln
Slc38a11
Tmem38a
Dlgap1
Cd180
Prex2
Cd200
Adcy5
Ubd
Eya1
Tmprss11f
Cdh11
Thsd7a
Dscaml1
Fam47e
Chrdl1
Rpl3l
Pdk4
Rapgef4
Fbln5
Col6a1
Nkg7
Cntnap4
AC114585.2
Ccl9
Acvr1c
Kcnd2
Cd9
Pkp2
Slc25a21
Serpina1b
Smpx
Pde4b
1700007G11Rik
Crispld2
Camk4
Ccdc80
Des
Rpl34
Itga1
Nupr1
Kif4
AC160562.1
4930471E19Rik
Ighm
Bcl11b
Ulbp1
Trabd2b
Fnip2
Slc9a6
Slc27a1
Slc36a2
Flrt2
Rph3al
Car10
Ugt8a
Gm43824
Fhl5
Gabrb3
Tnik
Adcy10
5730522E02Rik
Gm16168
Enpp2
Nkd1
Slc24a2
Itm2b
BC048562
Olfr718-ps1
Tsc22d2
AC104200.1
Aoah
Icam2
Epas1
Aldh1l1
Nsdhl
Soat1
Lmo4
Gm36569
Bcl2l14
Dpysl3
A330015K06Rik
Ms4a1
Inhba
Bsg
Ankdd1a
Map7d2
Zfyve28
Lepr
Scml4
Wfdc21
Gsg1l
Cers4
Gm38505
Fam57b
Rcan2
Rasd1
Dhrs9
Cux2
Slc16a12
Slc7a8
Trpm3
Fam69b
Carmn
Cox8a
Gdf15
Slc22a22
Hist1h2ap
Plppr4
Hmgcs1
Tmtc1
Cntn1
Prkcq
Gm4876
Anln
Ifit3b
Lurap1l
Tbxas1
Klhl29
Lhfpl3
Kcnip1
2610020C07Rik
Sema3d
Mpp7
Ly6a
Fgf9
Kctd8
Spink8
Egr1
Gpam
Ndufa2
Gfod1
Fbf1
Rhoc
Mctp2
Adgrl2
Npas3
Plagl1
Dpp10
Gm15987
Gm32592
Nrg2
Rabac1
Adamtsl1
Net1
Fyb
Rasef
Tnfrsf11a
Ifitm2
Tpx2
Slc22a3
Samd5
Vegfc
Pfn1
Plekhg1
Pclo
Ano3
Cpeb2
Anxa1
Atp5g3
Matn2
Itga7
4930598N05Rik
Clic6
Igf1
Gm35028
Olfr220
Pabpc2
Retnlg
Sema3a
Il20rb
Gm2447
Ppfibp2
Ndufa4
Gna14
Pla2g10
Pik3ap1
Dgat2
Sncg
Sh3bp5
Ccdc144b
Ntf3
Chn1
Pde3a
Sod3
Sycp3
Txlnb
Gm4117
Adarb2
Bcar3
Chodl
Calcr
Gm609
Got1l1
Rack1
Stk32a
Tspan18
Art5
4930512H18Rik
Gm30382
Ndufa13
Neto1
Gucy1a2
AC133498.1
Irgm2
Ctnnd2
Chsy3
Myom2
Ubc
Best3
Clnk
Itgal
Pfkm
Thbs4
Trbc2
Chrna9
Dram1
Stab1
Adamtsl3
Cstb
Vcan
Calcrl
Vcam1
Olfr558
Gm30173
Npc2
Dtna
Klrb1c
Gm40477
Adamts18
Acacb
Kalrn
Filip1
Rnf144a
Clic5
Ccser1
Asb11
Cd151
Lama3
Lpgat1
Alcam
A330069K06Rik
Tmem135
Igf2bp2
Fbxl7
Vit
Acox1
Chil3
Magi2
Adamts9
Aldh1a3
Fcrla
1700006E09Rik
Noct
Cit
Gm38251
Cd4
Cryab
Srgn
Afap1l1
Gm29521
Gnai2
Slc22a4
Klri1
Lama2
Glb1l2
Clec10a
Tmtc2
Klf12
Dab2
Egr3
Sdc1
4930579F01Rik
Grhl3
Prr16
Pcx
Grid2
Ms4a4a
C2cd2
Mrap
Trim54
Cmpk2
Map1b
Galnt16
Scara5
AC117570.1
Lgals1
Lcp1
Ly75
Chchd10
Myrip
Ica1
Mtus2
Cavin2
Ifi47
Frmd6
Arhgap15
D830005E20Rik
Gm2164
Sdc3
Kynu
Fbxo40
Ms4a4b
Shroom4
Lpar3
Dnah12
Tmem200a
A630023A22Rik
Acsl1
Lmod1
Gm43914
Arsb
Mrc2
Cd83
Ildr2
Depdc1a
Col13a1
Sell
Pdgfra
Fam186b
Gm45833
Il5ra
Lgr4
Dclk3
Crym
Adam12
Rpl26
Gimap6
Zfp697
Adgre1
P2rx7
Uap1
Ccnd1
Fli1
Pnpla2
Naaladl2
Il34
Myo5c
Dock3
Nrg4
Cygb
Gm35552
Gm5150
Crtam
Gm33206
B430219N15Rik
Ddr1
Aadacl2
Specc1
Hist1h2bc
Mmd
AC165260.1
Colec11
Avil
Ndufa3
Gm31659
Dact2
Prelp
Marc1
AC150560.1
Pnpla3
Ect2
Sema5b
Adamts17
Mir155hg
Fam20c
Adamts6
Xylt1
Cass4
Kitl
Itga6
Nos1
Ptprz1
Gm16222
Trp53inp2
Gm26691
Srd5a2
Gnpat
Snap25
Il1rapl1
Adcy2
Gbe1
Gas2l3
Atp5k
Gm26889
Dock8
Tm4sf19
Npas2
Afap1l2
Clmn
St3gal5
Arhgef37
Fam43a
Tcaf1
Slamf6
Cnnm2
Dll4
Atp10a
Itpkb
Lrrc36
Col4a3
Xcl1
Esm1
Por
Rps6kl1
Mbnl3
Phf8
Gm1661
AC165245.1
Gm45486
4930473D10Rik
Kif14
Il13ra2
St8sia4
Cfap54
Egln3
Ramp2
Ivns1abp
Dlgap2
Angptl8
Gfra2
mt-Atp6
Cables1
Cd209f
Itgb4
Cdk6
Meox2
Cebpa
Gm765
Eya4
Aox1
Ckap2
4930502E18Rik
Art3
2610307P16Rik
Cenpp
Plk2
Pstpip2
Depdc1b
Ppfia2
Epsti1
Shtn1
Dennd4a
Tmem63c
C1qtnf7
Klra17
Nsg2
Kcne2
Fhod3
Kcnk13
2810004N23Rik
Fam167b
Aldh1a1
Rps3a1
Gm11267
Tal2
Gm5091
Nnmt
Zfp804a
Pabpc1l
Ets1
Klb
AC158388.3
Abca8a
Txk
Mfap5
Fam129b
Gm20597
Adra1a
Nr5a2
Arhgap29
Bmp5
Ddx60
Car8
Gm5627
Clec9a
Esyt2
Gm37267
Cntnap3
Gipc2
Gtf2ird1
Nxn
Gm4221
Flt3
Adipor2
Sowahc
Spag16
Sh3rf2
Dcbld1
Rpl41
Klra1
6030440G07Rik
March3
Tfr2
Mefv
Gm34983
Morc4
Gimap4
Cttnbp2
Rnf213
L3mbtl4
4930483O08Rik
Dcdc2c
Npsr1
Prkch
Sema5a
Gm45321
Epb41l4a
AC158531.1
Gm28905
Cdh6
Gm13387
Itm2c
Rhoj
Scn8a
Negr1
Fam169b
Trpm6
Rad51b
Clec12a
Car5a
Gm35288
Tbc1d8
Bnip3
Dnajc12
Eya2
Chst2
Zim1
Prss55
Rassf9
Acss2os
Lmcd1
Teddm2
Pfkfb3
Nup210
Ankrd23
Klf2
1700123O12Rik
Map7
Gm46401
Cox6b2
Cd6
Cd300lb
Gm12239
Gm34829
Klrb1f
Cdh10
Alk
Hmmr
Csnka2ip
Lhcgr
Rergl
C230004F18Rik
Cacng2
Lrrc2
Capn3
Pag1
Kcnk1
Frmpd4
Sfrp1
Msr1
Gm16499
Smad6
Bfsp2
Col6a2
Napepld
Myo1d
Serpina3c
Il1r1
Ptpn22
Limch1
AC114585.1
Ptprr
Gm9195
Tmem196
Lox
Vim
Tsc22d3
H2-T23
Med12l
Sim1
Spcs1
Sv2b
Mgmt
Acsl3
Gm34868
Gm20125
E230025N22Rik
Olfr111
Nedd4l
Ppargc1a
Trim7
Gadl1
Cpe
B130024G19Rik
Rnf220
Abca16
Tcrg-C4
Bach2
Tc2n
Myo16
Veph1
Iqgap3
Colec12
March1
Hist1h3c
Adora1
Adgrd1
Abcg3
Hdc
Ap1s3
Tomm7
Epn2
Gm40323
Sybu
Gm44175
Gm15341
Cyp2b9
Adamts12
Acoxl
Pkp1
Arhgef15
Pcdh19
Mlxipl
Pcsk5
Ndufb7
Aqp9
Rasgrp3
Sox17
Mafb
Tex11
Hpse2
Rnf24
Alpk3
Dusp15
Jam2
Vtn
Rpl39l
S100g
Id1
Pappa
Pappa2
1700113H08Rik
Mylip
Optc
Mis18bp1
Tmem252
Gfod2
Ppp1r16b
Kcnc1
Sugct
Klhl13
Fam126b
Mpeg1
Col6a3
Fgf7
Tinagl1
Cyb5r3
Prf1
Stpg2
Lypd6b
Gm14964
Srgap3
Ndrg1
Hk3
Cacna2d3
Lypd1
Pla2g16
Tob1
Ccr4
Cyb5b
Csgalnact1
Pramef12
Klrd1
2010309G21Rik
Gm15984
Arl6ip1
Hydin
Ppp1r14a
Abcd2
Gm2a
Ifit1
Lep
Tshr
Vdr
Basp1
A330093E20Rik
Arap3
4732419C18Rik
Myl9
Lilr4b
Aoc3
Scarb1
Cmah
Anks1b
Ctgf
Sh2d4b
Ptch2
Gm4610
Ablim2
Kirrel
Plpp4
Ocln
Rasal1
AL844586.1
Nrp2
AC101945.2
Glis3
Clspn
Rpl22
Sntb1
Mbd1
Thbs3
Phldb2
Celf4
Ntrk2
Gadd45g
Osbpl10
Dgkg
Glp2r
Ccr5
Cdh8
Sfrp5
Megf9
Apex2
Ccr7
AA467197
Cat
Folr2
Ncr1
Phlda3
Pitpnc1
Ephb2
Tgfb2
Cox4i2
Sobp
Kcnk2
Olfm2
Myo10
Ankef1
Fgd4
Plpp1
AC168056.4
Plcb1
Tnfaip8l1
Nell2
Trim67
Gm20560
Paqr9
Magi1
Vsig8
Smpd3
Nid2
Nova2
Gm13938
Ephx3
Plekha7
Plscr5
She
Gpr176
Morc1
Zbtb38
Bdnf
Pik3r5
Olfr1259
Ptprc
1700006J14Rik
Ngf
Timp1
Ccdc85b
Gm9573
Igsf10
4932435O22Rik
AC134860.2
Enah
Lhfpl2
Cd209d
Zfp462
Slc6a4
Tmem120b
Zfp185
Camk2a
Rasgrf2
Tnf
Igsf5
Samsn1
Gpr156
Arc
Kcna1
Ankrd33b
Cacnb3
Cd38
Irf7
Bicdl1
Mmp16
Arhgdia
Gas7
Wnt8b
Ndst3
4930447C04Rik
Fkbp6
Plet1
Cacng4
Gm31045
Tnfsf10
Hist1h2ae
Gm5724
Glra1
Arpp21
Chst3
Eef1b2
Pcbp3
Nr2f2
Gm16093
Epha5
Echdc1
Mmrn2
Zfp423
Ifrd1
Pcdh1
Myb
Plekhg5
Slc5a3
Gm13814
2310039L15Rik
Prkar2b
Hnf4g
Nckap5
Hsd17b12
Gbp2
Cd34
Rad18
A530046M15Rik
Ebf2
Rims4
Arhgef4
Comp
Odf3l2
Cobll1
Gbp3
Mapt
Mmp28
Hacd2
Bcat1
Chchd2
Pde3b
Grm1
Gm42948
AL589871.1
Gm12976
Gm14061
Platr21
Gucy1b3
Ephx2
Macrod2
Tusc5
Eef2
Zc2hc1a
Pigu
Sv2c
Gm45012
Heatr4
Dnaaf1
Grin2b
Tln2
Hmox1
Nedd9
Notch4
Shroom2
Gpr1
Kcnn4
Col6a6
Gm3289
Egflam
Atp5s
Gm20658
Hivep3
Eda
Btg2
Pde1c
Pmvk
Prickle2
Acss3
Optn
Psmb8
Fos
Klre1
Brip1
Csmd2
Cavin3
Nptx1
AC130823.1
Lpcat3
Usp18
Gm15414
Gm33782
Fcmr
Fgfr4
Uqcrq
Fas
Sox4
Gm14005
Rab7b
Krtcap2
Fa2h
Satb1
Mgat4a
Myom1
Fam184a
Frmd4a
Ppp1r3c
Kcna5
AC158592.1
Gm11541
Gm37381
Kcna6
Rtl3
Zar1l
Bckdhb
Ppic
Efnb1
Pkib
Fst
Gm42705
Zfp449
AC158982.1
Serpini1
Gm14565
Gm45576
Prss12
Popdc3
Gm32089
4930486I03Rik
Gm40293
4930419G24Rik
Tgm2
Gm4593
Gm31592
Ifi213
Cdh9
Cytip
Plek
Tmem231
Atp1b1
Sh3rf3
Col16a1
Cd244
Speg
Cp
Nmrk2
Prdm16
Ltbp1
Gm30211
Nhsl2
Tbc1d4
Sema3f
Snx7
Ehd4
Cgnl1
Rgs2
Cotl1
Bche
Lss
G0s2
Il33
B930092H01Rik
Reep1
Cntn4
9230112J17Rik
Ms4a2
Mup3
Wdr72
Cspg4
Rhob
Ciita
Wnk2
Clec3b
Car5b
Sc5d
Emb
Pde10a
Adamts5
F630028O10Rik
Nudt4
Cdc42ep3
Cyp26b1
Tmem120a
Abcg2
Elmod1
Adamtsl2
Slc1a5
3110043O21Rik
Tmem26
Casr
Ubb
Nrep
Xkr6
Rnls
Nr3c2
Ndufa1
Cldn19
Gm14133
Pdcd1
Tdrd5
Lat2
Sema7a
Jazf1
Hoxa9
Fam122b
Dmrt2
Klrc1
Pcolce
Cdh22
Npr3
Antxr1
Spsb1
Ackr3
Marcks
Ccl3
Tcim
Bicd1
Nlrp12
Nusap1
Slc25a10
Fnbp1l
Inip
Has2os
Mt3
Smad7
Gusb
Rspo2
Ppp1r1c
Golga7b
Adgrg1
Rpl4
Dapk2
Cd248
AC121788.1
Gm13266
Olfr655
Kif21a
Myoz2
2900026A02Rik
Hsp90b1
Smpdl3a
Plxdc1
Sel1l3
Ly86
Olfr78
Pde1a
Sctr
Slc25a13
Tcirg1
Mapk6
Flt4
Edn1
B230209E15Rik
Sox7
Palld
Pkia
Ddah1
Clec1a
Igfals
Cd274
Gm29007
Folh1
Hpgds
Tcfl5
Runx1
Glis1
Hsp90ab1
Psmb4
Slc7a2
Mgll
Mmp2
Myl12a
Aacs
Palmd
Kif20b
Vegfa
Apobec1
Bmpr1a
Ppp1r27
Vstm2b
Tenm4
Cnn1
Gm15179
Bhlhe40
2010005H15Rik
4930565D16Rik
Ccl17
Gm19935
Pcsk1
Tnfsf15
Lbp
Cox6b1
Zg16
4930578C19Rik
Rilpl1
St8sia6
Ndufc2
Gm43016
Rfx4
Tspan12
Lhfp
Tmem176a
D030068K23Rik
Il1rl1
Klhl4
Fam110c
Nalcn
Col6a5
1110019D14Rik
Ctcflos
Pacrg
Gm32828
Inhbc
Sgcg
Plcd4
Plb1
Insrr
Rad21l
Slco5a1
Pknox2
Hilpda
Sypl2
Cav2
Pdia6
Arsj
B4galt5
Trim55
BC028777
Zswim5
Kcnb2
Col5a3
4933406I18Rik
Ms4a7
Gulp1
Zbtb7c
Slfn5
Plac8
Gm43154
Anxa3
Ccnf
Flnb
Pla2g7
Cacna1s
1700010J16Rik
1810046K07Rik
AC154227.2
Fam122c
Gm27164
Gm3331
Slc22a12
Mgl2
Frem2
Cidec
Gm15261
Prkag3
4930544I03Rik
Plxnc1
AC122459.2
Scn3a
Fam241a
Irs2
Ifi205
Kcnb1
Fxyd5
Itgb1bp2
Klra7
CT025579.2
Nol4l
Efhd1
Mpc2
Stard8
Iqgap2
Rab31
Gm42836
Gm45030
Primpol
9330111N05Rik
AC153568.1
Gbp2b
Cd164
Zdhhc2
1700016P03Rik
Gimap3
Gkn3
Tbc1d1
Gys2
AC158518.1
Gm13842
Usp13
Romo1
Hdx
Dkk3
Has2
Hs3st1
Acpp
Acp5
Il1rl2
Gnao1
Clic1
0610031O16Rik
Rgs4
Cxcl13
Abat
Acer3
Tec
Tfcp2l1
Slc9a9
Mrps6
Gm16553
Mme
Ms4a6b
Rps24
Ndc80
Efna5
Aoc2
Ifngas1
Zfp536
Gm34225
Eomes
Rps8
Ppara
Abtb2
Gm12236
Tek
Hsf3
Kntc1
Tspear
Tjp2
Tmem29
Prag1
Oasl2
Wscd2
Lpin1
Nmnat2
Grik4
Klhl14
Slit1
Plin2
Gm15723
Cd1d1
Drp2
C4b
Clic4
E2f7
Kcnj3
Tmeff1
1700057H21Rik
AC122293.1
Iglc3
Fam71f1
Il15ra
Myof
Col4a6
Ctsc
Hapln3
Gsta3
Sirpa
Fancd2
Spry4
Gm5105
Fxyd2
9530052E02Rik
Hint1
Adgrg2
Hecw2
Mrgprg
Dppa3
Slco1a4
Exd1
4631405K08Rik
Dcdc2a
Tns3
Ccdc69
Cckbr
Gm26776
Sema3c
Nrarp
AC160931.1
Olfr733
Ppp2r5a
Ednra
Klf8
Slamf7
AC153370.1
Bard1
Fbln1
Acyp2
Ipcef1
Ltc4s
Nap1l5
Tgfb3
Ahcyl2
Colgalt2
Acp7
Btnl6
Dydc2
Gm15642
Nts
Prlr
Tll2
Gm12022
Sh2b2
Eva1b
Olfr734
Sh3tc2
Slc39a8
Cdc42ep1
Plaur
Apol9a
Eif2b3
Hif1a
Crlf2
Nhsl1
Ubtd2
Phf11b
Tmc1
Dusp4
Col23a1
Olfml1
Nap1l1
Klra5
Tigd4
Kcnk3
Pou2f2
Lair1
Rnf152
Arrdc3
Cfap99
Timp4
Psmb10
Lrriq1
Rps6ka2
Gm13481
Tgoln1
Gbp4
Rasgef1b
Ppm1e
Rragd
Trp53inp1
Atp13a5
Hrc
Gm10629
Dmpk
Gm10800
Mef2c
Trim25
Fzd4
Ctdspl
Zfp618
Ggta1
Cadps2
Sh3bgr
Ms4a6c
AC108846.3
Gm43647
Plch2
Ccr3
Gm10457
Ptafr
Hspb1
Itga4
Ccdc162
Skint3
4930586N03Rik
A530016L24Rik
Ehd3
Ak1
Gm15564
Fmo3
Gm30228
Rerg
Gipr
Prickle1
D630003M21Rik
Agl
Frmd4b
Parp14
Astn2
C5ar1
9130008F23Rik
Gm30524
Aldh1a2
Ctps
Gm15404
Clca3a1
Hcar1
Fzd6
Hepacam2
C3ar1
Ywhab
Lrrc8c
Rp1
Gm12811
Cpm
D330045A20Rik
Akap7
Arnt2
Gm39929
Kif18b
1700042O10Rik
4933406G16Rik
AC158521.1
Gm13075
Gm26907
Gm38405
Cnga3
Gm14085
Tnfsf11
Aox3
Ucp3
Als2cr12
Pax3
Fbln2
CT009696.3
Sorcs2
C330027C09Rik
A930037H05Rik
Rmnd1
Larp1b
Pla1a
Mir142hg
Bub1
Slc6a13
1110028F11Rik
1700003I16Rik
1700092E19Rik
9330162B11Rik
A330049N07Rik
AC120425.1
AC127371.2
AC153830.1
AC154575.1
AC154806.2
AC159261.1
AU023762
Ankk1
Aqp3
B230119M05Rik
CT009723.1
Ccno
Cgn
Crhbp
Crisp4
D330037F02Rik
Dgkeos
Fthl17a
Gldn
Gm10801
Gm11418
Gm13647
Gm16564
Gm26507
Gm26577
Gm26843
Gm27048
Gm29591
Gm35161
Gm38562
Gm43425
Gm43698
Gm45708
Gm45886
Gstt4
H1foo
Hao1
Mycn
Myf5
Olfr180
Olfr857
Rdh9
Sgk2
Slco1a1
Sowaha
Sult6b2
Susd5
Tsix
Dysf
Rdh16
Adam11
Aifm2
Pfkfb1
Gm43445
Sntg2
Ffar2
Sdc4
Sept3
Otogl
Gm11266
Cd19
Fads3
Prkd1
Slc39a12
Ulk4
Pak7
Cd209g
N4bp3
Tle1
Hrh1
Cpne7
Atp2b2
Slc7a10
Zfpm2
Cox7a2
Rap1gap2
Gm12610
Gm35154
Apod
Fcgr2b
Rpl30
Adra1b
Cenpi
Glipr1
Havcr2
Bahcc1
Ncf1
4930562C15Rik
Erich5
Mgat4e
A930033M14Rik
Gm30146
Gm5108
Cdk1
Acer2
Sptb
Dpyd
Aff3
Timp2
Gm31243
9330159F19Rik
Igfbp6
Tapbp
C130074G19Rik
Mettl24
Zfp521
Rnf125
Scn5a
Dgat1
Gm14505
Mir9-3hg
Adam18
Gm46323
Mmp11
Uqcr10
Mgst1
4931406P16Rik
Higd1b
Fam213b
Pde8b
Wdr66
Tlr7
Ddo
Eda2r
Prkg2
Bcl6
Pcsk6
Gm40617
Eva1c
Tspan15
Fam196b
Tnfaip8
Fcrls
Slco1a6
Cacna1a
Dlgap5
Ube2c
Ccl24
Gm44993
Bicc1
1700025G04Rik
Slc16a1
Ston2
Dgki
1700030N03Rik
S100a1
Oxct1
Rgs18
Ncapg
Pgpep1l
Pam
Tecrl
Slc9a7
Syn2
Gm20139
Gm46218
Acad11
Trat1
Gm1715
Ecscr
Cdk15
1190002N15Rik
Lrfn2
Stk38l
Pclaf
P4hb
Dusp13
Dnah7c
Tnfrsf21
Nos2
Lamb1
Gnb4
Rassf4
Prr5l
Jakmip3
Gm10076
Ccnd2
Ret
Kctd12
Sh2d3c
Dnajb4
Fign
Lsmem1
Pcdh12
Crispld1
Aknad1
Ccdc170
Gm13212
Arhgef26
Anpep
Gm15729
Robo3
Gm29394
Iglc1
Npffr1
Enc1
Gli2
Tbx21
Tmem132c
Arap2
Col15a1
Gm26671
Ip6k3
Pgd
Lgi2
Gm13889
Atp1a3
Tnxb
Cyth4
Rtn1
Reep5
Dgat2l6
Gm15241
5830418P13Rik
Slc40a1
Flvcr1
Bend7
Slc4a8
Gm30835
Il1rap
Pkm
Gm21123
Sec14l5
Tmem182
Cd55
Gucd1
Sycp2
Rasl12
Runx1t1
Sh2d4a
Fhit
4931406C07Rik
Asxl3
Large1
Slc17a8
Slc16a10
Gm16169
Apoc1
Ncan
4933416E03Rik
Osbpl3
Tnip1
Ceacam16
4930412C18Rik
Dpf3
Spry1
Lamc3
Vax2os
Marcksl1
Olfr279
Vsig4
Wnt5b
Col11a1
Apbb1ip
Gm20619
Car12
Kank4
Lhx6
Foxo1
Adgrg6
Ppargc1b
Gm37387
Kctd14
Ppm1n
Cuzd1
Ano2
Plxna2
Dlx6os1
Gm156
Gm36539
Sele
Spink1
Kcns3
Cpxm1
Apol6
Spata13
Ccdc148
Fgfbp1
Qrfpr
BB557941
Gm43434
Plch1
Grk3
Syk
Clca2
Gm30624
Dhcr7
Laptm4b
Ndufb3
Rps2
Bmper
Adamts20
Slc22a23
Gbp8
Ccna2
Melk
Mpzl1
Gm16341
4930545L23Rik
Pex11a
Ckb
Fam83a
Fam213a
Atp2b4
Actr3b
Col4a5
AC127254.1
AW495222
Chrna1
Gm11961
Gm34964
Gm39388
Gm42951
Gm44920
Serpina1e
Sfta2
Slc2a3
M1ap
Hbegf
Hist1h1b
2310002F09Rik
9630028H03Rik
Syn1
Gm29506
4930502A04Rik
Gm26522
Pmepa1
Cobl
Psma1
Tapt1
Rnf180
Tex15
Vwa3a
Cerk
Me3
Sh3pxd2a
Atp5j
H2-M2
Sort1
Wwtr1
Synpo
Nrip1
Ikzf1
Glrb
Spaar
Srl
Cacnb4
Rgs3
Micall2
Gcnt1
Tspan9
Cep128
2410004I01Rik
Abhd5
Daglb
Jade3
Greb1l
Dmxl2
Eps8l2
Pif1
Dnah2
Mmp14
Gm42397
Cebpb
Gdf10
Slc35f4
Arhgap22
Mbp
Unc45b
Gm20713
Bscl2
Bcl2l13
Gxylt2
Duox1
Fmnl3
2610206C17Rik
Strip2
Cmklr1
Mical2
Il18rap
Pik3cb
Crhr2
Boc
AC107663.1
C430002N11Rik
AC154270.1
Pdzrn3
Esco2
Mannr
Hyal5
Oprd1
Mrgprb1
Pcca
Khdrbs3
Tmem176b
Dixdc1
Abcg1
Gzmb
Nrg3
Ndufc1
Pola1
Nrg1
Dcun1d4
Cmtm8
Slc4a7
Tkt
Nespas
Surf4
Hunk
Col27a1
Snrk
Pir
Clybl
Lpxn
Plac1
Agt
Has1
Ahnak2
Ldlr
St8sia1
Cd300a
Chp1
Gm14319
Rasl11a
Gm20756
Gm829
Pi15
Runx2
Mccc2
Gas6
Irak2
D430019H16Rik
Ptprd
Gm46329
Cadm3
Sorbs1
B230217J21Rik
B4galnt3
C430049B03Rik
Pltp
Upp1
Galnt9
Gm12224
Ndufb9
4930425L21Rik
Il31ra
Slc4a4
BC030867
1810011H11Rik
Rab27a
Styk1
Ranbp17
Hormad2
Lrmda
6030443J06Rik
Retreg1
Igf1os
Cldn23
Clec4e
Gm43192
Gm12159
Gm26523
Camk1d
Prss23
Gm2245
Erich3
Gm2694
Il9r
Rasgef1c
Nmur1
Ehf
Esr1
Gabrb2
Klrg1
Tnfsf9
Zpbp2
Ccdc141
Atl2
Edil3
Hes1
Fap
mt-Co3
Snta1
Fam214a
Tank
Hck
Tspo
Gm32569
2610203C20Rik
Cdc14a
Podnl1
Slc25a48
Dgkh
Enpep
Cav1
Snn
Ckap2l
Prrg1
Ptpro
Zfp503
Sfxn5
Hectd2os
2410018L13Rik
2610316D01Rik
Cldn1
Grin1
Kndc1
Gm26834
Gdpd1
Rnase4
C530008M17Rik
Cc2d2b
Casc4
Sipa1l1
L3hypdh
Gm12367
Spon1
Arl4a
Siglec15
Ska1
Gstz1
1700066J03Rik
1700121L16Rik
4930570D08Rik
9430024E24Rik
AC105407.2
AC133076.2
AC149588.2
AC159263.1
AC160562.2
Adam6b
B230344G16Rik
Bpifb1
Ccdc184
Cited1
Cplx3
E030013I19Rik
Eno1b
Gm12865
Gm13448
Gm16291
Gm30873
Gm32743
Gm33148
Gm36634
Gm37146
Gm39321
Gm44579
Gm45144
I730028E13Rik
Il17f
Lrrc10b
Matn3
Olfr814
Pjvk
Pla2g1b
Ppp1r1b
Tcrg-C1
Them5
Trav22
Ubxn10
Vmn1r15
Adig
Spats2
G6pdx
CT030238.1
Plin4
Gadd45b
Spock1
Gm13832
Tmem38b
Gm20528
Nfatc2
Chdh
Ctnnbip1
Apcdd1
Tas1r1
Hr
AC151530.1
Car2
Stk32b
Raet1e
Nrros
Adamts3
Capg
Mid2
Nav3
Selenof
B430010I23Rik
Dcun1d3
Gpr174
Trerf1
D5Ertd579e
Lix1
Lactb2
Nxpe2
Pkhd1
Fcor
Adam33
1700061N14Rik
4930588K23Rik
5830411N06Rik
AC132324.1
AC155709.2
Adamdec1
Adamts8
Aicda
Bpifc
Cdhr5
Cela3a
Clec4g
Cma1
Cox7b2
D030040B21Rik
D930019O06Rik
Fam81a
Fpr1
Gfra3
Gm11992
Gm13028
Gm15138
Gm15999
Gm19792
Gm26992
Gm28818
Gm33308
Gm36862
Gm36888
Gm40538
Gm44532
Gm44717
Gm5099
Gm5118
Hsd3b3
Ihh
Krt7
Mroh9
Mslnl
Pdzd3
Proc
Prss46
Rnf208
Slitrk6
Tppp2
Nckap1l
Tmem178b
Gm5086
Sema4d
H3f3b
Cox6a2
Gsr
Pdgfd
Gm26760
Plat
Arxes1
Gm37168
Tead4
Cecr2
Taldo1
Zc3h12b
Aph1c
Kyat1
Sdc2
Ccnd3
Brca1
Pip5k1b
Syt14
Fbxo21
Slc8a1
Mroh8
Hspa12b
Fam20a
Cpeb3
Tgfbi
Tmed5
Rbm46
Lgals12
Acss1
Frmpd3
Bhlha15
Tesk2
Atp1a2
Gm12681
Ccr1
Ptprq
Pbk
Slc38a3
Rbpms
Ak8
Fbxo47
Nudt7
Prkcd
Stk31
Map6
Emp2
Mfsd4b5
Tcf7
6530403H02Rik
Lonrf3
Gm34158
Nkx6-1
Olfr45
Prnd
Myoz3
Slc15a3
Met
Ppp1r42
Htra1
D430001F17Rik
Syngr1
Fam78b
Slco2b1
Serinc3
Mzb1
Ranbp3l
Casq1
Gm5444
Slain1
Ttpa
Dad1
Ndufa5
Anxa6
Vstm4
AC168059.1
Sgcd
Sult5a1
5330439A09Rik
Galnt7
Txlng
D030045P18Rik
A930016O22Rik
Timd4
Fcgrt
Pfkl
Ndrg2
Gssos1
Gm45716
Rasa2
Spc25
Hk2
Fitm2
Hoxd9
Nexmif
Trim30a
Slc25a5
Fcer1g
Sik2
Ginm1
Apobec2
Abca13
Gm1000
A230077H06Rik
Zfp985
Vgll4
Rin3
Cd209a
Adcy4
Nfasc
Fbxo4
Luzp2
Plpp3
9130230L23Rik
Gm13561
Gm37068
Atp5j2
Pparg
Ltbp3
Csf2rb
Malt1
Mcm10
2900052L18Rik
Gm34016
Gm4258
Gpx3
Gli3
Rps4x
Ebf4
Ak5
Zfp831
Syde2
Rps27l
Slc18b1
Gm44079
Cnn3
Jag2
Inpp5d
Rpn1
Mcam
Herc6
Il18r1
Ptpn14
Coro1a
Rbm46os
Cers6
Anapc15
Fyb2
Ccl12
Slc24a3
Tmem178
Abca9
Map1lc3a
Lmnb1
Efna1
Apoc4
Gabre
4933440M02Rik
Cd300e
Samm50
Csrp1
Pde7b
Tmem51
Gm14582
Efcab9
Lipe
Ankle1
March11
Alox5
Sh2d1a
AC160060.2
C130071C03Rik
Cacna1h
Ccdc129
Gm16223
Meig1
Npy
Olfr1034
Rimklb
Slamf1
Defb42
Mindy4b-ps
Troap
Stox2
Atp1b2
Usp29
Rcvrn
Bmp3
Gm44626
Cenpb
Irs3
Atad2
Gm13483
Bcl3
Cox8b
Znrf2
Gm33680
Mylk3
Tmc2
Tmem30c
Syt1
Ces1f
Slc25a30
Lmx1a
Polq
Adam22
Raver2
Kcnn3
Tmem109
Fam46c
Alpl
Racgap1
Gpr137c
Hipk2
Agtr1a
Col4a4
Cyp1b1
S100a8
5930430L01Rik
Sdk1
Gm42047
Fggy
Herc3
Alkal2
Csf1r
Adh1
Rnf144b
Tmem160
Hey1
Atp8b1
Rab11fip1
Ppp1ca
Tspan6
Gm13986
Dglucy
Scn4a
Eva1a
Cdca2
Cenpa
Efcab8
Ube2cbp
Gdap1
Eif1a
Gm36388
D430041D05Rik
Col25a1
Clec2g
Casp4
AC152162.1
Galnt13
Nfil3
AC122346.1
Cacng5
Cystm1
Prima1
Fam124b
Creg2
Etv1
Amd1
Gm10848
Slc5a4b
Uqcrh
Jund
Tpte
Ndufb11
Fam124a
Zfp532
Gm45425
Robo2
Ralgps2
Gm43063
Gm36283
Pamr1
Gm11520
Cd3g
Kctd19
1700029J03Rik
Gm15581
Gbp6
Hexb
Plin5
Galnt15
Abi3bp
Fbxo36
Actn1
AC158531.2
Prkcg
Ampd3
Mirg
Mfsd5
Myadm
Bcl2l15
Chil1
Gm17276
Map2k6
Ms4a6d
Rgcc
Hs3st3a1
Vldlr
Cacna1b
Il2rb
Nus1
Vnn1
Sox13
Shisa2
Prkce
Trib2
Tespa1
Enpp6
BC028528
Agbl4
Cpeb4
Cox5b
Gm1992
Rbm28
Zfand4
Spns2
Gm45062
Plcl1
Moxd1
Nol4
Unc13b
Aebp1
Dhrs7b
Mpp1
Cdt1
Ifih1
Heyl
Metrnl
Tm6sf1
Zwilch
Dpep1
Zfp667
Pls3
Cdc42ep4
Gm6213
Crtac1
Gm16083
Tspoap1
Rnd1
Qpct
4930509E16Rik
Gm37800
F11r
Tex21
8030423F21Rik
AC154595.2
Cd40lg
Fgl1
Gm15839
Gm26619
Gm34719
Gm5087
Jph4
Nup62cl
St8sia2
Ccdc60
Ncapg2
Ms4a8a
Icam1
Tmem44
Adprhl1
Gm16193
Rragb
Olfr112
AC112142.1
Tiam2
Bcam
Shcbp1
Ptch1
Neto2
A230057D06Rik
Clmp
Dact1
Odc1
Dnajb5
Itgam
Epb41l3
Anxa2
Myh10
Nln
Tox2
Msrb3
Gm10373
Slc9a4
Grb10
Nov
Slamf8
Ifi27
Cald1
Slc26a3
Gm20755
Gm16158
4930412B13Rik
Heg1
Ldha
Dok5
4930480K23Rik
1110002E22Rik
Amz1
Lcp2
9630013D21Rik
Gpr160
Mycbp2
Gas2
Cdk5rap1
Grina
St8sia5
Mfhas1
AC156790.4
AC170999.1
Akr1cl
Tktl1
Uchl1os
Zc2hc1c
Ramp3
Sv2a
Rarb
Tceal9
Rgs20
Blcap
Ankrd55
Gng2
Tspan2
Spin4
4930513D17Rik
Abca6
Gm11730
Rnf43
Fstl1
Grhl1
Lancl3
Gm30270
Sod2
A230028O05Rik
Ltb
Ncf2
Spsb4
Cbfa2t3
Chrna7
Ctcfl
Bcl2
Siglecg
Cd28
B4galt6
C030034L19Rik
Cidea
Prdm5
Mirt1
Dlat
P2ry14
Gm26797
Gja4
Maob
Olfr732
Epb41l2
Unc5d
Gm525
S100a16
Paox
Inca1
Birc5
Mnd1
Ddit4
Slc1a4
Btbd11
Pdlim5
Garem1
Topaz1
Epha4
Pla2g2d
Gm13052
H1f0
Ms4a14
Atp6v1f
Ppip5k1
Sucnr1
Yes1
Cd2
Aass
Gm5544
D930032P07Rik
Rit2
Slc1a7
Gm28729
H19
Kif28
9330175M20Rik
Acaa1b
4833422C13Rik
Fmr1nb
Nr1i2
Serpinb6c
Epb41l5
Sult1a1
Lpar6
Cd200r4
AC158981.1
BC026762
C130079G13Rik
Gm15831
Gm30085
Gm45875
Gm5148
Ppbp
Galm
AY512915
Foxd1
Gm16508
Gm9946
Selenbp2
Smlr1
1700010I02Rik
1700027A15Rik
A430057M04Rik
AC093926.2
AC125149.3
AU017674
Adad1
Aqp2
BC048679
Clca1
Cmtm2b
Cyp2c29
Dmp1
Dppa4
Fgf23
Gm10645
Gm11099
Gm17197
Gm26554
Gm32171
Gm36543
Gm39185
Gm42456
Gm5737
Gnat2
Gphb5
Gpr84
Grin1os
Grip1os3
Gtsf1
Ifng
Kif16bos
Klk13
Lhx9
Mbl1
Meioc
Mgat4d
Mmp8
Olfr690
Pax2
Serpinb7
Slitrk2
Tssk1
Tssk3
Zfhx2os
A530072M11Rik
Fbxl5
Gstm1
Abcb1b
Bcap31
Ptgs2
Sytl2
Glrx5
Ear2
Klf5
Mturn
Jup
Ar
Enpp1
Cox6c
Cx3cl1
Serping1
Ptp4a1
Plekha6
Slc43a2
Samd3
Efhc1
Rgma
Itpk1
Sqstm1
Dtl
Abcb4
Fry
Gm11342
Ppp1r9a
Ostm1
BC035044
Coro2a
Eef1a2
Acbd4
Pkd1l2
Adcy7
Lax1
Tmem86a
Gm13709
Sertad2
Inhbb
Lmtk2
Pdpn
F8
Lrrc39
D630033O11Rik
Tbx3os1
Lrp4
Id2
Hormad1
A430093F15Rik
Klri2
Grm4
Rnase2a
Dbx2
A430078G23Rik
Pygl
Tpbgl
Arhgap31
H2-Ob
Tmem255a
Apob
4930593A02Rik
Cd200r3
Arhgap10
Arhgap20
Olfr1033
Ankrd29
Gm43666
Dock5
Cthrc1
Serinc1
Cdkn2b
S1pr3
Gda
Sfrp4
Itm2a
Olfr731
Ntn1
Tead1
Smarca1
Usp2
Tfec
Fam83f
Gm9733
Slc22a20
Gldc
Mcub
Cd24a
Cdkn1a
Mapk10
Gm26801
Tmed3
Ptpn4
Stra6l
A530020G20Rik
Plbd1
Lamb3
Gm16263
Sh3bgrl
Atp1a1
Chga
Mc2r
Ltbp2
Rasal2
AC132833.3
Gm16104
AC158633.2
Hip1
Susd1
Gm45238
Fam13c
Elp3
AC134577.1
BB365896
Hebp1
Atp5b
Gm44995
Apmap
Ccl11
Rcl1
Kcnj16
4930562D21Rik
Fam180a
Frmpd2
1700013F07Rik
Cblc
AF529169
Spib
Hexa
Lck
Tmod1
Tppp3
Dusp27
Gjc1
Rpn2
Smkr-ps
Tekt1
Phf11d
Gm43388
Apba1
Lrp12
Vmn2r117
Pxdn
Enox1
Clec14a
Styxl1
4933406J09Rik
Csdc2
1700060C16Rik
A130077B15Rik
AC142245.1
Akr1c19
Slc17a1
Miga2
Nrn1
Slfn4
Wnt16
Gm15759
4930445N18Rik
Cd300c
Cfap161
Thrb
Egf
Gm9750
AC159809.2
Samd13
Sypl
Amph
Spi1
Efhc2
Arhgap6
Axl
Adk
Plod2
Cnr1
Gm10827
Atp2a3
Adhfe1
Ogn
Dhcr24
Gins1
Igsf6
Dhtkd1
Ikzf2
Eps8
Rims1
Cib4
Nos3
Acbd6
Rilpl2
Ppp4r4
Lama5
Dnm3os
Pvt1
Tmem258
Dock9
Mcm5
Adamts19
Cd96
Bach2os
Ccm2l
Stau2
Gabarap
Tbx18
Elk3
Vhl
Gm14963
AC158596.1
Muc13
Cdkn1c
Sox5os4
Gm13544
F2r
Cdkn2c
Il7
Parpbp
Gpx4
Itih5
Sema6d
Gm45881
Pdlim1
Lrrc38
Gm16283
Ecm1
Ptms
Alg14
Tmem14c
Mpc1
Dcaf6
Alox5ap
4930557J02Rik
Gm15246
Gm45025
Kif6
Sox11
Gm43189
A430105I19Rik
Elavl2
Cd109
Pitpnm3
Macrod1
Ypel2
Gm42962
AC125041.1
Gys1
Decr1
Phex
Rem1
Cabcoco1
Ror2
Spef2
Prrt4
E2f8
Pon3
Dclk2
Slc25a42
Chst8
4930428N03Rik
Olah
Spag5
Pomp
Slc14a1
Gm31378
Nat8l
Lrriq3
Tmod4
Ermp1
Dnase1l3
Togaram2
Npnt
Fcer2a
Grrp1
Siglech
Kif26a
Gm16759
Mall
Cdk18
Pdgfc
Arhgap42
Slc39a11
Srebf1
Mgst2
Fmn1
Ell2
Slc25a19
Gm14461
Kcnk10
Itpripl2
4930478K11Rik
Ppp1r1a
Smtnl2
Cpeb1
Six1
Jcad
Pls1
AC123858.1
Ovol2
Phlda1
Nipal2
Tk1
Tnfrsf19
Alas2
Lbh
Tuba4a
Gm45861
Aox4
Cpn1
Rspo1
E130018N17Rik
Mrgprx2
F2rl1
Dhh
Idh1
Trib1
Atp6v0a1
Aldh6a1
Scn4b
Trim30d
Jun
Irf8
Cth
Plekho2
Acadm
Gm43948
Tgfa
AC166258.1
Unc5b
Gm15283
Cep126
Rpl29
Fam81b
Zbtb11
Gm12320
Gm1110
Adtrp
P2ry12
Pkd2l2
Garnl3
Focad
Gbp9
Cdsn
Gm15601
Cacna2d1
Plin1
Asap3
Htra3
Gen1
Yipf7
Wasf1
4930488L21Rik
Neurl1b
Tpi1
Ctnnal1
Arpc3
Aplp2
Sesn3
Neurl1a
Tspan8
Etfa
Fam212a
Tes
Masp1
Spink13
Ier2
Gm26535
Zfp608
Gimap1
Plcg2
1700021J08Rik
1700124L16Rik
6330410L21Rik
AC108401.1
AC120163.1
AC124595.1
AC154314.2
AC155241.1
AC165164.2
Acsbg2
B830042I05Rik
B930082K07Rik
C2cd6
C8a
D830044D21Rik
Dlx1
Dynlrb2
Erfe
Gm15731
Gm16796
Gm17039
Gm26640
Gm26859
Gm2895
Gm29296
Gm36231
Gm37083
Gm37184
Gm38575
Gm53
Gm6133
Gypa
Gzmk
Lgr6
Oas1f
Pcdhb5
Peg12
Pof1b
Rex2
Rnf207
Rnf225
Rnf39
Serpina1d
Slc26a9
1810007D17Rik
4930522H14Rik
5430403N17Rik
AC122301.3
AC159890.1
Gm14225
Gm15908
Gm20509
Gm27200
Gm32585
Itih3
Olfr1258
Spata32
Platr22
Gm12796
Gpc1
Stac2
Dusp5
Adssl1
Bcl9
Ankrd6
Gpt2
Aldh1l2
Gimap8
Pde6c
Tnfsf18
Gm454
Apobec3
Slc16a2
Lig1
Tenm1
Rcsd1
Ebf3
Hspg2
Fam107a
Fam120c
Rbbp8
1700023F02Rik
Gm11264
Serpinb9b
Cyp2c67
Gm12766
Gm14866
Gm19590
Gm3772
Gm9934
Henmt1
Tecta
Wbp2nl
A830019P07Rik
CT009510.2
Plxdc2
Col5a2
Zfp827
Xpnpep3
Cep70
Lifr
Ugdh
Bik
Acat2
Dennd5b
Gm43614
Rab15
Ttk
Lpar1
Sgk1
Nme1
Lgalsl
Mitf
Hibch
Lrrc17
Gck
Mapk4
Pak1
Scml2
Epb41l4b
Gm12762
Neurl2
Pcbp1
Slc16a9
E230029C05Rik
Tmem43
Efhd2
Hsd17b4
Akap12
Kcnj2
9230112D13Rik
9830004L10Rik
Clrn1
Gm39383
Ros1
Mboat2
Sgo1
Ephb4
Pgm2
Slc12a2
Mettl11b
AC154264.2
Spata17
Runx3
Gm43507
Ghr
Itga11
Tpm4
Itga2
Tube1
Lrrc58
Cntfr
Ston1
Stil
4732471J01Rik
Tchh
Arid5b
Atg101
Fblim1
4931428L18Rik
Sptlc3
Klrc2
4930523C07Rik
Fam107b
Elob
4933405D12Rik
L3mbtl3
Cyp4v3
Hcn4
Slc25a51
Ankdd1b
Perm1
Gm11670
Slc15a2
Gm28981
Rab11fip4
Dpt
Nlrp1b
H2-Q10
P2ry6
Myl1
Nectin3
Uaca
Scara3
Fat1
Igdcc4
Ptpn3
Gm10851
Gm973
Htr2a
Cd8a
Tmem229a
Mab21l3
Slc15a5
AC122428.2
Abcb11
Cd209e
Mfsd2a
Oit3
Mpped2
Dmkn
Snx24
Gm20539
Pla2r1
Padi2
4930512J16Rik
Dscam
4930438E09Rik
Tdrp
Smim4
Gramd1b
Ralgapa2
A330076H08Rik
Arhgap44
Arhgap28
Htra4
2810403D21Rik
Slc6a8
Tmem154
Homer2
Gm43689
Rrad
Scin
Gla
Calm3
Cox6a1
Hadh
Lrmp
Gpr182
Egr2
Ssr3
Atp6v1c2
Nectin2
CT030159.3
Ppp2r1b
Pald1
Syn3
Slc7a15
Cpa2
Cs
Afap1
Stmn1
Unc119
Cacng1
Cox5a
Arhgap32
Bpgm
Zbtb2
Gpd2
Axin2
Gm12724
Enthd1
1700061H18Rik
Gm29237
Lacc1
Gm16070
Fhl1
Pacsin1
Hgf
AC167222.1
Gm19938
Slc25a25
Psmb6
Id4
Gm34728
Rab38
Napsa
Cox19
Gm26632
Gm32200
Catsper2
Lamc1
Dynll1
Ndufb10
AC153364.1
Plxnd1
Rtn4rl1
Lnx2
Cd59a
Mms22l
4921539H07Rik
Gm13782
Gm15958
Gimap7
Onecut2
Syt9
Cops9
Pcdh7
Skil
Plscr2
Sgo2a
Rab8b
Rorc
Samd4
Bmp8a
Fbln7
Ctsw
Stxbp5l
Gap43
Gab3
Ppp1r3b
Clstn3
Adam3
Slc9a2
Prdm1
Lmna
Tmc5
AC159282.1
Gm867
Mir133a-1hg
St5
Sesn2
Tnfrsf1a
Ispd
Chst1
AC153566.2
Crp
Gm30648
Olfr727
Platr12
Scn1a
Vpreb3
AC154257.1
Platr29
Gm7173
Gm5127
Jakmip1
Mastl
Fgd2
2900045O20Rik
Cd53
Gpr137b
Klhl5
Arhgef9
Arhgap30
Sirpb1b
AC153917.1
Rex1bd
Mstn
Pros1
Fgfrl1
Sox5
Gm21188
Ackr4
Igfbp4
Slc39a1
Jchain
Tiparp
Ikzf4
Proser2
Olfr730
1700034G24Rik
Cd3e
Rgs16
Ttc9
Atpif1
Ackr1
Osbpl8
Aqp4
Dok4
Dtnb
Bpifb6
Mical3
Slc48a1
Stk10
Sim2
A4galt
Mthfd1l
Tnk2
P2rx3
Idh3a
Alas1
Rps6ka5
Adamts14
Cish
Ccdc158
Fam83g
Gm36584
Klra9
Sytl5
Cpne8
Syt15
Adgb
Gm9801
Lekr1
Adamts4
Amer1
Rab20
Vkorc1l1
Fgfr3
Cdca8
Gm15520
Mcoln2
Pigk
Cd300ld
Il16
Phyhipl
Klra3
4930444P10Rik
Gm6249
Twist2
Diras2
Rps6ka4
Ccdc68
6030407O03Rik
Eif5a
Atp8a1
Cdhr3
Tox3
Pik3r6
Mdh1
Abhd17c
Csf2rb2
Pim3
1700015F17Rik
1700125H20Rik
4933402D24Rik
4933408J17Rik
AC132590.1
AC160980.2
AC166344.3
Acan
Actc1
Adra2a
Adra2c
Arhgef16
B230110C06Rik
Best2
Ccdc65
Dlgap3
Dpysl4
Ffar1
Gm11184
Gm11444
Gm15046
Gm15894
Gm20667
Gm34667
Gm35725
Gm41231
Gm4788
Gm8633
Igsf11
Il22ra1
Iqub
Lipn
Ly6k
Mip
Muc3a
Nipal1
Nipal4
Olfr651
Olfr738
Pcdha11
Prg2
Ptprn
Rgs13
Rtn4r
Wfikkn2
Wnt9b
Fxyd6
Gm26604
Gm42722
Cd36
Rps6ka3
Slco3a1
Jsrp1
Cd300c2
Pde5a
Ank1
Hspb7
Kank1
Syngr2
Klhl41
Gnb5
Lilrb4a
Mblac2
Gngt2
Tmem205
Serpinb8
Lama4
Gng12
Clip4
Klhl3
Ercc6
Lpar4
Gm4131
Gm40123
Stk33
Megf6
Slc9b2
Gm14064
Tmem132cos
Ttyh2
2010107E04Rik
Tpd52l1
Gabrp
9330182L06Rik
Wdr78
Dennd3
Terb1
Tmem150c
Fam26f
Nim1k
Gm12064
Capn6
Fosl2
A730056A06Rik
Kif18a
B3gat1
Lrguk
Lrrc30
Ltb4r1
Junb
Olfm1
Rnf165
Lrrn2
Uhrf1
Mcmdc2
Tbx15
Slc28a2
Mtfr2
Tjp1
9230104L09Rik
Mmp15
6430573F11Rik
Gm7854
Atp8a2
Dnajb9
Myl4
Lrrc7
Hells
Mecomos
Uhrf1bp1
Stc1
Dnajc19
Serpinc1
Eif1
Smox
Wipf3
Eml5
Gm15675
Stat1
Srpx
Ormdl3
Stxbp6
Slamf9
Grin3a
Aig1
Fat4
Ptprf
Tanc1
Agfg2
Znrf3
Cela1
Pnrc1
Mmp9
Slc22a5
Gm13479
Cdon
Ccdc18
Grip1
Tcea3
Pirb
Atox1
Cited2
Cavin4
Gm14055
Arsg
5430427M07Rik
Adgrb3
Asph
Dock6
Trbc1
Lrrc32
Dclre1c
Susd4
E4f1
Il10
Serpine2
2010300F17Rik
Meis2
Hspa12a
Cenpm
Il21r
Cldn10
2310002L09Rik
Adamts2
Chd7
Socs2
Adgrv1
Cyp51
Sla
Aspa
B230312C02Rik
Cenps
Cdkl5
Klhl6
Mtcl1
2610027F03Rik
Adgrg7
Alb
Slc27a6
AU021092
4833403J16Rik
9630041A04Rik
Gm15169
4930534D22Rik
Brinp2
F930017D23Rik
Ctxn3
Gm28068
Rbm44
2010109I03Rik
Cd5l
Gdf5
Gm14216
Gm26726
Gm32916
Gm5893
Piwil4
Ppp1r36
Tbx4
Nenf
Hfe
Gan
Fmo1
Klhdc7a
AC187103.1
Smpd1
Tshz3
Abcb1a
Pla2g4a
Cib2
Prelid2
Ryr3
Wwc1
Thbd
Gsap
Ctnnb1
Cd320
Kcnj12
Msmo1
Gatb
Parp11
Gm20033
Gm16701
Jam3
Zfp473
Dscc1
Ptprcap
Dynll2
Ndufa8
Wnt2
Tg
Stard13
Emc6
S100a4
Hlx
Mgat5
Gm26885
Elmo1
BC037032
Gdf6
Snap91
Nudt18
Oprm1
9230114K14Rik
Gm10138
Smco4
Trps1
Cds1
Abr
Doc2b
Rwdd3
A730020M07Rik
2310065F04Rik
Gm10687
Disc1
Tmem47
Arhgef3
Parp9
Hsdl2
Cluh
Fam19a2
A630012P03Rik
Aox2
Gm20631
Serpinb1c
Fhdc1
Rundc3b
Csf1
Bves
Mad1l1
Six4
AC159195.1
Gab1
Osbp2
Chchd6
Tmem88
B630019A10Rik
Irs1
Stab2
Hipk3
Rad51ap1
Myo1g
Ddit3
Tubb4b
Serpinb2
9330154J02Rik
AC161537.1
Rassf8
Dnm3
Mob3b
Col4a2
Tle3
Trpc1
Tex14
Nuak1
Ifi203
H6pd
Defb26
Cdc20
Dcst1
Mfng
Timm13
Fabp3
Tulp3
Pbx1
Chl1
Rasa4
Trim36
Selenoh
Pak1ip1
Mfap3l
Btk
Aqp7
Lrig3
Gm28863
Cysltr1
Mcph1
Abi3
Ms4a4c
Akr1c18
Exph5
Npy1r
Malrd1
Gm12296
Nfam1
Iqcm
Dll1
Ccdc125
Ralyl
Gm13713
Gramd2
Lrrc8b
Ggact
Ptges
Myom3
Rapgef3
3632451O06Rik
Tmem56
Gm45740
AC121574.1
Gm29282
Myo3b
Stat5a
Bcl9l
Gm20629
Efcab5
E230016K23Rik
Pithd1
Rnd3
Wdhd1
Tril
Adgrf4
Olfr1564
Gclm
AC162181.1
Crisp2
Per3
Katnal2
4430402I18Rik
Meox1
Mapkapk3
Ikbkg
Clec4a2
Mllt3
Nek3
Gm28643
Klrb1a
Pth2r
Atp6v1b2
Hpse
Stk17b
C1qtnf6
Tmem45a
Kif22
BC035947
1700080N15Rik
2310016D23Rik
4933425L06Rik
AC241621.2
Rimkla
Gnat3
Ptp4a3
Ncapd2
Rad54b
Pgrmc2
Mlec
Gm26613
AC154683.1
Gm12784
Gm13269
Kcnh8
AC163102.1
0610006L08Rik
2610300M13Rik
3110099E03Rik
4930483J18Rik
AC134537.3
AC151730.1
Akr1d1
CT572998.1
Ccdc33
Ccdc92
Chrdl2
D730003K21Rik
Fndc3c1
Glyat
Gm15521
Gm19719
Gm34609
Gm35696
Gm37419
Gm40652
Gm43608
Gm44864
Iqca
Ltf
Prrt2
Ptgs2os2
Sgo2b
Slc6a11
Srms
Tmem217
Tpsb2
Ctsa
Csf3r
Ace
Dupd1
Dio2
Serpina3m
Coq8b
Prr11
Syap1
Fez1
Nfkbid
Tmod2
Ehd1
Gpt
AI314278
Igdcc3
Lypd6
Calca
Gm34821
Spatc1
Emp1
Ninj1
Smtn
Gm8298
AC123658.1
Adarb1
Clec4a3
Slc9b1
Stac3
Zhx1
Ffar4
Slc7a7
Pde4d
Fzd8
Gm8075
Platr14
Slc1a2
D6Ertd474e
Dnajb3
Fscn2
Gm10862
Gm32443
Slc45a1
Ccdc96
Gipc3
Tnfsf4
Selenos
2310068J16Rik
Gm38399
Gpr183
Tlcd1
Ier3
Lonrf2
Cyp39a1
Vamp5
A430010J10Rik
Trim69
Azin2
Selenom
Tmem144
Extl3
Nlrc5
4930549C15Rik
Caprin2
Cd72
AW551984
Jaml
Atf7ip2
Slc12a8
Gm1673
Krt222
2200002D01Rik
Cd5
Cd48
Gm13710
Col18a1
Zfp239
P2ry10
Cpxm2
Serpinb9
Slc20a1
A730049H05Rik
Gm553
Rps15a
Tgfb1
Parvb
Ttc28
Dock11
Eml1
Hfe2
Islr2
Unc5a
Il2ra
9530051G07Rik
Kcnj11
Slc44a5
Mtmr10
Cd37
Mrpl20
Gm13703
Map4k1
AC168056.3
Prdm10
Psma7
Arhgap19
Abca8b
Lif
Plekhn1
Srgap1
Fermt3
Hpcal1
Nme5
Serpinb6b
Msrb1
Rab30
Tor3a
Sh3bgrl2
Lzts1
AC132833.1
Arhgdib
Vipr2
Park7
4931440J10Rik
Marc2
Neo1
Hif3a
Creb3l1
Ccrl2
Celsr1
Pex16
Cenph
4930517O19Rik
1700112J05Rik
Gm13056
Gm30275
Pou2af1
Hlf
Sfmbt2
