Ttn
Hbb-bs
Hba-a1
Hba-a2
Mgp
Hbb-bt
Retnla
Myh4
Trdn
Mmp12
Ctsl
Mylk4
Nrxn1
Gpnmb
Scd1
Hp
Atp2a1
Ctsd
Ifi27l2a
Neb
Mageb18
Csmd1
Tmsb4x
Fgf12
Lyz2
Rgs5
Fgf14
Tenm2
Rbfox1
Gria4
Tnnt3
mt-Nd2
Apoe
Gramd1c
mt-Nd1
Ctss
Cacna1e
Ntng1
Cytl1
mt-Cytb
Ryr1
Kirrel3
Mfge8
mt-Nd4
C7
Psap
Nxph1
BC018473
Cfd
Ctsk
Pcdh11x
Ampd1
Peg10
Clu
Cst3
Ctsb
Gpihbp1
Fcna
Itgad
Selenop
Scnn1a
Cd74
Ftl1
Sorbs2
Mecom
C1qb
Gm12381
Lrg1
Ptprb
Ccl2
C1qa
Fabp4
Ctsz
Pecam1
Cd63
Acss2
Iigp1
mt-Nd5
Cyba
mt-Co1
Eln
Acta1
Lyve1
Wdr17
Vwc2l
Thbs1
Adipoq
Wfdc17
Col1a1
Reln
Ltbp4
Clec18a
Xkr4
H2-Aa
Vwf
Nctc1
Creg1
Gprin3
Hspa5
Pex5l
Postn
Cxcl2
Gnal
Disp2
F13a1
Cd68
Myh11
Hs3st5
Grn
Myo1h
Obscn
Dmd
Fth1
Mmrn1
Gm35239
Slit2
Scn3a
Actb
Fat3
Zranb3
Cdh13
4931431B13Rik
Dgkb
Igfbp5
Col8a1
Lgals3
Gm39929
Cldn5
Lctl
Gfod2
Dnajc6
Gm36266
Gm13842
Slc5a7
Aqp1
1700110K17Rik
Skap1
1700047G03Rik
Me1
Podxl
Asic2
Prr33
Tll1
AC140209.1
Trem2
Erbb4
Dach1
Samd12
Vcam1
Nek10
Lockd
Ckm
Mybpc1
Gsn
Mypn
Nnat
Myoc
Pkhd1l1
Gm40910
Acta2
Dbi
mt-Nd3
2310040G24Rik
Ifi30
Ctnna3
Kcnc2
Trpc4
Esrrg
Gm16685
Sox2ot
H2-Ab1
Mylk2
9530059O14Rik
Cngb3
Spp1
Slc4a10
Terb2
Cox4i1
C1qc
Etl4
Emp3
Tph2
Rasef
Olfr1441
B2m
Nkain2
Cnksr2
Prune2
Cdh5
Tmem132b
Nyap2
Dkk2
H2-Eb1
Piezo2
Pgm5
Mdga2
Dnajc12
Sorbs2os
Rbm20
Bmx
Sparc
Ablim3
Nebl
Sox1ot
Trf
Mamdc2
Atp6v0d2
B3galt1
Gzma
Ccl8
S100a6
Ptchd4
Itgax
C2cd2
Ccl6
Mylpf
Gm45833
Cadm1
Pax6os1
Themis
St6galnac3
Grid1
Col3a1
Pdlim3
Gm17268
Tnni2
1700082M22Rik
Snca
Cd209f
Cyp2e1
Gpr50
Rspo2
Flt1
Gpc5
Epha3
Crip1
Cd52
Serpine1
Klhl31
Bgn
Tex21
Tm4sf1
Retn
AC163354.1
Adgrl3
Tyrobp
Rbp4
Ccl5
Thbs3
Cachd1
Gm45012
Cmss1
Nhs
Fosb
Lpl
F630040K05Rik
Klra4
Atcayos
Pi16
Cyyr1
Gpx1
Ntm
F830016B08Rik
Pcdh9
Top2a
Rsad2
Gm42906
Gpm6a
Cd163l1
Scd2
Mylk
Tnnc2
Lipa
Prps1
Tnip3
Myhas
Pygm
St6galnac5
Mmp3
Wfs1
Mest
Ednrb
Ano5
Cd163
Eif2b3
Folr2
Rbm24
Pld3
Pf4
H2-D1
Sez6l
AC154640.3
Nlgn1
Frem2
Laptm5
Clec9a
Grm3
Ccbe1
Cacnb2
Lsamp
Fgf13
Gabrg3
Chchd10
Slc6a11
Chrm3
Snhg11
Actn3
Rgs1
Sorcs1
Dclk1
Mt2
Mgat4e
Mt1
mt-Nd6
Slc9b2
Ccr2
Fam186b
Pawr
Diaph3
Saa3
Gm43824
Itm2b
Ccl9
St18
Car3
Hsp90b1
Sntg1
Rgs6
Kcnq5
Grm7
Fmr1
Tnc
Rad51ap2
Fstl4
Agbl1
Mki67
Xirp2
Cdo1
Clstn2
Gng11
Myot
Agpat2
Syt2
Ldb2
Ifit3
Trim63
Calr
Bmp6
Col6a5
Prtg
AC154323.2
Ppp1r3a
Cenpf
Pde11a
Myh15
Rgs7bp
Mlip
Il1rapl1
9530026P05Rik
Pcdh17
AC158535.1
Adgrf5
BC024386
Knl1
Serpinh1
Gm31522
A830018L16Rik
Shisa6
Adgrl4
Ptger3
Xcl1
Rapgef5
Ldb3
Csmd2
Art1
Ank3
Trhde
Insig1
Gm26594
Pvalb
Hmga2
Cdk8
Mreg
Arhgap25
Btc
Hpca
1700030N03Rik
Il7r
Cxcl1
Wdfy4
Lamp1
Rgs7
Synpo2
Neil3
Tmem233
Cilp
Gm20532
Thrsp
Prdm6
C3
Fn1
Foxp2
Ly6e
Abcc9
Adam2
Cpa3
Jph2
Adam23
Il12b
Btnl9
Pck1
H2-K1
Gm38048
C6
Ifitm3
Sult1e1
A330069K06Rik
Fasn
Asb18
Ctla2a
Col1a2
Rps14
Cyr61
Wisp2
Dync1i1
Rbp7
Grb14
Ugt8a
Sema3g
Kif23
Lep
Prnp
Nkg7
Dnaaf1
A530053G22Rik
Rfx4
Igfbp7
Gpr39
Mybpc2
Kctd16
Hephl1
Il23r
Zfp385b
Cenpu
Nrap
Sh3bgrl3
Peg3
Pcolce2
Ly6c1
Adamts16
Rpl8
Stambpl1
Acaca
Npc2
Adrb3
Fabp5
Hs3st4
Kdr
AC165092.1
Steap4
Maats1
Col14a1
Ksr2
Mx1
9130410C08Rik
Gm30003
Hmcn2
Ccdc3
Slc2a13
Akap6
Luzp2
Gm16163
Gm40323
Ano1
Cd81
Gm15341
Ccdc85a
Hmcn1
Rplp1
Card11
Kctd19
Eepd1
Fgf1
Gabra3
E230025N22Rik
Klk10
Ryr2
Serpina3n
Chpt1
Smoc1
Fosl1
Dlgap2
Adgre4
Adam8
Stmn2
Slc44a4
Myom2
Mapt
F7
Wdr72
Pnpla3
Ptprk
Shank3
Catsper2
Cd209b
Itgb2
Ces1d
Rbpj
Parm1
Tsc22d3
Gss
Rnf128
Fgd5
Tc2n
Gm16168
Lncbate1
Tuba1a
Nos1ap
Marc1
2600014E21Rik
Dusp10
Ppp2r2b
1700006J14Rik
Aoc3
Gm4876
Sema3e
1700028E10Rik
Hdac9
Tmem217
Oxtr
Gm29595
2410004I01Rik
Ctsc
Ism1
Vat1l
Opcml
Gm4951
Tcerg1l
Kcnj15
Gm20619
Ccl7
Lyz1
Lrrc4c
Gm26870
Unc13c
Trabd2b
Shroom3
Prelp
Timp2
Gabrb3
Sele
Vegfc
Fnip2
Thsd4
Tmem267
Ncam2
Frmd5
Efr3b
Timd4
Cdkl4
Kif11
Mpp7
Tas1r1
Gabra2
Lef1
Car2
Gm29669
Adamts6
AC133498.1
Gk
Cntn4
Epha5
Creb5
Cck
5830418P13Rik
Ankrd23
Vim
Cd44
Gpat3
Myoz1
Gpc3
Aadac
Ky
Hapln3
Trpc6
Enpp2
Ifit1
Lpgat1
Gm15962
Phkg1
Plcxd3
Tmem135
Cx3cl1
Angptl4
Ly6a
Cpe
Gpd1
Ldhc
Ankfn1
Shisa9
Dpp4
Apoc1
Ankrd6
Mmp13
Prr16
Ccdc80
Fam155a
Tmem45b
Emcn
Zar1l
Htr7
1200007C13Rik
Cfh
Myh10
Kcnb2
Grem2
Nrg1
Fbln5
Adamts9
Nrg4
Spock3
Gfpt2
Gcnt2
Gm46401
Sgip1
Synpr
Cenpe
Ckap2
Ifi44
Klra1
Svep1
Mpeg1
Slc18a1
Clnk
1700034G24Rik
Bpifc
Neto1
Itgbl1
Pak3
Slc36a2
Igfbp6
Map7d2
Bank1
Hs6st3
Fgr
Dgat2
Wbp2nl
Ighm
Fbn1
Hhip
Nell1
Cdkn1c
Dcn
Sned1
Gm38505
Gja5
Aff2
Lum
Adam12
Gstm1
Capn9
Ccnf
AC159282.1
Sparcl1
Prc1
Tmem108
Kif15
Slc35f1
Il1rn
Gm10800
Hacd2
Mrgprx2
Wdr95
Rps6kl1
Clcnka
Tex14
Lhx8
Hmgcs2
Serpina1b
Nsun7
Lilr4b
Scn5a
Ccl4
AC114585.2
Ins2
Tspan18
Meg3
Heph
Cxcl9
Acvr1c
9630002D21Rik
Gm9573
Rps5
Cd209d
Cdh20
Rtl4
Gm28447
Lrrtm3
Cd84
Slc8a3
Ndufa13
Smoc2
Cstb
Wdr93
Rhbdl3
Art3
2810004N23Rik
AC164161.2
Sfrp4
Efcab11
Adipor2
Tpm2
Pcx
Chrdl1
Epn2
2810474O19Rik
Mctp1
Gm45425
Dram1
Knstrn
4930534H03Rik
Cd226
BC039771
Cox8a
Il34
8030451A03Rik
AC117608.1
Adcy5
Col12a1
Gm28187
Fcrl1
Aox1
Aspm
Stac
Prlr
Gm16351
Plxna4
Tshr
Adamts18
Slc16a12
Ttll7
Cap2
Pmp22
Selp
Bmpr1b
Tox
Maoa
Agbl4
Cybb
Rpl23
Car4
Prkar2b
Rad21l
Lmod1
Prdx1
Gm35552
Dusp9
Rspo3
Mrc1
Gm40123
P3h2
AC122459.2
Gm36640
Gm6209
Plcb1
Unc5c
Chil3
Gm33037
Itgb4
Btla
Clec10a
Rflnb
Gjc3
Acsl1
Scel
Bckdhb
Gm17749
Bfsp2
Myo1e
Cux2
Sntb1
Gdf10
Aoah
Ccdc144b
Tcf15
Unc79
Aldh1a2
Noct
Rps3
Gm14051
Kcng1
Trp53inp2
Gm6277
Ddx60
Jph1
Ankef1
Sfrp2
2310039L15Rik
Lars2
Crim1
Aldh1a1
Sema6a
Atf3
Lhfpl2
Gm26577
Ndnf
Gm14636
Mmd
Pde7a
Stab1
Syt12
Ubd
Bcl11a
Cidec
Prkg1
Gm31045
Itga7
Sncaip
Tpm1
Gm5150
Zc2hc1a
Car10
Gm42601
1700123O12Rik
Klrk1
2610020C07Rik
Lbp
Fam13a
Gbe1
C77080
Lgr4
Mlxipl
Gm45904
Spag16
Il1b
Cd9
Cadm2
Gm15404
Gm6213
Kctd8
Sidt1
Slc5a4b
Fkbp6
Npr3
Gm5627
Gm30382
Apod
Magi1
Gm17501
Brinp1
Rad18
Gsg1l
Pfkfb3
Ikzf3
Dhx40
Grin2a
Nxph3
Gm10457
Calm1
Vwc2
Adamts1
Gm765
Dlg2
Tnfrsf8
Trp53cor1
Pank3
Fmo2
Sorl1
Fndc1
Gm14964
Gm34885
Lgmn
Gnai1
Cacna1c
Rps21
Ccl24
Kif4
Myh3
Sod3
Pkp2
Nav2
Slc22a3
Duox1
Pabpc1l
Egfl7
Sema5a
Dok6
Nedd4l
Nox4
Ctcflos
Esrrb
Slc1a5
Lpin1
Gnpat
5530401A14Rik
Gm28729
Fam46c
Pla2g16
Dab2
Rorb
B3galt2
Tmem117
Myo1b
Mgst1
Lhfpl3
Ivns1abp
CT030238.1
Higd1b
Gpr156
Notch3
Robo1
AC160562.1
Ndufa4
Gpc4
Tsc22d2
Ephb1
Egr1
Cxcl12
Cd200r1
Itga1
Slc1a3
Inpp4b
Gm16161
Ankub1
Adamtsl3
Epsti1
5730522E02Rik
Nceh1
B130024G19Rik
Kcnt2
Grik2
1700003E16Rik
Hist1h4j
Hsd17b6
Bcl11b
Gm15155
Gpc6
Mctp2
Gm12239
Kit
Lgr5
Itga6
Slc4a7
Ccr1
Itgal
Klhl29
Hemgn
Gabrr2
Gm29242
Hmmr
Klra8
Gm43914
Rarres2
Gpr37l1
Ano3
Rpl35a
Nup210
Cemip
Evl
Ecm1
Tmem163
Pdzrn3
Fam198b
Ptchd1
Cd93
Fgf10
Gm36827
Prf1
Mmrn2
Cdh2
Tmem159
Sh3tc2
Xcr1
Gm26889
Mid1
Ephx2
Fam126b
Clec14a
Adra1a
Dcun1d4
Arhgef37
Errfi1
Slc4a8
Tmem178
Angpt1
Lama1
Acyp2
Ncam1
Prox1
Mlf1
Ly6c2
Oprd1
Gm32511
Kyat1
Gm29683
Hs6st2
Dkk3
Plagl1
Cyb5b
Myo1f
Sema3a
Zfyve28
Gm30173
6530401F13Rik
Nupr1
Fhl2
Clmn
Jade3
Gria3
Frmd3
Cenps
Acox1
Lrrc3b
Bcar3
Gm28376
AC162181.1
Poln
Cyp7b1
Ncr1
Gm16222
Slc37a2
Igf2bp2
6030440G07Rik
Net1
S100a9
Anln
Lmcd1
Cd86
Pgm3
Nxn
Tcaf1
Fbxo47
Glra1
Tenm4
Styk1
Dcstamp
D830005E20Rik
Tspan7
Vegfa
Ddit4l
AC155922.2
Tenm3
Aplnr
Rragd
Ube2cbp
Acss3
Blnk
Lgals3bp
Tmeff1
St8sia4
Soat1
AC121997.2
Tln2
Sptbn4
Cables1
Gzmb
Gas6
Sfrp5
Mcpt4
Tnfsf4
Gm26776
Gm15564
Gm14085
Nts
Col7a1
Rpl3l
Smad9
Hmox1
Gm44174
Gm42418
4933406I18Rik
Bst2
Cryab
Gtsf1
Myo5b
Frzb
Rasd1
Arxes2
Gipr
Gm13986
Trpc3
Fcer1g
Cdh6
Slc6a13
Adarb2
Ppp4r4
Vgll3
CT009546.2
Ccl1
Klra6
Pgam2
Spink8
Tpsb2
Gm16283
Rabac1
Gfra1
Gm11639
Fbln2
Gm4117
Olfr78
Gm7967
Id1
Gm37389
Gm3289
Ptn
Caly
Gm20560
Pax5
Fbxo36
Efcab6
Hmgcs1
Ppib
Gm2a
Cpne5
Myrip
Lmo4
4930435C17Rik
Thbs2
Mark1
Kalrn
AC116476.1
Gm13026
Hsd17b3
Tm4sf4
Prdx6
Ildr2
Nr4a3
Gm43434
Pacrg
Clcn1
Nkd1
Atp5e
Cdh11
Fam20c
Astn2
Sybu
Enpp6
Optn
Zfp423
G0s2
Myh7b
Lin7a
Kcnj8
Slco2a1
Prkcb
Erc2
Klk13
Cavin1
D5Ertd615e
F3
Lgals1
Tmc2
Prkcq
Col27a1
Ankdd1a
Afap1l2
Bcl2l14
Bpgm
Ccdc152
Gm609
Dchs2
Ly75
Cav1
Fam69b
Tprg
Pclo
Tspear
Ndufb9
Grik4
Aqp9
Cyp26b1
Dact2
Tfr2
Samd3
Pde3b
Sorbs1
Ntrk3
Fam213a
Myo18b
Npffr1
Prkd1
Acsbg1
Micall2
Ushbp1
Mall
Hpx
1700007G11Rik
Flt3
AC104200.1
Myl1
Cntnap4
Sik2
Mir155hg
Sec14l5
Ccr7
Vsig4
Slc38a4
F10
Tpx2
Nrxn3
Map2
Ubash3b
Eya1
Blk
Stat4
Gm11184
1500015O10Rik
Gm15286
Nrk
Cckbr
4930483O08Rik
Glb1l2
Wfdc21
Actg2
Tcirg1
Gm34983
AC130823.1
Dhrs9
Abcd2
Il33
1600025M17Rik
Hsd11b1
Fcrls
Fhod3
Gm15414
9630028H03Rik
Prss51
Cavin2
Serpinf1
Ccr5
9530052E02Rik
Fcgrt
Gm31659
Cd180
Adgre1
Sycp3
Nrg2
Gm4131
Echdc1
Fads3
Nexn
Degs1
Gpr141
Esam
Phf8
1700113H08Rik
Plpp1
Klf12
Palmd
Gm1992
Lypd1
Atp1a2
Tmtc2
Smpdl3a
Gm13936
Mfsd12
Slc25a21
Acoxl
Zim1
Gm43016
Nedd9
Gm29585
Cd1d1
Dqx1
Med12l
AC158633.2
Gm13883
Gm42951
Rnf17
Macrod2
Folh1
Arhgap29
Thsd7a
3110043O21Rik
Cd248
4933436I20Rik
Tmem196
Aifm3
Paqr9
4930556G22Rik
Scara5
Mbnl3
Sgcd
1700006E09Rik
B430010I23Rik
Tcim
Pthlh
Tmem252
Lpar3
Kif20b
Sulf1
Lmo7
Aldh1a3
Nos1
Slc6a6
Rian
Gm15987
Synpo
Smpd3
Gm42836
A330015K06Rik
Trpm3
Gucy1a2
Cd209g
Mrap
2310043O21Rik
Arhgef26
Angptl8
Slc22a23
Myo15
Tusc5
Srgn
Id3
Larp1b
Chst11
Tspan12
Gtf2ird1
Gm26544
Bub1b
Hexa
Smad6
Grin2b
Npnt
Fmo3
1700012P22Rik
AC102312.1
CT025552.1
Dennd4a
Rp1
C1qtnf9
Ror1
Il20rb
Gm12022
Gm36569
Sel1l3
Slc7a10
She
Gucy1a3
Fxyd2
Abca8a
Gusb
Asb2
Prrx1
Gbp4
Optc
Pdzrn4
Matn2
Man2b1
AC114585.1
Gm28905
S100a4
Gm2164
Rapgef4
Mrc2
Vwce
Kcnma1
Flrt2
1700011I03Rik
Nos3
Spc25
Hk2
Tmeff2
4930544I03Rik
Dgat1
Cat
Gabbr2
Fry
Rassf9
Klre1
Klra7
Atp13a5
Gm16565
Ripor2
Rnf220
Gfod1
Rasgrf2
Prss12
Igkc
4930419G24Rik
Nova1
Pitpnc1
Ghr
4930471E19Rik
Cacna1d
Col4a3
Rpl32
Grm8
Dpp6
Serinc3
Clec3b
Hnf4g
Ppp1r14a
Olr1
H2-M2
F2rl1
Cntn3
C1qtnf7
Bsg
Thsd7b
AC161537.1
Gm11629
Aldoa
Cacng1
Klhl38
Mmp28
Col15a1
Reep5
Mis18bp1
Ccl22
Uqcr11
4732419C18Rik
Nnmt
Tspan15
Myo1d
Rnd1
Col4a5
Orm1
Hilpda
Gm16223
Gm16630
Gm8239
Alcam
Igf2bp1
Kynu
Cmya5
Cit
Pam
Ltc4s
AC151530.1
Tmem120b
March1
Ppp2r5a
Igfbp3
Bnip3
Tacr1
P4hb
Gm10801
Gm44175
Slc16a5
Col6a3
Ddr1
Cep128
Tbxas1
Gja4
Ifrd1
Gabrb1
Dysf
Efemp1
Gm13490
Lama2
Tmem120a
Aldh1a7
Cdh10
AC118639.2
Gm12128
Tsix
Flt4
Plekhg5
Dpysl3
Bche
Pde4dip
Kif26b
Cbr2
Rnf144a
Tmem182
Bmpr1a
Efhd1
Hpgd
Nudt4
Nme5
Kcnk2
Dock2
Lrrc36
Gpr176
Scn8a
Kif21a
Ctdspl
Mafb
Fzd4
Cd247
Negr1
Cd83
Iqgap3
Hormad1
Arrdc3
Rcan2
Gm15581
Prg4
Cttnbp2
Plekha7
Apex2
4930438A08Rik
Kbtbd12
Gm46323
Gm32585
Ephb2
Gpm6b
Plxna2
Lyzl4
Adamts5
Ppm1l
Arhgap15
Cgnl1
Cnnm2
Alk
Tagln2
mt-Atp6
Pacsin1
Limch1
Pde3a
Cd300lg
Ccser1
2610307P16Rik
Gm4219
Rasgrp3
Plk2
Cdk6
Nabp1
Tagln
Gkn3
Meox2
Enpep
C3ar1
Gm20757
Wnt8b
Lcp1
F630028O10Rik
Col6a1
Npas3
Zfp366
Ctnnd2
Cox6b1
Adgrl2
Cacnb3
Arap2
Col16a1
Chchd2
AC148334.1
Klf5
Gm20125
Ect2
Lama3
Proc
Mboat2
Prex2
Galnt17
Ndufa2
Gm35934
Sox17
Arl4a
Shcbp1
Chrm2
Cntn1
Trp53i11
Tbx21
Cd200
Spon1
Ston2
Ntn4
Ltbp3
AL589871.1
Dapl1
Gm26843
Gm38575
Gm5105
Odf4
AC153938.2
Tnfrsf19
Actn2
Kcnk13
Gpr1
Slc25a1
Elovl6
Dpyd
Pdk4
Rgcc
Pde1c
Fam122b
Gm19938
Cd274
Gdf15
Pde4d
Nrip1
Kank4
Grm1
Sox18
Kcnip4
Msr1
Dtna
Pdia6
Fas
Timp4
Apol6
Als2cr12
AC131709.1
4930447C04Rik
Gm12153
Nsdhl
C330019F10Rik
Mei1
Ltbp1
Ifitm2
Cobll1
Olfr279
Pnpla2
Dcbld1
Emp2
Ppargc1b
Sc5d
AC107452.3
CT009713.8
Gm43608
Zscan10
Musk
Nrcam
Jam2
Mgll
Itgb6
Anxa6
Ddah1
Fam47e
Ces1f
Gm35940
Platr6
Arc
Fam129b
Pcdh19
Chn2
Mgmt
St8sia6
4930425L21Rik
Serpina3c
Pmepa1
Epas1
Il13ra2
Sema3d
Crispld1
Adamts19
Col8a2
Zfp239
M1ap
Gm33206
Ehhadh
Apba2
Entpd1
Atp8b4
Kcnb1
Gpam
Gna14
Gm20756
Cytip
Plin4
Gm1673
Plac8
Stk32b
Acaa1b
Gm12002
Rasa2
Pkia
Ms4a7
Bcl6b
Fos
Sfta2
Slc27a1
4931406P16Rik
Car8
Il15ra
Xkr6
Mpc2
Cd38
AC124601.2
Fam19a2
Tnf
Zfp697
Sdc3
Slc24a3
Slc5a3
Dclk3
Tet1
Celf4
Kcng3
Rplp2
Gas2l3
Fam57b
Col6a6
Ndufa1
Tubb5
Cav2
Kirrel
Ppfia2
Prdm16
Tnip1
Carmn
Gys2
A530099J19Rik
Nmrk2
Trim55
Gm39121
Gm43154
Rnf24
Egr3
Efnb2
Ywhab
Atad2
Cebpa
Pparg
Itga4
Gm16093
1110019D14Rik
Jazf1
Uqcrq
Bicdl1
Ptch2
Art5
Lingo1
Vldlr
Ptch1
Lgi1
Chsy3
Stap1
Klri1
Bmper
Gm30270
S1pr1
Fcgr2b
Hist1h2bc
Car12
Lsmem1
Atp5g3
Tspan2
Gm26740
Pkp1
Ap1s3
Rad51b
Camk4
Tspan11
Nr1h4
Rai2
Alpl
Vcan
Pag1
Gfra2
Oprm1
Fhit
Eya2
Ppp1r14c
Ppargc1a
Gm44026
Adamtsl1
A330093E20Rik
Inmt
Ctsa
Klb
Prima1
Klra2
Erg
Magi2
Lipe
Ubc
Dmpk
Gm45576
Vmn1r6
Ndufc2
Col28a1
Wscd2
Ndc80
Nr3c2
Ica1
Gm11266
Epb41l4a
Colec12
C5ar1
Atp2b4
Acacb
Gm26771
9230105E05Rik
Pstpip2
Tcap
Ninj1
Cpeb2
B230312C02Rik
Ets2
Mfap5
Rasip1
Bcl6
Frem1
Marveld3
Rassf6
1700060C16Rik
Gm40477
Gm45886
Kcne2
Prox1os
Fam83a
L3mbtl4
Pfkfb1
4931406C07Rik
CT009696.3
Bcap31
Bahcc1
Sncg
Tmed5
Gnao1
Syngr1
Rnls
Kitl
Sugct
Cxcl14
Rtp3
A730036I17Rik
Exoc3l2
Rpl22
March3
C4b
Atp5k
Itgam
Zwilch
Slc25a13
Plau
Kctd12
Pkp3
1700027J07Rik
Slc35f2
Hivep3
Cacna1s
Amer1
Frmpd3
Bco1
Pcsk6
Gm34921
Rgs17
Pla2g7
Cacng3
Smlr1
Gja1
Mycbp2
Anks1b
Satb1
Bcam
Kcns3
Igf1
Tnfrsf11a
6330411D24Rik
Cenpp
Anxa1
Klrb1f
Tek
D030045P18Rik
Fcor
Rgs3
Kank3
AC153370.1
Gm12811
6430573F11Rik
Cdc42ep1
Lgals12
Timp3
Zbtb2
Aifm2
Hydin
Fzd6
Sort1
5033421B08Rik
B430219N15Rik
Itpk1
Casq1
Fam196b
4930430A15Rik
4930515B02Rik
9130015G15Rik
9230020A06Rik
AC101677.2
AC124397.1
Aqp2
CT009486.1
Cldn19
Gfra3
Gm13598
Gm15731
Gm26629
Gm26992
Gm3002
Gm3896
Gm40773
Gucy2g
Lrrc46
Olfr601
Pcsk2os1
Rfx6
Rgs21
Slc14a2
Slc39a4
Taf7l
Sh3pxd2a
Cd300lb
Map7
Lrmda
Eng
Lepr
Brca1
Tob1
Map3k7cl
Car5b
Clca3a1
Ndufa4l2
Cmah
Morc4
AW112010
Cdh22
Adprhl1
Dscaml1
Ms4a4b
Zbtb7c
Cdh19
Col5a3
Dixdc1
Clspn
Pcsk5
Ptprd
Slc9a6
Tmem56
Cfap54
Itk
Cecr2
Pdia3
Atp2a3
Cep126
Sept6
Tmsb10
Edn1
Cfap61
Epha7
Pdgfb
Comp
Cenpb
Ctgf
Gm30624
St14
Snrk
Gm26691
Fam184a
Hk3
Palld
Shroom4
Spats2
Lurap1l
4930512H18Rik
Thrb
Klf2
Eps8l2
Lifr
Ptpn14
Trim67
Pappa
Stard8
Gm13481
Fbxo32
Rerg
Ttll9
Irs2
Dhrs7b
Sirpa
Inhbc
Eya4
Eda
4930473D10Rik
Gm30146
Clec1a
Mir142hg
Ndufb7
Galnt18
9330182L06Rik
Exd1
Efna5
Kcnh7
Dner
Tec
Gm2447
Gm40932
Ntsr1
Mucl1
Racgap1
Sept4
Rps6ka2
Pla2g4e
Cyp4b1
Plin1
Por
Aldh1l1
Plvap
Aff3
Cfp
Gm20755
Chd7
Ebf2
Ifi213
Adcy2
Gm12296
Nr2f2
Olfr111
Calcrl
Mgl2
Vcl
Pkib
Dmxl2
Svop
Ovol2
5730419F03Rik
Serinc2
Wnt6
Sfrp1
Krtcap2
Dpf3
Hkdc1
Gm3772
Ropn1
Tal2
Spock1
Prickle1
Astn1
C530044C16Rik
Gm32916
Efcab8
Rap1gap2
Gstz1
B4galnt3
Mccc2
Nhsl1
Sv2b
Ackr3
Icam2
Ablim2
Ly86
Cacna2d3
Gm10660
Stum
Gm36793
Ptafr
Rab11fip1
Wwtr1
Cmpk2
Adamts12
Fyb
Nos2
Got1l1
Mme
Vwa3a
Tspan13
Fign
Dclk2
Lvrn
Mmp19
Cpeb4
Adamts20
Gm16553
Ralgps2
Ribc2
Csgalnact1
Ppp1r16b
Zbtb38
Sema3c
Popdc3
Pkp4
Tspoap1
Slc9a9
Naaladl2
4930578C19Rik
Rps11
Elavl4
Fam71d
Samd5
Inhbb
Sh2b2
Rpl26
St8sia1
Stpg2
Gm14064
Pou2f2
Hsd17b12
Kcnd2
Sfxn5
Specc1
Fgf9
Treml4
Cd59a
Large1
Mpz
Uqcr10
Gm28863
Cotl1
Stox2
Cd151
Lck
Gm40394
Gpr61
Ms4a2
Robo4
Mcam
Gm44079
Dcdc2c
Ndst3
Gm42397
Cd300e
Gm43948
Clybl
Ndufb3
Bcl2l13
Shtn1
Srgap3
Rplp0
2310002F09Rik
C130074G19Rik
Pde1a
Irak2
Rps24
Pde4b
Klhl13
Fam107a
Myct1
9330159F19Rik
Cdhr3
Tnk2
Sgcg
Afap1l1
Slc40a1
Pik3cb
Olfr733
Hecw2
Clec12a
Il18r1
Gm14582
Thbd
Atcay
Gm11342
6030443J06Rik
Snta1
Txlng
Gm38825
Gm4221
4930433J02Rik
Ahsg
Gm11351
Gm15290
Gm15555
Gm32051
Gm34964
Gm44257
Igkv1-110
Klra5
Smad7
Adora1
Cd6
Nap1l1
Hrh1
Klhl4
Bmp3
Serpini1
Lypd6
4933406J09Rik
Ngf
Dach2
Myo5c
Cdc42ep3
Hr
Clic5
Mapk6
Cadm3
Tgm2
Ptprc
Clmp
Gm31243
Depdc1b
Dgkg
Ptpn22
Cd55
Hdc
Ncan
Dad1
Prkce
Bmp7
Arhgdia
Mmp16
Gm33680
Hoxa9
Slc7a8
Myo10
4930598N05Rik
AC159619.3
Gm12224
Vgll4
Megf9
9330111N05Rik
Gxylt2
Dusp4
Egr2
Gm13544
Gm32569
Chp1
Mrps6
Pik3r5
Grina
Tes
Acot11
Sntg2
Rpl38
Sdc1
Ndrg1
Rsph6a
Ctnna2
Tie1
Mapkapk3
Slc9a4
Tbx3os1
Slc22a22
Pkd2l2
Lrriq1
AC105167.1
Cfap99
D430041D05Rik
Itm2c
Dapk2
Cth
St3gal5
Brip1
Dlgap1
Syngr2
Abca6
Gbp5
Ehd4
Cdk18
Nenf
Igsf5
Nalcn
Ets1
Zfp185
Nhsl2
Tnfaip2
Acbd4
Gm45716
Sipa1l1
Prss23
Alas2
Sv2c
Samsn1
Adarb1
Gm33103
Gm29773
4930545L23Rik
Sema4d
Akap7
Dscam
Lama5
Pcca
Pigu
Lmx1a
Snap25
Plaur
Adamts8
Dmgdh
Gm13565
Gm13715
Gm14377
Hao1
Prokr2
Tmem63c
Ckap2l
Bscl2
Ciita
Col6a2
Rnf152
Gm14005
Vmn2r117
Lcn2
Adgrd1
Csf1r
Topaz1
Spsb1
Mid2
Il2rb
AC158531.2
Galnt16
Gm44691
Tspo
Btg2
Prkag3
Fxyd5
Plekhh2
Frmpd4
Aspn
Hsp90ab1
Cobl
Msrb3
Hes7
Kcnn4
Kntc1
Trp63
Dusp15
Adig
Fam81a
Tead1
Fbxl7
Fmr1nb
Klri2
Ehd3
Ptpn4
Atp10a
Syndig1
Gda
Cdk15
Gm35154
Flnb
Cspg4
Prickle2
Hipk2
Gm37459
Depdc1a
Gm15723
Xylt1
Antxr1
Mcm10
Gm16070
Ppp1r3c
Gclm
A530016L24Rik
Cd164
Ucp3
Ctcfl
Gm20528
Emilin2
Kcnk3
Sqstm1
Ass1
Ifi27
Dpt
Tgfb2
Stk17b
Stra6l
Il1r1
A230077H06Rik
Extl1
Ifngas1
Fam241a
Pde7b
Usp29
Anxa3
Cthrc1
Trp53inp1
Plxnc1
Tmem200a
Gm26522
Egflam
Slc6a7
4930554G24Rik
AC154314.2
Casr
Acss2os
Gm30211
Plppr4
D5Ertd579e
Apobec1
Ipcef1
Met
Unc13b
Crtac1
Apln
P2ry14
Ggh
Ccm2l
Cd200r4
Sell
Jag2
Il1rl2
Dnah2
2310065F04Rik
4930480G23Rik
9030622O22Rik
9330178D15Rik
A2m
AC124549.1
AC124555.1
AC125328.1
AI115009
C1ql2
Cartpt
Celf6
Clcnkb
Faim2
Fnd3c2
Fthl17a
Gabrg1
Gal3st1
Gm12295
Gm13663
Gm15201
Gm15205
Gm16029
Gm16486
Gm26829
Gm26895
Gm29185
Gm38411
Gm45463
Lyzl6
Morc2b
Nup62cl
Olfr1349
Pirt
Pla2g4f
Skint4
Slc36a3os
Strc
Tgm5
Ucma
Vmn2r26
Prss55
Cyp4v3
Cers4
Gm13938
Dst
Atp8a1
Sucnr1
Gys1
Acer2
Cdca2
Pi15
Cox7a2
Gabre
Rasl12
Lox
Sctr
Gm2245
Gm12830
Gm13589
Gm38979
Lgr6
Rack1
Aldh6a1
Wdr66
Ranbp17
Nap1l5
Cd24a
Aadacl2
Sox13
1700020D12Rik
3110079O15Rik
AC133207.1
AC154765.1
Alx1
Epn3
Foxr2
Gm14120
Gm15457
Gm15891
Gm27224
Gm29456
Gm36634
Gm40655
Gm42109
Gm45336
Gm45680
Gm5099
Gm5546
Gsg1l2
H2-M9
Igll1
Lyrm7os
Moap1
Notum
Nr0b2
Olfr1448
Oprl1
Rnf39
Serpinb5
Sftpc
Slc22a1
Slc22a12
Tescl
Tmem139
Trpm6
Pdcd1lg2
Slc22a4
Col4a4
9130008F23Rik
Gm46329
Alox5
4933427D06Rik
Fggy
Stk38l
F8
Ulbp1
Tmem205
Kif14
Prdm11
Hormad2
Rph3al
Cadps2
Nlrp12
Cd8a
Nexmif
Gas1
Tmem132c
Esco2
Phlda3
Lnx1
Lhfp
Itpkb
Chodl
Sphkap
Cdkn1a
Tppp3
Ntrk2
Heg1
9630013D21Rik
Hspb1
Clic4
Blcap
Mannr
Lamc3
Gabra4
Iglc1
1700126H18Rik
Gm44618
Mical3
Chn1
Prkg2
Pdpn
Gm15716
Plbd1
Cadps
BC046251
Syce3
Spef2
Jakmip3
Islr
Map6
Slc4a4
Tmtc1
Ccdc162
Hexb
Map1lc3a
Col19a1
Acp5
Tnik
Clstn3
Fam43a
Emb
Esyt2
Nrp2
Pdgfd
Mc2r
Vit
Lrrc2
Glt1d1
Gm42723
Rps15
Tnfaip6
Sh2d4a
Cd300c2
Abcg3
Pdgfra
Melk
Cavin3
Cdh4
Gm43614
Rnase4
Slc16a10
Cd209a
Sh3gl3
Ell2
Srl
Slc16a1
Grhl1
Klhdc7a
AC134577.1
Rab27b
Atp1a1
Serinc1
Slc24a2
Entpd3
Ikzf2
Runx2
Nuak1
Rpl34
Tgoln1
Arsb
Gm43063
Gbp2
B230217J21Rik
Atp1a3
Brinp2
Adam3
Gm11520
Cd34
Fgf7
Nckap5
Esr1
Padi4
Nes
AI314278
Tll2
Snx7
Ssu2
Ralgapa2
Ppara
Dtl
Slc25a48
Olfr1420
Arl6ip1
Tinagl1
Gm28177
Sox5os4
Fst
Map1b
Cbfa2t3
Olfr734
Fam169a
A230001M10Rik
Gm4577
Dgki
Mettl24
AC117570.1
Cc2d2b
Dmrt2
Adhfe1
Pdgfrb
Pltp
Gm43445
Gm26760
Lif
Pola1
Tns1
Mical2
Lat2
Hpgds
Gm39383
Hsf3
Clec4d
Tgfa
Gm30835
Cp
Cxcl17
Abi3bp
Hibch
Cebpb
Cenph
Megf6
Glyat
Zfp532
Fbn2
Ptprr
Zfp521
Olfr655
Samd15
Serpinb9b
Prr5l
Scarb1
Gm29237
AC187103.1
Stil
Pard6g
Rhoj
Fitm2
Epb41l2
Uqcrh
Foxo1
Zfp462
Skint3
A530020G20Rik
Ednra
Tgfbi
Anxa2
Rpl39l
Plat
Has2os
Gm42705
Ccdc18
Gli2
Aebp1
Polq
Reep1
Vsig8
Primpol
Tmem178b
Nespas
Ggact
Gdap1
Tmem229a
Gm11437
Prr11
Rgs2
Cfap100
Il18rap
Pif1
Cacnb4
Il16
Gan
Etv1
Srebf1
C730034F03Rik
9330158H04Rik
AW495222
4933405E24Rik
Crp
Asic5
Foxd1
Gm5737
Klra9
Ak8
Slc39a11
2900052L18Rik
Apmap
Hebp1
Dock9
Fli1
Hist1h3g
AC156025.3
B230323A14Rik
Fgf23
Sgo2b
Slc4a1
Prom1
Egfem1
Nusap1
Emp1
Gm26671
Chdh
Crxos
Abtb2
Hcn1
Gm12159
Ppip5k1
Cnnm1
Sh3rf2
A430105I19Rik
Decr1
Cxcl10
Atp5s
Chst8
Frmd4a
Ddo
Kng2
Plcg2
AC158596.1
Itgb8
Cd14
H2-T23
Irs1
Thbs4
Cd3d
Fras1
Daam2
Gm32828
Gadd45g
Hspa12a
Col4a2
Cpeb1
Irgm2
Gm5086
Slc48a1
Gm15261
B930092H01Rik
AC158982.1
Acad11
Ddit4
Ppp1r9a
Arsj
Klrd1
Rgs4
Sox11
Slc18b1
Aplp2
C430049B03Rik
Celsr1
Pgd
Zbtb16
Slc22a20
Txlnb
Spry4
Olfr731
Rufy4
Nol4l
Txk
Ccdc69
Mcf2l
Cd300a
Grk3
Fcgr3
Gulp1
F930017D23Rik
Apob
Lair1
Rtn1
Igf1os
Pex11a
Armc4
Gm829
Atp6v0a4
Vax2os
Gm40617
Gm15179
Ret
Cd200r3
Manba
Abat
Auts2
Fbf1
Coro2a
Polh
Gm10851
Col18a1
Ms4a4c
Bdnf
Tmem176b
Tapbp
Plxdc1
Rpl14
Napepld
Ntf3
Gm9750
Rpn1
Gsta3
Eml5
D630003M21Rik
Gm12865
Pik3ap1
Sorcs2
Ms4a4a
Il21r
Prx
Hey2
Gm20033
Gm42962
Gm17276
Syn1
Cd36
Glul
Adamts3
Slc15a3
Kcnip1
4930440I19Rik
Slc17a8
Gcnt1
Abcg1
Sox5
Gm26692
Tmem29
Alox5ap
Stard13
Hdx
Htra1
Slc25a10
Gm29103
Miga2
Gm13483
Ms4a6b
Gm20658
Mtus1
C230038L03Rik
Arxes1
Gucy1b3
Birc5
Glis3
A230072E10Rik
Prkch
1700015C15Rik
2610028E06Rik
AC124465.1
Apol8
Cdcp2
Cebpe
Cnga3
Dhrs7c
Dynlrb2
Fgfr4
Gm12682
Gm13749
Gm13861
Gm17067
Gm20005
Gm27153
Gm30873
Gm34829
Gm5441
Kcna1
Krt28
Nefh
Onecut3
Pard3bos2
Pcdhb7
Ucp1
Wfikkn2
1700013F07Rik
2310016D23Rik
Acsbg2
Egfl6
Foxf2
Gm17225
Pip5kl1
Prnd
Reg4
Tmsb15b1
Vmn2r18
1520401A03Rik
Iglc2
Jsrp1
Daglb
Gm45062
Pde6c
Cd5
Nova2
Rbpms
Lypd6b
Sgk1
Slc26a3
Gm34225
Gm34068
Pigk
Il1rl1
Gm26632
Isg15
Bard1
Gm26535
Hsd17b4
Sptlc3
Mrgprb1
AC134329.1
Slc8a1
Gm36388
Ttk
Ar
A530072M11Rik
Anapc15
9330175M20Rik
Smpd1
Kcnn3
Laptm4b
Cpn1
Neu2
Spo11
Eef1a2
Gm10848
Ehf
Sgo1
Slc16a2
Asb4
Ogn
Cpeb3
Alkal2
Arap3
Olfm2
Cav3
Hck
Itpr1
Itpkc
Sod2
Zfp667
Plek
Mmp11
Hipk3
P2rx7
Gm45238
Psrc1
Gm44995
Ankrd33b
Fam110c
Rab7b
Spcs1
Parpbp
Syap1
Mal
Tmem176a
Tdrp
Mcph1
Anpep
Trim30c
Hvcn1
Capg
Amz1
Pip5k1b
Col4a1
Aqp7
Hint1
Bcl3
Cxcr5
Tbc1d4
Ror2
Cd244
AC154683.1
Pcolce
Il7
Slamf6
Tmem109
Phldb2
Plpp3
Glis1
Runx1
Zfp449
Nrros
Tpte
Bicd1
Ms4a6c
Gm10717
Gm10857
Kcnj12
Prr27
Ppp2r1b
Cdh9
Sycp2
Dcun1d3
Mknk2
1700094M23Rik
Olfr1259
AC157476.2
Gm15124
Scn4b
Slc9c1
Gimap8
G6pdx
St5
Ckb
Tmod4
1700020G17Rik
Sypl
Prkcd
Lrpap1
Pla1a
Cd300ld
Gm45321
Atp5b
Igdcc3
Trbc2
Zg16
Gapt
Crlf2
Rad54b
Eda2r
Cish
Pim3
4930512J16Rik
Napsa
Gm29282
Mpped2
Enox1
5430427M07Rik
Lmtk2
Arhgap44
Hsdl2
Plekhg1
B4galt5
Atf7ip2
Gm26911
Slc25a25
Slc7a15
Slc13a3
Pex13
Mgat4c
Efhc1
Ntn1
Flnc
Cd8b1
Dtx1
Isl1
Scin
Serpine2
Lrfn2
Tspan9
D430019H16Rik
Gm46124
Dppa1
Fam120c
Rassf4
1700047M11Rik
Fscn1
Rasgef1b
Fancd2
Herc3
D430001F17Rik
Acadm
Pex16
Ccnd2
Syk
Tiparp
AC158531.1
Tkt
Plcl1
Sytl2
Runx1t1
Raver2
Idh3a
A230057D06Rik
Cox6a1
Pxdn
Iqgap2
Npas2
Gm13561
Cox19
AC107663.1
Trim25
Ms4a8a
Ormdl3
Slc9a7
Tm4sf19
Surf4
Polr3g
Traf1
Coro1a
1700016P03Rik
Pou2af1
Hfe
Zc3h12b
Ffar4
D7Ertd443e
Gm13266
Serpina11
Slc24a4
1700012I11Rik
Boc
4930478K11Rik
Mllt3
Ndufb10
Thap1
Ffar2
Ackr4
Mthfd1l
Pkhd1
BC035044
Scml4
AC121860.1
Rbm28
Spata13
Tmem51
Pamr1
Rab39
Pgpep1l
Gm45607
Gm15759
Gm40841
Gm5724
Phactr3
Sdc2
Strip2
Actn1
Dnajc19
Gdpd1
Akap12
Grm5
Malt1
Slc44a5
Gpt2
Bach2
Dnajb4
Ptp4a1
Gabrb2
Fam169b
Stac2
Adam33
Fam107b
Gssos1
Syn2
H6pd
Aph1c
B230209E15Rik
Extl3
Grhl3
2010300C02Rik
Gm13601
Gm38407
Eef2
S100a3
Myl4
Ms4a14
C230062I16Rik
Dnah12
Kif18b
Cyth4
AC142245.1
Olfr652
St8sia2
Trim54
Kcna5
Gpr174
Tomm7
Romo1
Tapt1
Kcnj16
Sord
Frmd4b
Lhx6
Ttpa
Fap
Cenpi
Bub1
Olfml2a
Gm46218
AC121574.1
Lrrc39
Aox2
Ginm1
AC158388.3
Rnd3
Epb41l3
Ndufb11
Rps6ka3
Gm13832
Slc20a1
B4galnt2
Tfrc
Lcp2
Mogat2
Galm
Hmgcll1
Slc43a2
Dhcr7
Pls3
Adgrg2
Gm37168
Fbxo21
3110099E03Rik
AC157772.2
Cacng6
Gm16596
Gm31152
Hcrtr2
Slitrk4
Dnm3
Slc7a11
Atp9a
Arhgef15
Rgs20
Pak1ip1
Tex15
Tmem232
Tex26
Gm12160
4930579F01Rik
AU021092
Atp2b3
D830013O20Rik
Gprc5a
Cdc20
Arnt2
Pde10a
Gpr137b
Ptx3
Syt7
Pkd1l2
Irs3
Tnfsf10
Gm16263
E2f7
Rpn2
Gm10687
Gli1
Lama4
Rnf180
Lpxn
Rims4
Mturn
Ccdc141
Cib2
Rims1
Pik3c2g
5330439B14Rik
Fermt1
Lancl3
Plac1
Igfbp4
Slamf7
2310026I22Rik
2310034O05Rik
4930407G08Rik
4930428E07Rik
4933407I05Rik
9930038B18Rik
A930038B10Rik
AC153938.1
AC154627.3
AC156801.1
AC158521.1
AC160863.3
AW011738
Apol7b
Arhgap36
CT009728.1
D730003K21Rik
Dgat2l6
Elmod1
Gabrq
Gm13404
Gm17171
Gm20420
Gm20758
Gm21738
Gm26834
Gm27162
Gm28178
Gm34004
Gm38811
Gm43825
Gm44946
Gm45261
Gpr179
Il22ra1
Itih1
Jhy
Olfr738
Padi3
Pdcd1
Pdcl2
Plekhs1
Vmn2r3
Vmn2r96
Zdbf2
Mfhas1
Ccdc148
H2-Q6
Dlgap5
Golga7b
Ranbp3l
Gm15614
Abca9
Gm26835
Fnbp1l
Gm45881
Zfp618
Lamb3
Acer3
Nim1k
Apba1
Txn1
Fgfr3
L3hypdh
Mtss1
Glrx5
Nrgn
4631405K08Rik
Slc25a19
Ypel2
Prdm15
2410015M20Rik
Aspa
Epha4
Tmem150c
Fbln1
Gm27007
Snph
Col4a6
Tmem160
Ammecr1
Marco
Mthfr
Agfg2
Sh3bp5
Pilra
Basp1
Hip1
Slco3a1
Macrod1
AC160635.2
Fhl5
Ampd3
Btbd11
Gm13709
Fmn2
Nlrp1b
Tacc2
Tlcd1
4732471J01Rik
Xlr5a
Enc1
Scara3
Tnfrsf21
AC152162.1
Uhrf1bp1
Ggta1
Bmp5
Dhtkd1
Ptprz1
Rbm46
Gm11917
Ankrd36
Sdc4
Sesn2
Abcc2
Naaa
Ddx43
Me3
Skil
Trib3
Lrrc58
Clec2g
Lonrf3
Rbm46os
Tnxb
Cnr1
Focad
2010300F17Rik
Cluh
Slit1
Selenof
Vipr2
Jakmip1
Ube2s
Filip1
Rcsd1
Grrp1
1810024B03Rik
Cfap43
Rragb
Sh2d4b
AC121286.1
Uap1
Kif18a
Ncapg2
2900026A02Rik
AC164437.5
Gm43661
March11
A430078G23Rik
Krt20
Has2
Edil3
Spink13
Grb10
Gm10373
Bcat1
Gm45030
Oasl1
Bend6
Inca1
Gm16337
Gm20713
Adgrg6
Abcb1a
Rilpl2
Atl2
L3mbtl3
Fat4
Nfe2l1
Faah
Arhgap23
Bicc1
Mertk
Slc1a4
Tmem158
Mlec
Cd4
Tank
B230208H11Rik
2810404M03Rik
AC154227.2
Gm5447
Olah
Scn4a
Gm15046
Kcnk10
Ctif
Galr1
Rcl1
Sh3rf3
Igfals
Nckap1l
Crtam
Kcnq3
Fbp1
Dusp27
Emc7
Gm29506
Tjp2
Sdk1
Pdgfa
Fam78b
Bend7
Tmed3
Cox6c
Psma1
Cxcr2
Gm10645
Gm12610
Eef1b2
Sema7a
Arhgdib
Mpdz
Gm11861
AC160931.1
4930404N11Rik
Bhlhe40
Enah
Plcxd2
Mdh1
BC028777
Gpt
Olfml1
Wnt2
Icam1
Gm12320
Gm28981
Spag5
Kcnk5
Glipr1
Col24a1
Afap1
Zdhhc2
Tfec
Maob
Mpc1
Pik3c2b
B4galt6
Atp6ap2
AC137950.3
Rxfp1
Phka1
Incenp
Ahnak2
Nrep
Siglecg
Plxnd1
Nudt7
Csf2rb
Ldha
Phlda1
Cass4
Gm13814
Pknox2
Piezo1
Plch2
Ndufa3
Abca8b
Prrg1
F2r
Wdhd1
Alox8
Igsf8
Ccdc170
Serping1
Mfsd5
A230009B12Rik
Kif27
Akap1
2810032G03Rik
Hadh
Cdkn2b
Trps1
Glp2r
Frmd6
Serpinb8
Ndufa5
Ctps
Nxpe3
Abr
Dennd3
Prss36
Itih5
Slc14a1
Gap43
Tlr7
Mmd2
Csad
Ptpro
Adcy4
Atpif1
Gm15577
2610203C20Rik
Gm29536
Kcnn2
Tmprss9
Nectin3
Cfl1
Spint2
Ptprg
Gm13293
Gm16193
Tpi1
Id2
Tbx1
Cenpa
4932411K12Rik
Gm14207
Apol9a
Cd69
Oca2
Abcc4
AC168059.1
Epb41l5
F11r
9130230L23Rik
Kcnd3
Myadm
H2-DMa
Cox7b
Mmp14
1810011H11Rik
Gm14066
Lzts1
Samm50
Kif17
Rnf11
Trim71
Eif1a
Pdgfc
Ikzf1
Sesn3
Oxct1
Slco2b1
Cd53
Adm
Rapgef3
Klhl41
Etfa
Fgl2
Htr2a
Gm35696
mt-Atp8
Cd300c
Gm1000
Plb1
A930016O22Rik
4833417C18Rik
Itgb7
Vtn
Gramd2
Greb1l
Slc39a12
Cald1
AC129590.1
Myb
Sept3
Sowahc
Shisa5
Fsd2
Cpxm1
Tmem100
Aoc2
Platr22
Crip2
AC121569.2
Gm12524
Gm13219
Gm26907
Gm32816
1700016L21Rik
2010005H15Rik
2900092C05Rik
4930426L09Rik
AC116596.2
AC153566.2
AC153974.1
AC154355.1
AC155709.2
AC156025.1
Acot12
CT009713.2
Chgb
Elovl3
Fam19a3
Foxc2
Foxq1
Gm10688
Gm11934
Gm12679
Gm14372
Gm20443
Gm34574
Gm35037
Gp9
Muc19
Nr1h5
Olfr690
Pabpc2
Pax3
R3hdml
Retnlg
Sost
Steap1
Stmnd1
Trim52
Xkr9
Bcl2
Gm26613
Ptgfr
Pld4
Zfp711
Cyfip2
P2ry12
Sema3f
Tmem2
Cbfb
Slc7a2
Lrrc43
Shroom2
Sobp
5930430L01Rik
Gpr132
Gm13110
Pdzd4
Camk1d
Dolk
Wasf1
Nfkbid
Abcb4
Gramd1b
C430002N11Rik
4930556N13Rik
Gm27008
Lrriq3
Taldo1
Slc25a4
Bpifb6
Apcdd1
Ccdc125
Sema3b
Adtrp
Pgrmc2
Oasl2
A330069E16Rik
Emid1
4930586N03Rik
Cisd1
Psmb4
A630033H20Rik
Plekha6
Arsg
Camk2a
Slc12a2
1190002N15Rik
Akt2
A630014C17Rik
AC154537.1
Caps2
Cyp2b10
Fa2h
Gm37184
Hfe2
Rsph1
Unc5cl
Klra17
Smc2
Pgap1
Immp2l
Gm5577
Ncapg
Six1
Cacng5
Cd79b
Clca2
Slc45a3
Hectd2os
Atp2b2
Nr5a2
E2f8
A230028O05Rik
Slc25a42
Igfn1
Parva
Aif1
Slc11a1
Mrvi1
Gpr135
Olfr732
Inpp5d
Fcrla
Gm20110
Aldh1l2
Khdrbs3
Atp1b2
Fam102a
Atp8b5
Drp2
Xpnpep3
Hif1a
Gpx3
Cacna1b
Abhd5
Fam19a5
Mapk4
Tnfaip8
Gale
4933405D12Rik
Atp5j2
Hivep2
Notch4
Ncf1
Gm16124
Rnf144b
Pxmp2
1700112D23Rik
Gimap4
Tmem26
Chst3
Zfpm2
Spn
Abca17
Osbpl8
Irf8
Sult5a1
Apobec2
Gm14280
Gm31108
Gm43192
4930438E09Rik
4930549C15Rik
Sox4
Zdhhc14
Ltbp2
Zswim5
CAAA01119292.1
Pgm2
Lgi2
Slc25a20
Hprt
Foxp4
Tekt1
Cacna1a
Itga11
Rgs18
Slamf8
Gm29394
Ubash3a
Ptprm
Arid5b
Tmem38b
Yap1
Etfb
Ankrd29
Mat2a
Nov
Efcab9
Gm43666
4930404H11Rik
Rhpn2
Pfkl
Bcl9l
Gm32200
Nxpe2
Taf15
Trbc1
Gm15675
Gm16499
E130308A19Rik
Cidea
Cygb
Lrrc8c
Gm4610
Itga8
Gm10603
Ncapd2
Stau2
Olfm1
Mcub
Cerk
Htr2b
Cited2
Mvd
Lactb2
Pole
Syt1
Procr
Slc9a3r2
Ttc7b
Mfng
Neurl2
5930403N24Rik
Asb12
Cdkn2c
Elavl2
Fam227b
Csf3r
Spi1
Lst1
Tmc5
Acss1
Cntn5
Fam20a
Gpr137c
Arhgap20
Axl
Nav3
Teddm2
Wnt5b
Clec4b1
Angpt4
Gldc
Sox7
Cox5a
Gm12236
Gm44767
Pirb
Aox3
Vhl
AC101945.2
Smarca1
Znrf2
Ercc6
Ptprt
Lmnb1
Cep70
Hells
Ncf2
Dact1
Arhgap19
Rarb
Rpe
Apoc4
Gm26797
Klhl25
Pnrc1
Gata2
H2-Ob
Ctla4
Fbxl4
Kcnab1
Zfp827
Lbh
Cd200r2
Nlrc5
Pir
Tox2
Frmpd1
AC138329.1
Gm14661
Gm1715
Rdh12
Tnfsf14
Fam83d
Marc2
Gm42556
Atp8b1
Gli3
Lnx2
Gm13212
Spaar
Slco5a1
A430010J10Rik
4930412B13Rik
Car1
Galnt6
Lrp12
Acadl
Hs3st1
Heyl
Prag1
Gm4841
Pbx3
Gm38973
4930470O06Rik
Gm34158
Ina
Yipf7
Prdm10
S100a13
Cela1
Cs
Wipf3
Chst1
Ssr3
Cysltr1
Pcgf5
Fermt2
Tespa1
BE692007
Gsap
Fhitos
Nipal2
Tm2d2
Rab31
AC125041.1
Sucla2
Ssc4d
March5
Osbpl6
Col23a1
Pygl
Lrrn2
Dmkn
Hcst
Parp3
Stxbp6
Relb
Cpm
Rps2
Gm15700
Gm26772
A730081D07Rik
Gm16759
Sirpb1b
Sec11c
Slc2a4
Gm37853
Mxd3
Rit2
Snx31
Kank1
Fam19a1
Pitpnm3
Gm45218
Pdzd2
Gm44626
Il1r2
Fhl1
Vipr1
Halr1
Zfp503
Plppr5
Card14
Ctnnal1
Fgd2
Slc7a13
Gm21188
4930551O13Rik
Asb15
Klra3
1700010I02Rik
1700125G22Rik
1810013D15Rik
4930538E20Rik
4933404K08Rik
9130204L05Rik
AC107645.1
AC107808.1
Apol7e
B930082K07Rik
Baiap3
CT025689.5
Cd209e
Cyp3a57
Gabra5
Gdap1l1
Gldn
Gm11099
Gm11418
Gm12603
Gm19619
Gm26515
Gm28792
Gm28818
Gm29088
Gm29502
Gm37062
Gm46189
Hist3h2ba
Lhfpl5
Meig1
Muc3a
Olfr1426
Olfr173
Olfr60
Prickle4
Serpinb1b
Slc26a5
Spdef
Tmbim7
Trank1
Trim42
Ube2ql1
Cntfr
Klf15
Zfp36
Pdlim1
Ifi205
4930455D15Rik
Mgst2
Hist1h4i
Ksr1
Hes1
Smc4
Slc25a51
Mydgf
Vkorc1l1
Ubqln2
Mccc1os
Ube2c
Dll1
Nfe2l3
Gm7173
Garem1
Nhej1
Ier5
E2f2
Gm16083
Pon3
Bmp4
Fkbp2
AC154681.1
Apobec3
Cacna2d1
Dock8
Junos
Ak2
Il10ra
Sult1a1
Cd28
Dock10
AC159301.1
Dio2
Gm15317
Grm4
Tmc1
A1bg
Slc7a7
Eno3
Adamts2
Lpcat3
Oas2
Pkn3
Stk10
Kif24
Itga2
Gimap3
Myom3
Gimap6
Gm15283
Vstm4
Marcks
Mastl
Myof
Troap
Gjc1
Gm13889
Lrtm1
Fam227a
AC144949.1
Gm38304
Pcbp3
Mob3b
Gas2
Gipc2
Rps27l
Ap3s1
Rhoh
A830019P07Rik
A430093F15Rik
Cyp2s1
Pld5
Entpd5
Ifi47
Mcm6
Abcb1b
A630012P03Rik
Higd1a
Azin2
Arhgef28
AC124729.1
4930412C18Rik
Ppfibp2
Dll4
Trerf1
Samd4
Osgin1
Ppp1r1a
Cpne7
Gm15984
Usp43
Slfn5
Baiap2
Nsg2
Ofcc1
Elfn1
Gpr160
Stat5a
Slc12a8
9130015L21Rik
Gm36431
Gm5532
Otogl
Samd11
Fmod
Per3
Fbln7
Fanca
Tm6sf1
Pdgfrl
Slc2a3
Acbd6
Osbpl3
Galnt13
Wee1
Gm14461
Hepacam2
Myl9
Rwdd3
Elp3
Myocd
Ndufc1
Hgsnat
Nmnat2
Ndrg2
Gm45524
5330439A09Rik
Ccdc65
Cideb
Gm10425
Gm34237
Mipepos
Mir9-3hg
Saxo1
Slc38a3
Fbxw10
Arhgef3
Cdc25c
Selenos
Tmem86a
Lacc1
Aprt
Rhbdf2
Ppm1e
Nfatc2
Ikbkg
Atpaf2
E330011O21Rik
B3gat1
Scn7a
Rps9
Pmvk
Hpcal1
Rab11fip4
Sh3bgrl2
Syt14
Apold1
Gm4952
Gm12367
Ddit3
Hist1h1b
Pmm1
Stab2
Rtn4rl1
Kazn
Herc6
BC030867
Tcn2
Gm4258
Ceacam16
Rasgrp1
Rps6ka5
Atp1b4
Trat1
Lrmp
Plin2
AC123705.4
Arhgap32
Dock3
Rhob
Uaca
Gbp7
Alas1
Egfros
Unc119
Tmem59
Trim7
Rgma
Amotl1
Dnah8
Klf8
Sod1
Pla2g2d
Gm13387
Pex1
Ephb4
Gadd45b
Vac14
Ugdh
Nln
Gm42567
Tmem44
Mgat4a
Aacs
Mnd1
Plekha4
1700029J03Rik
Chrna9
AA467197
Masp1
P2ry13
4930486I03Rik
Mgat5
Aurkb
Psmb8
Cyp1b1
Plekhg6
Zfand4
Cd37
Espl1
Gm26954
Serpinb1c
Gm454
4930539E08Rik
Gm45064
Glra3
Gm44596
P2rx1
Msra
Hc
Mab21l3
Rhov
Rnf43
Osr1
Rnf122
Hrasls5
Cmtm8
Ecscr
Sdf2l1
Rbpms2
Mipol1
Gm13710
Agtr1a
A930029G22Rik
Mirg
Vdr
Tal1
Axin2
Dnm3os
Bcar1
Nfil3
A330076H08Rik
Slc43a3
Arhgap10
Gata6
Cd96
Slc7a14
Tmem144
Fzd3
Ptpn18
Rasa4
Gm8298
Mgst3
Qpct
Pitpnm2
Klhl5
S100a8
Gm13470
Ccnb1
Bmp2
Vstm2b
P2ry6
A730049H05Rik
Adh1
Elmod2
Hspg2
Cdca7l
Pald1
Ace
Cdsn
Ctnnbip1
AC122346.1
Npas4
Sema4a
Zpbp
AC154270.1
Neo1
A730004F24Rik
AC134414.1
Asic1
Best3
C130060K24Rik
Cacna1h
Crb1
Gata1
Gckr
Gm20509
Gm21830
Gm26815
Gm27167
Gm40662
Gm43401
Gm4969
Gm53
Igha
Klk11
Platr29
Tcp11x2
Tgm6
AC156794.1
Catsperb
Ccdc83
Etnppl
Gbp2b
Odf3b
Rgs13
Slc22a19
Vpreb3
Hs3st2
Tnfrsf13c
Gnb5
Cntnap2
Fermt3
Tbx3
Cdca8
Pla2g10
9330154J02Rik
4930568A12Rik
AC133948.1
Acsl6
Cnga2
Crocc2
Gm11967
Gm13269
Gm15178
Gm30400
Gm36028
Gm42948
Lbx2
Scnn1b
Slco1a4
Tdrd9
Mbd1
Hyal5
Rpl41
Bcl9
Pik3r6
Fbxo4
Gimap1
4430402I18Rik
Clvs1
Rundc3b
Cacng7
Ttyh2
Pvt1
Retreg1
Tmem231
Adgrg3
Gm6994
Gnat3
Paox
Col25a1
Gm36660
Slf1
Gpr34
Folr1
1700019A02Rik
Sim1
Aco1
Olfr1033
C330027C09Rik
Cry2
Gm21123
AC132344.1
Enthd1
Gm38832
Gen1
Gng2
Sgo2a
Ccpg1os
Hist2h3c2
Amotl2
Ehd1
S100a11
Acad10
Sla
Mms22l
Srxn1
Dhh
Otud7a
Lamtor2
AC154627.2
Gm44993
Selplg
Rab30
Fam13c
Abhd6
Adap2
Acp6
A830082K12Rik
Gab3
Havcr2
Cyp3a13
AC122317.1
Fam151a
Gimap7
Gm37381
Necab1
Ppp1r1c
Gcsam
Vsnl1
Rbbp8
Tmem245
Sirpb1a
Kcnh1
Pak7
Cdkl1
Fgfrl1
Igsf6
Tlr8
Ablim1
Mif4gd
Reps2
Ctsw
Trib2
Erc1
Sulf2
Gnb4
Chchd6
Cpa2
Gm46348
Hs3st3a1
Nbl1
Adra1b
Cd33
Tmem192
Ldlr
Ispd
Fam167a
Dpy19l3
AC122397.2
Opn3
Wdr60
Dlat
Arhgap30
Tm4sf5
AC153955.2
1700061H18Rik
Eif4ebp1
Aatk
Sec61a2
Nuf2
Gm30978
Hunk
Rnf165
Pcdh1
Dok2
Psen2
Lamb1
Lrig1
Tmem154
Gm16271
Npl
Lat
Zswim2
Cd19
RMST-1
Ndc1
Adam22
Cmbl
Disc1
Frrs1
Naip2
Impg2
Hspa12b
Cystm1
Gm12082
Proser2
Gm43388
Taf4b
Ccl12
Cacna1g
Fam189a2
AC027700.1
Alb
Gm40621
Grin1
1700025G04Rik
Hlf
Hdac7
1810058I24Rik
Mmp2
Pitx1
Galnt15
Ccdc163
9130204K15Rik
Gm11290
Plekho1
Lrp3
Gm43915
Sgsm1
Tmem43
Sfmbt2
Lpar1
Dtx2
Mmp9
Itgae
Mbp
Gm960
Gucd1
Dcaf5
Abcb9
Krtdap
Dera
Ninl
Rex1bd
Tmpo
2610203C22Rik
Slc28a2
Ccnd1
Spaca6
Hs3st3b1
Mirt1
Lekr1
Creb3l1
C1qtnf3
Gcom1
Myo3a
Tex45
Tmem30c
Fcmr
Tmem212
1700069L16Rik
4930563D23Rik
CT009510.2
Gm29674
Trdc
Wfdc3
Meox1
Mapk10
Ntng2
9230114K14Rik
Mb21d2
Arhgap22
Ahcyl2
Mfap4
CN725425
CT010456.3
Lrrc23
Onecut2
Trpm5
9230104L09Rik
Fam71f2
Sertad2
Kif26a
Gm26801
Gatm
Efnb1
Acpp
Bnc2
4930523C07Rik
Pla2r1
Adk
Akr1b8
Neurl3
Clec4a1
Fgd4
Prkcz
Rnf213
Cyp2j8
Edem1
Sox5os2
Gm15413
Gm28403
Gm43189
Cpa6
Gm44129
Ccdc158
Tnfaip3
Ttc28
Ifi206
Gsdme
Hgf
AC140409.1
Naalad2
Pla2g12a
Scp2
Gm14091
Ptprf
4933417O13Rik
Galnt7
Gm26542
Gngt2
BB218582
Olfr112
Ezh2
A730056A06Rik
2010111I01Rik
Tmem266
AC166352.1
Evi2a
Klrb1a
Spta1
Mamld1
0610040J01Rik
D330045A20Rik
Gm11149
Ms4a1
Rhbdl2
Dglucy
Ppp1r3b
Cdkl5
Clip4
Unc45b
Nox1
Cep55
Fblim1
Tle3
Rem1
Cldn10
Lzts2
Tonsl
Pcyox1
Slc15a2
Spats2l
Des
Magi3
Pfkm
Htra3
Faiml
4930573H18Rik
Fbxo40
Mad1l1
Trpc1
Gm42439
AC132112.1
AC132467.1
AC153364.1
Dlx4os
Gm26604
Hrc
Klrg1
Mt3
Perm1
Synpo2l
Trp73
9430002A10Rik
AC122341.1
AC139754.1
Adora3
Agtr1b
Bhmt2
Catsper4
Cnih3
Gm15496
Gm20163
Gm33981
Gm37107
Gm38590
Mgarp
Mmp8
Morn5
Mycl
Olfr1396
Ptprh
Rab25
S100a2
Slco1a6
Tspan8
Tsx
Ttc36
Wee2
Xlr4c
Lipf
Nudt12
Pank1
Itpka
Capsl
Clpx
Pfn1
Gm45237
Cmklr1
4930502A04Rik
Zbp1
Dock5
Casz1
Mtcl1
Gm13963
D630033O11Rik
Ahr
Katnal2
Gla
Ivd
Slc16a9
Tspan3
Eva1c
Slc38a1
2010107E04Rik
Serpinb6b
D930032P07Rik
3425401B19Rik
Lrrc17
H2-Q7
Lman2
Zfp608
Pik3cd
Clec4n
Alg14
Rab8b
Cox6b2
Gm12979
Pou3f1
Gm13713
Tjp1
Efhd2
Atp5j
Rad51d
Osbp2
AC164426.2
Ptgs1
Car5a
Cblc
Uchl1os
Plcb4
Gm44850
Aim2
Tns3
Spns2
Dpep1
Fntb
Atp6v0e
Akap17b
Sdhaf3
Jcad
Ccdc68
Tnfrsf26
2610206C17Rik
Syn3
Cnpy2
Prdx5
Tanc1
AC122251.2
H2-DMb1
Eps8
Parp9
Gria1
Abcg2
Ccdc88c
Mpp5
Gm14164
Cldn1
Col22a1
Gm12766
Gm33782
Rab9b
1810019D21Rik
Bbox1
Elf5
Gm11541
Gm15169
Ly6d
Olfr727
Smpx
4930557J02Rik
5830428M24Rik
Gm15418
Tbc1d9
Trim59
Dynll2
Axdnd1
Abca13
Gsr
Slc6a8
Gm20743
Zbtb46
Socs6
Irf5
Vat1
Ulk4
Clec4a3
Fanci
4930517O19Rik
Pcp4l1
Dnah10
Rnf125
Apol10b
Gm16214
Snap91
Nedd8
Dhrs7
Ech1
Adam32
Chp2
Lin52
Gm39348
Gm26714
Etfbkmt
Adgrv1
Slc16a14
Bace2
Amy1
St3gal3
B3glct
Gtdc1
Gdf3
A530013C23Rik
9430069I07Rik
Bcorl1
Sag
Bin2
Mccc1
Phtf2
Trip4
Ap3b2
Ndufa11
Slc22a2
Scai
BC048559
Gm15345
Gm30667
Ermp1
Mdm2
Lin9
Pdlim7
Slc2a1
Map3k5
Ifi209
Znrf3
Rnf19b
Gm17344
Spaca1
Tg
Nudt18
Slfn1
Spata48
1700026J12Rik
Ska1
Hrh2
Cd99l2
Cdkn2a
Bmp8a
Robo2
Sem1
Gm35315
AC123658.1
Fxyd6
Nat8l
Egln3
Dph6
Fam83f
Csf1
Stmn1
Fmnl3
Cyp39a1
Col11a1
Hal
1700041M19Rik
Ccnjl
Slc6a4
Ppef1
Slc23a3
Pde5a
Rtkn2
E230029C05Rik
Rab15
Arhgef6
BB557941
1700008O03Rik
Stx11
Klhdc10
Lss
Capn3
Gm32507
Chchd3
Ndufb6
Mfsd8
Lonrf2
Gm36535
Satb2
Ska3
Pstpip1
Fam178b
D530033B14Rik
Wdr76
Fam213b
Wwc1
Gm15866
Cdr2
Tmem206
Arhgap26
Mthfs
Synm
Calca
F830045P16Rik
Tchh
Gm4128
Mb21d1
Alpk2
Map2k6
Arl15
Tmbim6
Ocln
Slc25a23
Tulp3
Gm28156
Cnrip1
Rmdn3
Gpr173
Dnah7b
Usp13
H1f0
Klhl2
Usp18
Cacna1f
Stk33
Tpp1
E330013P04Rik
Rab38
Kifc5b
Asb5
Pak1
Prr32
2310008N11Rik
Gm16702
Gm2694
H19
Mfsd4b5
S100g
Zfp804a
Nek5
Gab1
Unc5b
Mfsd6
Shcbp1l
Sec22a
Sgms2
2210408F21Rik
Elk3
Tmem202
